%!PS-Adobe-2.0
%%Creator: Copyright 1993 by Bram Stolk
%% The definition of setfrequency is taken from Bram's dither.ps,
%% published on comp.sources.ps in 1995.  The parameter 30 seems OK
%% to make the logo copyable in a standard copying machine. /BV 010227.

/setfrequency
{
  currentscreen
  3 index		% retrieve parameter to top of stack
  2 index 
  2 index
  setscreen
  pop			% clear residu from stack
  pop
  pop 
  pop
} def

30 setfrequency
