%!PS-Adobe-3.0 EPSF-3.0
%%Creator: (MATLAB, The Mathworks, Inc. Version 8.4.0.150421 \(R2014b\). Operating System: Linux)
%%Title: /home/pavol/Desktop/pics/5percent.eps
%%CreationDate: 2015-01-27T10:52:30
%%Pages: (atend)
%%BoundingBox: 0 0 150 113
%%LanguageLevel: 2
%%EndComments
%%BeginProlog
%%BeginResource: procset (Apache XML Graphics Std ProcSet) 1.2 0
%%Version: 1.2 0
%%Copyright: (Copyright 2001-2003,2010 The Apache Software Foundation. License terms: http://www.apache.org/licenses/LICENSE-2.0)
/bd{bind def}bind def
/ld{load def}bd
/GR/grestore ld
/M/moveto ld
/LJ/setlinejoin ld
/C/curveto ld
/f/fill ld
/LW/setlinewidth ld
/GC/setgray ld
/t/show ld
/N/newpath ld
/CT/concat ld
/cp/closepath ld
/S/stroke ld
/L/lineto ld
/CC/setcmykcolor ld
/A/ashow ld
/GS/gsave ld
/RC/setrgbcolor ld
/RM/rmoveto ld
/ML/setmiterlimit ld
/re {4 2 roll M
1 index 0 rlineto
0 exch rlineto
neg 0 rlineto
cp } bd
/_ctm matrix def
/_tm matrix def
/BT { _ctm currentmatrix pop matrix _tm copy pop 0 0 moveto } bd
/ET { _ctm setmatrix } bd
/iTm { _ctm setmatrix _tm concat } bd
/Tm { _tm astore pop iTm 0 0 moveto } bd
/ux 0.0 def
/uy 0.0 def
/F {
  /Tp exch def
  /Tf exch def
  Tf findfont Tp scalefont setfont
  /cf Tf def  /cs Tp def
} bd
/ULS {currentpoint /uy exch def /ux exch def} bd
/ULE {
  /Tcx currentpoint pop def
  gsave
  newpath
  cf findfont cs scalefont dup
  /FontMatrix get 0 get /Ts exch def /FontInfo get dup
  /UnderlinePosition get Ts mul /To exch def
  /UnderlineThickness get Ts mul /Tt exch def
  ux uy To add moveto  Tcx uy To add lineto
  Tt setlinewidth stroke
  grestore
} bd
/OLE {
  /Tcx currentpoint pop def
  gsave
  newpath
  cf findfont cs scalefont dup
  /FontMatrix get 0 get /Ts exch def /FontInfo get dup
  /UnderlinePosition get Ts mul /To exch def
  /UnderlineThickness get Ts mul /Tt exch def
  ux uy To add cs add moveto Tcx uy To add cs add lineto
  Tt setlinewidth stroke
  grestore
} bd
/SOE {
  /Tcx currentpoint pop def
  gsave
  newpath
  cf findfont cs scalefont dup
  /FontMatrix get 0 get /Ts exch def /FontInfo get dup
  /UnderlinePosition get Ts mul /To exch def
  /UnderlineThickness get Ts mul /Tt exch def
  ux uy To add cs 10 mul 26 idiv add moveto Tcx uy To add cs 10 mul 26 idiv add lineto
  Tt setlinewidth stroke
  grestore
} bd
/QT {
/Y22 exch store
/X22 exch store
/Y21 exch store
/X21 exch store
currentpoint
/Y21 load 2 mul add 3 div exch
/X21 load 2 mul add 3 div exch
/X21 load 2 mul /X22 load add 3 div
/Y21 load 2 mul /Y22 load add 3 div
/X22 load /Y22 load curveto
} bd
/SSPD {
dup length /d exch dict def
{
/v exch def
/k exch def
currentpagedevice k known {
/cpdv currentpagedevice k get def
v cpdv ne {
/upd false def
/nullv v type /nulltype eq def
/nullcpdv cpdv type /nulltype eq def
nullv nullcpdv or
{
/upd true def
} {
/sametype v type cpdv type eq def
sametype {
v type /arraytype eq {
/vlen v length def
/cpdvlen cpdv length def
vlen cpdvlen eq {
0 1 vlen 1 sub {
/i exch def
/obj v i get def
/cpdobj cpdv i get def
obj cpdobj ne {
/upd true def
exit
} if
} for
} {
/upd true def
} ifelse
} {
v type /dicttype eq {
v {
/dv exch def
/dk exch def
/cpddv cpdv dk get def
dv cpddv ne {
/upd true def
exit
} if
} forall
} {
/upd true def
} ifelse
} ifelse
} if
} ifelse
upd true eq {
d k v put
} if
} if
} if
} forall
d length 0 gt {
d setpagedevice
} if
} bd
%%EndResource
%%BeginResource: procset (Apache XML Graphics EPS ProcSet) 1.0 0
%%Version: 1.0 0
%%Copyright: (Copyright 2002-2003 The Apache Software Foundation. License terms: http://www.apache.org/licenses/LICENSE-2.0)
/BeginEPSF { %def
/b4_Inc_state save def         % Save state for cleanup
/dict_count countdictstack def % Count objects on dict stack
/op_count count 1 sub def      % Count objects on operand stack
userdict begin                 % Push userdict on dict stack
/showpage { } def              % Redefine showpage, { } = null proc
0 setgray 0 setlinecap         % Prepare graphics state
1 setlinewidth 0 setlinejoin
10 setmiterlimit [ ] 0 setdash newpath
/languagelevel where           % If level not equal to 1 then
{pop languagelevel             % set strokeadjust and
1 ne                           % overprint to their defaults.
{false setstrokeadjust false setoverprint
} if
} if
} bd
/EndEPSF { %def
count op_count sub {pop} repeat            % Clean up stacks
countdictstack dict_count sub {end} repeat
b4_Inc_state restore
} bd
%%EndResource
%FOPBeginFontDict
%%IncludeResource: font Courier-Bold
%%IncludeResource: font Helvetica
%%IncludeResource: font Courier-BoldOblique
%%IncludeResource: font Courier-Oblique
%%IncludeResource: font Times-Roman
%%IncludeResource: font Helvetica-BoldOblique
%%IncludeResource: font Helvetica-Bold
%%IncludeResource: font Helvetica-Oblique
%%IncludeResource: font Times-BoldItalic
%%IncludeResource: font Courier
%%IncludeResource: font Times-Italic
%%IncludeResource: font Times-Bold
%%IncludeResource: font Symbol
%%IncludeResource: font ZapfDingbats
%FOPEndFontDict
%%BeginResource: encoding WinAnsiEncoding
/WinAnsiEncoding [
/.notdef /.notdef /.notdef /.notdef /.notdef
/.notdef /.notdef /.notdef /.notdef /.notdef
/.notdef /.notdef /.notdef /.notdef /.notdef
/.notdef /.notdef /.notdef /.notdef /.notdef
/.notdef /.notdef /.notdef /.notdef /.notdef
/.notdef /.notdef /.notdef /.notdef /.notdef
/.notdef /.notdef /space /exclam /quotedbl
/numbersign /dollar /percent /ampersand /quotesingle
/parenleft /parenright /asterisk /plus /comma
/hyphen /period /slash /zero /one
/two /three /four /five /six
/seven /eight /nine /colon /semicolon
/less /equal /greater /question /at
/A /B /C /D /E
/F /G /H /I /J
/K /L /M /N /O
/P /Q /R /S /T
/U /V /W /X /Y
/Z /bracketleft /backslash /bracketright /asciicircum
/underscore /quoteleft /a /b /c
/d /e /f /g /h
/i /j /k /l /m
/n /o /p /q /r
/s /t /u /v /w
/x /y /z /braceleft /bar
/braceright /asciitilde /bullet /Euro /bullet
/quotesinglbase /florin /quotedblbase /ellipsis /dagger
/daggerdbl /circumflex /perthousand /Scaron /guilsinglleft
/OE /bullet /Zcaron /bullet /bullet
/quoteleft /quoteright /quotedblleft /quotedblright /bullet
/endash /emdash /asciitilde /trademark /scaron
/guilsinglright /oe /bullet /zcaron /Ydieresis
/space /exclamdown /cent /sterling /currency
/yen /brokenbar /section /dieresis /copyright
/ordfeminine /guillemotleft /logicalnot /sfthyphen /registered
/macron /degree /plusminus /twosuperior /threesuperior
/acute /mu /paragraph /middot /cedilla
/onesuperior /ordmasculine /guillemotright /onequarter /onehalf
/threequarters /questiondown /Agrave /Aacute /Acircumflex
/Atilde /Adieresis /Aring /AE /Ccedilla
/Egrave /Eacute /Ecircumflex /Edieresis /Igrave
/Iacute /Icircumflex /Idieresis /Eth /Ntilde
/Ograve /Oacute /Ocircumflex /Otilde /Odieresis
/multiply /Oslash /Ugrave /Uacute /Ucircumflex
/Udieresis /Yacute /Thorn /germandbls /agrave
/aacute /acircumflex /atilde /adieresis /aring
/ae /ccedilla /egrave /eacute /ecircumflex
/edieresis /igrave /iacute /icircumflex /idieresis
/eth /ntilde /ograve /oacute /ocircumflex
/otilde /odieresis /divide /oslash /ugrave
/uacute /ucircumflex /udieresis /yacute /thorn
/ydieresis
] def
%%EndResource
%FOPBeginFontReencode
/Courier-Bold findfont
dup length dict begin
  {1 index /FID ne {def} {pop pop} ifelse} forall
  /Encoding WinAnsiEncoding def
  currentdict
end
/Courier-Bold exch definefont pop
/Helvetica findfont
dup length dict begin
  {1 index /FID ne {def} {pop pop} ifelse} forall
  /Encoding WinAnsiEncoding def
  currentdict
end
/Helvetica exch definefont pop
/Courier-BoldOblique findfont
dup length dict begin
  {1 index /FID ne {def} {pop pop} ifelse} forall
  /Encoding WinAnsiEncoding def
  currentdict
end
/Courier-BoldOblique exch definefont pop
/Courier-Oblique findfont
dup length dict begin
  {1 index /FID ne {def} {pop pop} ifelse} forall
  /Encoding WinAnsiEncoding def
  currentdict
end
/Courier-Oblique exch definefont pop
/Times-Roman findfont
dup length dict begin
  {1 index /FID ne {def} {pop pop} ifelse} forall
  /Encoding WinAnsiEncoding def
  currentdict
end
/Times-Roman exch definefont pop
/Helvetica-BoldOblique findfont
dup length dict begin
  {1 index /FID ne {def} {pop pop} ifelse} forall
  /Encoding WinAnsiEncoding def
  currentdict
end
/Helvetica-BoldOblique exch definefont pop
/Helvetica-Bold findfont
dup length dict begin
  {1 index /FID ne {def} {pop pop} ifelse} forall
  /Encoding WinAnsiEncoding def
  currentdict
end
/Helvetica-Bold exch definefont pop
/Helvetica-Oblique findfont
dup length dict begin
  {1 index /FID ne {def} {pop pop} ifelse} forall
  /Encoding WinAnsiEncoding def
  currentdict
end
/Helvetica-Oblique exch definefont pop
/Times-BoldItalic findfont
dup length dict begin
  {1 index /FID ne {def} {pop pop} ifelse} forall
  /Encoding WinAnsiEncoding def
  currentdict
end
/Times-BoldItalic exch definefont pop
/Courier findfont
dup length dict begin
  {1 index /FID ne {def} {pop pop} ifelse} forall
  /Encoding WinAnsiEncoding def
  currentdict
end
/Courier exch definefont pop
/Times-Italic findfont
dup length dict begin
  {1 index /FID ne {def} {pop pop} ifelse} forall
  /Encoding WinAnsiEncoding def
  currentdict
end
/Times-Italic exch definefont pop
/Times-Bold findfont
dup length dict begin
  {1 index /FID ne {def} {pop pop} ifelse} forall
  /Encoding WinAnsiEncoding def
  currentdict
end
/Times-Bold exch definefont pop
%FOPEndFontReencode
%%EndProlog
%%Page: 1 1
%%PageBoundingBox: 0 0 150 113
%%BeginPageSetup
[1 0 0 -1 0 113] CT
%%EndPageSetup
GS
[0.75 0 0 0.75 0 0.5] CT
1 GC
N
0 0 200 150 re
f
GR
GS
[0.75 0 0 0.75 0 0.5] CT
1 GC
N
0 0 200 150 re
f
GR
GS
[0.75 0 0 0.75 0 0.5] CT
1 GC
N
26 130 M
181 130 L
181 11 L
26 11 L
cp
f
GR
GS
[0.75 0 0 0.75 0 0.5] CT
0.149 GC
2 setlinecap
10.0 ML
N
26 130 M
181 130 L
S
GR
GS
[0.75 0 0 0.75 0 0.5] CT
0.149 GC
2 setlinecap
10.0 ML
N
26 11 M
181 11 L
S
GR
GS
[0.75 0 0 0.75 0 0.5] CT
0.149 GC
2 setlinecap
10.0 ML
N
26 130 M
26 128.45 L
S
GR
GS
[0.75 0 0 0.75 0 0.5] CT
0.149 GC
2 setlinecap
10.0 ML
N
26 11 M
26 12.55 L
S
GR
GS
[0.75 0 0 0.75 0 0.5] CT
0.149 GC
2 setlinecap
10.0 ML
N
103.5 130 M
103.5 128.45 L
S
GR
GS
[0.75 0 0 0.75 0 0.5] CT
0.149 GC
2 setlinecap
10.0 ML
N
103.5 11 M
103.5 12.55 L
S
GR
GS
[0.75 0 0 0.75 0 0.5] CT
0.149 GC
2 setlinecap
10.0 ML
N
181 130 M
181 128.45 L
S
GR
GS
[0.75 0 0 0.75 0 0.5] CT
0.149 GC
2 setlinecap
10.0 ML
N
181 11 M
181 12.55 L
S
GR
GS
[0.75 0 0 0.75 19.5 102] CT
0.149 GC
/Helvetica 13 F
GS
[1 0 0 1 0 0] CT
-4.135 12.067 moveto 
1 -1 scale
(0) t 
GR
GR
GS
[0.75 0 0 0.75 77.625 102] CT
0.149 GC
/Helvetica 13 F
GS
[1 0 0 1 0 0] CT
-8.271 12.067 moveto 
1 -1 scale
(50) t 
GR
GR
GS
[0.75 0 0 0.75 135.75 102] CT
0.149 GC
/Helvetica 13 F
GS
[1 0 0 1 0 0] CT
-12.406 12.067 moveto 
1 -1 scale
(100) t 
GR
GR
GS
[0.75 0 0 0.75 0 0.5] CT
0.149 GC
2 setlinecap
10.0 ML
N
26 130 M
26 11 L
S
GR
GS
[0.75 0 0 0.75 0 0.5] CT
0.149 GC
2 setlinecap
10.0 ML
N
181 130 M
181 11 L
S
GR
GS
[0.75 0 0 0.75 0 0.5] CT
0.149 GC
2 setlinecap
10.0 ML
N
26 130 M
27.55 130 L
S
GR
GS
[0.75 0 0 0.75 0 0.5] CT
0.149 GC
2 setlinecap
10.0 ML
N
181 130 M
179.45 130 L
S
GR
GS
[0.75 0 0 0.75 0 0.5] CT
0.149 GC
2 setlinecap
10.0 ML
N
26 90.333 M
27.55 90.333 L
S
GR
GS
[0.75 0 0 0.75 0 0.5] CT
0.149 GC
2 setlinecap
10.0 ML
N
181 90.333 M
179.45 90.333 L
S
GR
GS
[0.75 0 0 0.75 0 0.5] CT
0.149 GC
2 setlinecap
10.0 ML
N
26 50.667 M
27.55 50.667 L
S
GR
GS
[0.75 0 0 0.75 0 0.5] CT
0.149 GC
2 setlinecap
10.0 ML
N
181 50.667 M
179.45 50.667 L
S
GR
GS
[0.75 0 0 0.75 0 0.5] CT
0.149 GC
2 setlinecap
10.0 ML
N
26 11 M
27.55 11 L
S
GR
GS
[0.75 0 0 0.75 0 0.5] CT
0.149 GC
2 setlinecap
10.0 ML
N
181 11 M
179.45 11 L
S
GR
GS
[0.75 0 0 0.75 15.5 98] CT
0.149 GC
/Helvetica 13 F
GS
[1 0 0 1 0 0] CT
-8.271 4.5 moveto 
1 -1 scale
(0) t 
GR
GR
GS
[0.75 0 0 0.75 15.5 68.25] CT
0.149 GC
/Helvetica 13 F
GS
[1 0 0 1 0 0] CT
-16.542 4.5 moveto 
1 -1 scale
(20) t 
GR
GR
GS
[0.75 0 0 0.75 15.5 38.5] CT
0.149 GC
/Helvetica 13 F
GS
[1 0 0 1 0 0] CT
-16.542 4.5 moveto 
1 -1 scale
(40) t 
GR
GR
GS
[0.75 0 0 0.75 15.5 8.75] CT
0.149 GC
/Helvetica 13 F
GS
[1 0 0 1 0 0] CT
-16.542 4.5 moveto 
1 -1 scale
(60) t 
GR
GR
GS
[0.75 0 0 0.75 0 0.5] CT
1 0 0 RC
2 setlinecap
10.0 ML
N
26 130 M
26.155 130 L
26.31 130 L
26.465 130 L
26.62 130 L
26.775 130 L
26.93 130 L
27.085 130 L
27.24 130 L
27.395 130 L
27.55 130 L
27.705 130 L
27.86 130 L
28.015 130 L
28.17 130 L
28.325 130 L
28.48 130 L
28.635 130 L
28.79 130 L
28.945 130 L
29.1 130 L
29.255 130 L
29.41 130 L
29.565 130 L
29.72 130 L
29.875 130 L
30.03 130 L
30.185 130 L
30.34 130 L
30.495 130 L
30.65 130 L
30.805 130 L
30.96 130 L
31.115 130 L
31.27 130 L
31.425 130 L
31.58 130 L
31.735 130 L
31.89 130 L
32.045 130 L
32.2 130 L
32.355 130 L
32.51 130 L
32.665 130 L
32.82 130 L
32.975 130 L
33.13 130 L
33.285 128.017 L
33.44 128.017 L
33.595 128.017 L
33.75 128.017 L
33.905 128.017 L
34.06 126.033 L
34.215 126.033 L
34.37 126.033 L
34.525 126.033 L
34.68 126.033 L
34.835 124.05 L
34.99 124.05 L
35.145 124.05 L
35.3 124.05 L
35.455 124.05 L
35.61 124.05 L
35.765 124.05 L
35.92 124.05 L
36.075 124.05 L
36.23 124.05 L
36.385 124.05 L
36.54 124.05 L
36.695 124.05 L
36.85 124.05 L
37.005 124.05 L
37.16 124.05 L
37.315 124.05 L
37.47 124.05 L
37.625 124.05 L
37.78 124.05 L
37.935 124.05 L
38.09 124.05 L
38.245 124.05 L
38.4 124.05 L
38.555 124.05 L
38.71 124.05 L
38.865 124.05 L
39.02 124.05 L
39.175 124.05 L
39.33 124.05 L
39.485 124.05 L
39.64 122.067 L
39.795 122.067 L
39.95 122.067 L
40.105 120.083 L
40.26 120.083 L
40.415 120.083 L
40.57 120.083 L
40.725 120.083 L
40.88 120.083 L
41.035 120.083 L
41.19 120.083 L
41.345 120.083 L
41.5 120.083 L
41.655 120.083 L
41.81 120.083 L
41.965 120.083 L
42.12 122.067 L
42.275 122.067 L
42.43 122.067 L
42.585 122.067 L
42.74 122.067 L
42.895 122.067 L
43.05 122.067 L
43.205 122.067 L
43.36 122.067 L
43.515 122.067 L
43.67 122.067 L
43.825 122.067 L
43.98 122.067 L
44.135 122.067 L
44.29 122.067 L
44.445 122.067 L
44.6 122.067 L
44.755 122.067 L
44.91 120.083 L
45.065 120.083 L
45.22 120.083 L
45.375 118.1 L
45.53 118.1 L
45.685 118.1 L
45.84 118.1 L
45.995 118.1 L
46.15 118.1 L
46.305 118.1 L
46.46 118.1 L
46.615 118.1 L
46.77 116.117 L
46.925 116.117 L
47.08 116.117 L
47.235 114.133 L
47.39 114.133 L
47.545 114.133 L
47.7 114.133 L
47.855 114.133 L
48.01 114.133 L
48.165 114.133 L
48.32 114.133 L
48.475 114.133 L
48.63 114.133 L
48.785 114.133 L
48.94 114.133 L
49.095 114.133 L
49.25 114.133 L
49.405 114.133 L
49.56 114.133 L
49.715 114.133 L
49.87 112.15 L
50.025 112.15 L
50.18 112.15 L
50.335 112.15 L
50.49 112.15 L
50.645 112.15 L
50.8 110.167 L
50.955 110.167 L
51.11 110.167 L
51.265 110.167 L
51.42 110.167 L
51.575 110.167 L
51.73 110.167 L
51.885 110.167 L
52.04 110.167 L
52.195 110.167 L
52.35 110.167 L
52.505 108.183 L
52.66 108.183 L
52.815 108.183 L
52.97 108.183 L
53.125 108.183 L
53.28 108.183 L
53.435 108.183 L
53.59 108.183 L
53.745 108.183 L
53.9 108.183 L
54.055 108.183 L
54.21 108.183 L
54.365 108.183 L
54.52 108.183 L
54.675 108.183 L
54.83 108.183 L
54.985 108.183 L
55.14 108.183 L
55.295 108.183 L
55.45 108.183 L
55.605 108.183 L
55.76 108.183 L
55.915 108.183 L
56.07 108.183 L
56.225 106.2 L
56.38 106.2 L
56.535 106.2 L
56.69 106.2 L
56.845 106.2 L
57 106.2 L
57.155 106.2 L
57.31 106.2 L
57.465 106.2 L
57.62 106.2 L
57.775 104.217 L
57.93 104.217 L
58.085 104.217 L
58.24 104.217 L
58.395 104.217 L
58.55 104.217 L
58.705 104.217 L
58.86 104.217 L
59.015 104.217 L
59.17 104.217 L
59.325 104.217 L
59.48 102.233 L
59.635 100.25 L
59.79 98.267 L
59.945 98.267 L
60.1 98.267 L
60.255 98.267 L
60.41 98.267 L
60.565 98.267 L
60.72 96.283 L
60.875 96.283 L
61.03 96.283 L
61.185 96.283 L
61.34 96.283 L
61.495 96.283 L
61.65 96.283 L
61.805 96.283 L
61.96 96.283 L
62.115 96.283 L
62.27 96.283 L
62.425 94.3 L
62.58 96.283 L
62.735 96.283 L
62.89 96.283 L
63.045 96.283 L
63.2 96.283 L
63.355 96.283 L
63.51 94.3 L
63.665 92.317 L
63.82 92.317 L
63.975 92.317 L
64.13 92.317 L
64.285 92.317 L
64.44 92.317 L
64.595 92.317 L
64.75 92.317 L
64.905 92.317 L
65.06 92.317 L
65.215 90.333 L
65.37 90.333 L
65.525 90.333 L
65.68 90.333 L
65.835 90.333 L
65.99 90.333 L
66.145 90.333 L
66.3 90.333 L
66.455 90.333 L
66.61 90.333 L
66.765 90.333 L
66.92 90.333 L
67.075 90.333 L
67.23 90.333 L
67.385 90.333 L
67.54 90.333 L
67.695 90.333 L
67.85 90.333 L
68.005 90.333 L
68.16 90.333 L
68.315 90.333 L
68.47 90.333 L
68.625 90.333 L
68.78 90.333 L
68.935 90.333 L
69.09 90.333 L
69.245 90.333 L
69.4 90.333 L
69.555 90.333 L
69.71 90.333 L
69.865 90.333 L
70.02 90.333 L
70.175 90.333 L
70.33 90.333 L
70.485 90.333 L
70.64 88.35 L
70.795 88.35 L
70.95 88.35 L
71.105 88.35 L
71.26 88.35 L
71.415 88.35 L
71.57 88.35 L
71.725 88.35 L
71.88 88.35 L
72.035 88.35 L
72.19 86.367 L
72.345 86.367 L
72.5 86.367 L
72.655 86.367 L
72.81 86.367 L
72.965 86.367 L
73.12 86.367 L
73.275 86.367 L
73.43 86.367 L
73.585 86.367 L
73.74 86.367 L
73.895 86.367 L
74.05 86.367 L
74.205 84.383 L
74.36 84.383 L
74.515 84.383 L
74.67 84.383 L
74.825 84.383 L
74.98 84.383 L
75.135 84.383 L
75.29 84.383 L
75.445 84.383 L
75.6 80.417 L
75.755 80.417 L
75.91 80.417 L
76.065 80.417 L
76.22 80.417 L
76.375 80.417 L
76.53 80.417 L
76.685 80.417 L
76.84 80.417 L
76.995 80.417 L
77.15 80.417 L
77.305 80.417 L
77.46 80.417 L
77.615 80.417 L
77.77 78.433 L
77.925 78.433 L
78.08 78.433 L
78.235 78.433 L
78.39 78.433 L
78.545 76.45 L
78.7 76.45 L
78.855 78.433 L
79.01 78.433 L
79.165 78.433 L
79.32 78.433 L
79.475 78.433 L
79.63 78.433 L
79.785 78.433 L
79.94 78.433 L
80.095 78.433 L
80.25 78.433 L
80.405 78.433 L
80.56 78.433 L
80.715 78.433 L
80.87 78.433 L
81.025 78.433 L
81.18 78.433 L
81.335 78.433 L
81.49 78.433 L
81.645 78.433 L
81.8 76.45 L
81.955 76.45 L
82.11 76.45 L
82.265 76.45 L
82.42 76.45 L
82.575 76.45 L
82.73 76.45 L
82.885 74.467 L
83.04 74.467 L
83.195 74.467 L
83.35 74.467 L
83.505 74.467 L
83.66 74.467 L
83.815 74.467 L
83.97 72.483 L
84.125 74.467 L
84.28 74.467 L
84.435 74.467 L
84.59 74.467 L
84.745 74.467 L
84.9 74.467 L
85.055 74.467 L
85.21 74.467 L
85.365 74.467 L
85.52 74.467 L
85.675 74.467 L
85.83 74.467 L
85.985 74.467 L
86.14 74.467 L
86.295 74.467 L
86.45 74.467 L
86.605 74.467 L
86.76 74.467 L
86.915 74.467 L
87.07 74.467 L
87.225 74.467 L
87.38 74.467 L
87.535 72.483 L
87.69 72.483 L
87.845 72.483 L
88 72.483 L
88.155 70.5 L
88.31 70.5 L
88.465 68.517 L
88.62 68.517 L
88.775 66.533 L
88.93 66.533 L
89.085 66.533 L
89.24 66.533 L
89.395 66.533 L
89.55 66.533 L
89.705 66.533 L
89.86 66.533 L
90.015 66.533 L
90.17 66.533 L
90.325 66.533 L
90.48 66.533 L
90.635 66.533 L
90.79 66.533 L
90.945 66.533 L
91.1 66.533 L
91.255 66.533 L
91.41 66.533 L
91.565 64.55 L
91.72 64.55 L
91.875 64.55 L
92.03 64.55 L
92.185 64.55 L
92.34 62.567 L
92.495 62.567 L
92.65 62.567 L
92.805 62.567 L
92.96 62.567 L
93.115 62.567 L
93.27 62.567 L
93.425 62.567 L
93.58 62.567 L
93.735 62.567 L
93.89 62.567 L
94.045 62.567 L
94.2 62.567 L
94.355 62.567 L
94.51 62.567 L
94.665 62.567 L
94.82 62.567 L
94.975 62.567 L
95.13 62.567 L
95.285 62.567 L
95.44 62.567 L
95.595 62.567 L
95.75 60.583 L
95.905 60.583 L
96.06 60.583 L
96.215 60.583 L
96.37 60.583 L
96.525 60.583 L
96.68 60.583 L
96.835 60.583 L
96.99 60.583 L
97.145 60.583 L
97.3 60.583 L
97.455 60.583 L
97.61 60.583 L
97.765 60.583 L
97.92 60.583 L
98.075 60.583 L
98.23 60.583 L
98.385 60.583 L
98.54 60.583 L
98.695 60.583 L
98.85 60.583 L
99.005 60.583 L
99.16 60.583 L
99.315 60.583 L
99.47 60.583 L
99.625 60.583 L
99.78 60.583 L
99.935 60.583 L
100.09 60.583 L
100.245 60.583 L
100.4 60.583 L
100.555 60.583 L
100.71 60.583 L
100.865 60.583 L
101.02 60.583 L
101.175 60.583 L
101.33 60.583 L
101.485 60.583 L
101.64 60.583 L
101.795 60.583 L
101.95 60.583 L
102.105 60.583 L
102.26 60.583 L
102.415 60.583 L
102.57 60.583 L
102.725 60.583 L
102.88 60.583 L
103.035 60.583 L
103.19 60.583 L
103.345 60.583 L
103.5 60.583 L
103.655 60.583 L
103.81 62.567 L
103.965 62.567 L
104.12 62.567 L
104.275 62.567 L
104.43 62.567 L
104.585 62.567 L
104.74 62.567 L
104.895 62.567 L
105.05 62.567 L
105.205 62.567 L
105.36 62.567 L
105.515 60.583 L
105.67 60.583 L
105.825 60.583 L
105.98 60.583 L
106.135 60.583 L
106.29 60.583 L
106.445 60.583 L
106.6 60.583 L
106.755 62.567 L
106.91 62.567 L
107.065 62.567 L
107.22 64.55 L
107.375 64.55 L
107.53 64.55 L
107.685 64.55 L
107.84 64.55 L
107.995 64.55 L
108.15 62.567 L
108.305 62.567 L
108.46 62.567 L
108.615 62.567 L
108.77 62.567 L
108.925 62.567 L
109.08 62.567 L
109.235 62.567 L
109.39 60.583 L
109.545 60.583 L
109.7 60.583 L
109.855 60.583 L
110.01 60.583 L
110.165 60.583 L
110.32 60.583 L
110.475 60.583 L
110.63 60.583 L
110.785 60.583 L
110.94 60.583 L
111.095 62.567 L
111.25 62.567 L
111.405 62.567 L
111.56 62.567 L
111.715 62.567 L
111.87 60.583 L
112.025 60.583 L
112.18 60.583 L
112.335 60.583 L
112.49 60.583 L
112.645 60.583 L
112.8 60.583 L
112.955 60.583 L
113.11 60.583 L
113.265 58.6 L
113.42 58.6 L
113.575 58.6 L
113.73 58.6 L
113.885 58.6 L
114.04 58.6 L
114.195 58.6 L
114.35 56.617 L
114.505 56.617 L
114.66 56.617 L
114.815 56.617 L
114.97 56.617 L
115.125 56.617 L
115.28 56.617 L
115.435 54.633 L
115.59 54.633 L
115.745 54.633 L
115.9 54.633 L
116.055 54.633 L
116.21 54.633 L
116.365 52.65 L
116.52 52.65 L
116.675 52.65 L
116.83 50.667 L
116.985 50.667 L
117.14 50.667 L
117.295 50.667 L
117.45 50.667 L
117.605 50.667 L
117.76 50.667 L
117.915 50.667 L
118.07 50.667 L
118.225 48.683 L
118.38 48.683 L
118.535 48.683 L
118.69 48.683 L
118.845 48.683 L
119 48.683 L
119.155 48.683 L
119.31 48.683 L
119.465 48.683 L
119.62 48.683 L
119.775 48.683 L
119.93 48.683 L
120.085 48.683 L
120.24 50.667 L
120.395 50.667 L
120.55 52.65 L
120.705 52.65 L
120.86 52.65 L
121.015 52.65 L
121.17 52.65 L
121.325 52.65 L
121.48 52.65 L
121.635 52.65 L
121.79 52.65 L
121.945 52.65 L
122.1 52.65 L
122.255 52.65 L
122.41 52.65 L
122.565 52.65 L
122.72 52.65 L
122.875 52.65 L
123.03 52.65 L
123.185 52.65 L
123.34 52.65 L
123.495 50.667 L
123.65 50.667 L
123.805 50.667 L
123.96 48.683 L
124.115 48.683 L
124.27 48.683 L
124.425 48.683 L
124.58 48.683 L
124.735 48.683 L
124.89 48.683 L
125.045 50.667 L
125.2 50.667 L
125.355 52.65 L
125.51 52.65 L
125.665 52.65 L
125.82 52.65 L
125.975 52.65 L
126.13 52.65 L
126.285 52.65 L
126.44 54.633 L
126.595 54.633 L
126.75 54.633 L
126.905 54.633 L
127.06 54.633 L
127.215 54.633 L
127.37 54.633 L
127.525 54.633 L
127.68 54.633 L
127.835 54.633 L
127.99 54.633 L
128.145 54.633 L
128.3 54.633 L
128.455 54.633 L
128.61 50.667 L
128.765 50.667 L
128.92 52.65 L
129.075 52.65 L
129.23 52.65 L
129.385 52.65 L
129.54 52.65 L
129.695 52.65 L
129.85 50.667 L
130.005 48.683 L
130.16 48.683 L
130.315 48.683 L
130.47 48.683 L
130.625 48.683 L
130.78 48.683 L
130.935 48.683 L
131.09 48.683 L
131.245 48.683 L
131.4 48.683 L
131.555 48.683 L
131.71 48.683 L
131.865 48.683 L
132.02 48.683 L
132.175 50.667 L
132.33 50.667 L
132.485 50.667 L
132.64 50.667 L
132.795 50.667 L
132.95 50.667 L
133.105 50.667 L
133.26 50.667 L
133.415 50.667 L
133.57 50.667 L
133.725 50.667 L
133.88 50.667 L
134.035 50.667 L
134.19 50.667 L
134.345 50.667 L
134.5 50.667 L
134.655 52.65 L
134.81 52.65 L
134.965 52.65 L
135.12 52.65 L
135.275 52.65 L
135.43 52.65 L
135.585 52.65 L
135.74 52.65 L
135.895 52.65 L
136.05 52.65 L
136.205 52.65 L
136.36 52.65 L
136.515 52.65 L
136.67 50.667 L
136.825 48.683 L
136.98 48.683 L
137.135 48.683 L
137.29 48.683 L
137.445 48.683 L
137.6 48.683 L
137.755 48.683 L
137.91 48.683 L
138.065 48.683 L
138.22 46.7 L
138.375 46.7 L
138.53 44.717 L
138.685 44.717 L
138.84 44.717 L
138.995 44.717 L
139.15 44.717 L
139.305 44.717 L
139.46 44.717 L
139.615 44.717 L
139.77 44.717 L
139.925 44.717 L
140.08 44.717 L
140.235 46.7 L
140.39 44.717 L
140.545 46.7 L
140.7 46.7 L
140.855 46.7 L
141.01 46.7 L
141.165 46.7 L
141.32 46.7 L
141.475 46.7 L
141.63 44.717 L
141.785 44.717 L
141.94 44.717 L
142.095 44.717 L
142.25 44.717 L
142.405 44.717 L
142.56 44.717 L
142.715 44.717 L
142.87 44.717 L
143.025 44.717 L
143.18 44.717 L
143.335 44.717 L
143.49 42.733 L
143.645 42.733 L
143.8 42.733 L
143.955 42.733 L
144.11 42.733 L
144.265 42.733 L
144.42 42.733 L
144.575 42.733 L
144.73 40.75 L
144.885 40.75 L
145.04 40.75 L
145.195 40.75 L
145.35 40.75 L
145.505 40.75 L
145.66 40.75 L
145.815 40.75 L
145.97 40.75 L
146.125 40.75 L
146.28 38.767 L
146.435 34.8 L
146.59 34.8 L
146.745 34.8 L
146.9 34.8 L
147.055 34.8 L
147.21 36.783 L
147.365 36.783 L
147.52 36.783 L
147.675 36.783 L
147.83 36.783 L
147.985 36.783 L
148.14 36.783 L
148.295 36.783 L
148.45 36.783 L
148.605 36.783 L
148.76 36.783 L
148.915 36.783 L
149.07 38.767 L
149.225 38.767 L
149.38 38.767 L
149.535 38.767 L
149.69 38.767 L
149.845 38.767 L
150 38.767 L
150.155 38.767 L
150.31 38.767 L
150.465 38.767 L
150.62 38.767 L
150.775 38.767 L
150.93 36.783 L
151.085 36.783 L
151.24 36.783 L
151.395 36.783 L
151.55 36.783 L
151.705 36.783 L
151.86 36.783 L
152.015 36.783 L
152.17 36.783 L
152.325 36.783 L
152.48 34.8 L
152.635 34.8 L
152.79 34.8 L
152.945 34.8 L
153.1 34.8 L
153.255 32.817 L
153.41 32.817 L
153.565 32.817 L
153.72 32.817 L
153.875 32.817 L
154.03 32.817 L
154.185 32.817 L
154.34 32.817 L
154.495 32.817 L
154.65 32.817 L
154.805 30.833 L
154.96 28.85 L
155.115 28.85 L
155.27 26.867 L
155.425 28.85 L
155.58 28.85 L
155.735 26.867 L
155.89 26.867 L
156.045 26.867 L
156.2 26.867 L
156.355 26.867 L
156.51 24.883 L
156.665 24.883 L
156.82 24.883 L
156.975 24.883 L
157.13 24.883 L
157.285 24.883 L
157.44 24.883 L
157.595 24.883 L
157.75 24.883 L
157.905 24.883 L
158.06 24.883 L
158.215 24.883 L
158.37 24.883 L
158.525 24.883 L
158.68 24.883 L
158.835 24.883 L
158.99 24.883 L
159.145 24.883 L
159.3 24.883 L
159.455 24.883 L
159.61 24.883 L
159.765 24.883 L
159.92 24.883 L
160.075 24.883 L
160.23 24.883 L
160.385 24.883 L
160.54 24.883 L
160.695 24.883 L
160.85 24.883 L
161.005 26.867 L
161.16 28.85 L
161.315 28.85 L
161.47 28.85 L
161.625 28.85 L
161.78 28.85 L
161.935 28.85 L
162.09 28.85 L
162.245 28.85 L
162.4 28.85 L
162.555 28.85 L
162.71 28.85 L
162.865 28.85 L
163.02 28.85 L
163.175 28.85 L
163.33 26.867 L
163.485 26.867 L
163.64 26.867 L
163.795 26.867 L
163.95 26.867 L
164.105 26.867 L
164.26 28.85 L
164.415 30.833 L
164.57 30.833 L
164.725 30.833 L
164.88 30.833 L
165.035 28.85 L
165.19 28.85 L
165.345 28.85 L
165.5 28.85 L
165.655 28.85 L
165.81 28.85 L
165.965 28.85 L
166.12 28.85 L
166.275 28.85 L
166.43 28.85 L
166.585 28.85 L
166.74 28.85 L
166.895 28.85 L
167.05 28.85 L
167.205 28.85 L
167.36 28.85 L
167.515 26.867 L
167.67 26.867 L
167.825 26.867 L
167.98 26.867 L
168.135 26.867 L
168.29 28.85 L
168.445 28.85 L
168.6 28.85 L
168.755 28.85 L
168.91 28.85 L
169.065 28.85 L
169.22 28.85 L
169.375 28.85 L
169.53 28.85 L
169.685 28.85 L
169.84 28.85 L
169.995 28.85 L
170.15 28.85 L
170.305 28.85 L
170.46 28.85 L
170.615 28.85 L
170.77 28.85 L
170.925 30.833 L
171.08 30.833 L
171.235 30.833 L
171.39 30.833 L
171.545 28.85 L
171.7 28.85 L
171.855 28.85 L
172.01 28.85 L
172.165 26.867 L
172.32 26.867 L
172.475 26.867 L
172.63 24.883 L
172.785 24.883 L
172.94 24.883 L
173.095 24.883 L
173.25 24.883 L
173.405 24.883 L
173.56 22.9 L
173.715 22.9 L
173.87 20.917 L
174.025 20.917 L
174.18 20.917 L
174.335 22.9 L
174.49 22.9 L
174.645 22.9 L
174.8 22.9 L
174.955 22.9 L
175.11 22.9 L
175.265 22.9 L
175.42 22.9 L
175.575 22.9 L
175.73 24.883 L
175.885 24.883 L
176.04 22.9 L
176.195 22.9 L
176.35 22.9 L
176.505 22.9 L
176.66 22.9 L
176.815 22.9 L
176.97 22.9 L
177.125 22.9 L
177.28 22.9 L
177.435 22.9 L
177.59 22.9 L
177.745 22.9 L
177.9 22.9 L
178.055 22.9 L
178.21 22.9 L
178.365 22.9 L
178.52 22.9 L
178.675 22.9 L
178.83 20.917 L
178.985 20.917 L
179.14 18.933 L
179.295 18.933 L
179.45 18.933 L
179.605 18.933 L
179.76 18.933 L
179.915 18.933 L
180.07 18.933 L
180.225 18.933 L
180.38 18.933 L
180.535 18.933 L
180.69 20.917 L
180.845 20.917 L
181 20.917 L
S
GR
GS
[0.75 0 0 0.75 0 0.5] CT
0 0 1 RC
2 setlinecap
10.0 ML
N
26 130 M
26.155 130 L
26.31 130 L
26.465 130 L
26.62 130 L
26.775 130 L
26.93 130 L
27.085 130 L
27.24 130 L
27.395 130 L
27.55 130 L
27.705 130 L
27.86 130 L
28.015 130 L
28.17 130 L
28.325 130 L
28.48 130 L
28.635 130 L
28.79 130 L
28.945 130 L
29.1 130 L
29.255 130 L
29.41 130 L
29.565 130 L
29.72 130 L
29.875 130 L
30.03 130 L
30.185 130 L
30.34 130 L
30.495 130 L
30.65 130 L
30.805 130 L
30.96 130 L
31.115 130 L
31.27 130 L
31.425 130 L
31.58 130 L
31.735 130 L
31.89 130 L
32.045 130 L
32.2 130 L
32.355 130 L
32.51 130 L
32.665 130 L
32.82 130 L
32.975 130 L
33.13 130 L
33.285 128.017 L
33.44 128.017 L
33.595 128.017 L
33.75 128.017 L
33.905 128.017 L
34.06 126.033 L
34.215 126.033 L
34.37 126.033 L
34.525 126.033 L
34.68 126.033 L
34.835 124.05 L
34.99 124.05 L
35.145 124.05 L
35.3 124.05 L
35.455 124.05 L
35.61 124.05 L
35.765 124.05 L
35.92 124.05 L
36.075 124.05 L
36.23 124.05 L
36.385 124.05 L
36.54 124.05 L
36.695 124.05 L
36.85 124.05 L
37.005 124.05 L
37.16 124.05 L
37.315 124.05 L
37.47 124.05 L
37.625 124.05 L
37.78 124.05 L
37.935 124.05 L
38.09 124.05 L
38.245 124.05 L
38.4 124.05 L
38.555 124.05 L
38.71 124.05 L
38.865 124.05 L
39.02 124.05 L
39.175 124.05 L
39.33 124.05 L
39.485 124.05 L
39.64 122.067 L
39.795 122.067 L
39.95 122.067 L
40.105 120.083 L
40.26 120.083 L
40.415 120.083 L
40.57 120.083 L
40.725 120.083 L
40.88 120.083 L
41.035 120.083 L
41.19 120.083 L
41.345 120.083 L
41.5 120.083 L
41.655 120.083 L
41.81 120.083 L
41.965 120.083 L
42.12 120.083 L
42.275 122.067 L
42.43 122.067 L
42.585 122.067 L
42.74 122.067 L
42.895 122.067 L
43.05 122.067 L
43.205 122.067 L
43.36 122.067 L
43.515 122.067 L
43.67 122.067 L
43.825 122.067 L
43.98 122.067 L
44.135 122.067 L
44.29 122.067 L
44.445 122.067 L
44.6 122.067 L
44.755 122.067 L
44.91 122.067 L
45.065 120.083 L
45.22 120.083 L
45.375 118.1 L
45.53 118.1 L
45.685 118.1 L
45.84 118.1 L
45.995 118.1 L
46.15 118.1 L
46.305 118.1 L
46.46 118.1 L
46.615 118.1 L
46.77 118.1 L
46.925 116.117 L
47.08 116.117 L
47.235 116.117 L
47.39 114.133 L
47.545 114.133 L
47.7 114.133 L
47.855 114.133 L
48.01 114.133 L
48.165 114.133 L
48.32 114.133 L
48.475 114.133 L
48.63 114.133 L
48.785 114.133 L
48.94 114.133 L
49.095 114.133 L
49.25 114.133 L
49.405 114.133 L
49.56 114.133 L
49.715 114.133 L
49.87 114.133 L
50.025 112.15 L
50.18 112.15 L
50.335 112.15 L
50.49 112.15 L
50.645 112.15 L
50.8 110.167 L
50.955 110.167 L
51.11 110.167 L
51.265 110.167 L
51.42 110.167 L
51.575 110.167 L
51.73 110.167 L
51.885 110.167 L
52.04 110.167 L
52.195 110.167 L
52.35 110.167 L
52.505 110.167 L
52.66 108.183 L
52.815 108.183 L
52.97 108.183 L
53.125 108.183 L
53.28 108.183 L
53.435 108.183 L
53.59 108.183 L
53.745 108.183 L
53.9 108.183 L
54.055 108.183 L
54.21 108.183 L
54.365 108.183 L
54.52 108.183 L
54.675 108.183 L
54.83 108.183 L
54.985 108.183 L
55.14 108.183 L
55.295 108.183 L
55.45 108.183 L
55.605 108.183 L
55.76 108.183 L
55.915 108.183 L
56.07 108.183 L
56.225 106.2 L
56.38 106.2 L
56.535 106.2 L
56.69 106.2 L
56.845 106.2 L
57 106.2 L
57.155 106.2 L
57.31 106.2 L
57.465 106.2 L
57.62 106.2 L
57.775 106.2 L
57.93 104.217 L
58.085 104.217 L
58.24 104.217 L
58.395 104.217 L
58.55 104.217 L
58.705 104.217 L
58.86 104.217 L
59.015 104.217 L
59.17 104.217 L
59.325 104.217 L
59.48 104.217 L
59.635 102.233 L
59.79 98.267 L
59.945 98.267 L
60.1 98.267 L
60.255 98.267 L
60.41 98.267 L
60.565 98.267 L
60.72 98.267 L
60.875 96.283 L
61.03 96.283 L
61.185 96.283 L
61.34 96.283 L
61.495 96.283 L
61.65 96.283 L
61.805 96.283 L
61.96 96.283 L
62.115 96.283 L
62.27 96.283 L
62.425 94.3 L
62.58 94.3 L
62.735 96.283 L
62.89 96.283 L
63.045 96.283 L
63.2 96.283 L
63.355 96.283 L
63.51 96.283 L
63.665 94.3 L
63.82 92.317 L
63.975 92.317 L
64.13 92.317 L
64.285 92.317 L
64.44 92.317 L
64.595 92.317 L
64.75 92.317 L
64.905 92.317 L
65.06 92.317 L
65.215 90.333 L
65.37 90.333 L
65.525 90.333 L
65.68 90.333 L
65.835 90.333 L
65.99 90.333 L
66.145 90.333 L
66.3 90.333 L
66.455 90.333 L
66.61 90.333 L
66.765 90.333 L
66.92 90.333 L
67.075 90.333 L
67.23 90.333 L
67.385 90.333 L
67.54 90.333 L
67.695 90.333 L
67.85 90.333 L
68.005 90.333 L
68.16 90.333 L
68.315 90.333 L
68.47 90.333 L
68.625 90.333 L
68.78 90.333 L
68.935 90.333 L
69.09 90.333 L
69.245 90.333 L
69.4 90.333 L
69.555 90.333 L
69.71 90.333 L
69.865 90.333 L
70.02 90.333 L
70.175 90.333 L
70.33 90.333 L
70.485 90.333 L
70.64 90.333 L
70.795 88.35 L
70.95 88.35 L
71.105 88.35 L
71.26 88.35 L
71.415 88.35 L
71.57 88.35 L
71.725 88.35 L
71.88 88.35 L
72.035 88.35 L
72.19 88.35 L
72.345 86.367 L
72.5 86.367 L
72.655 86.367 L
72.81 86.367 L
72.965 86.367 L
73.12 86.367 L
73.275 86.367 L
73.43 86.367 L
73.585 86.367 L
73.74 86.367 L
73.895 86.367 L
74.05 86.367 L
74.205 86.367 L
74.36 84.383 L
74.515 84.383 L
74.67 84.383 L
74.825 84.383 L
74.98 84.383 L
75.135 84.383 L
75.29 84.383 L
75.445 84.383 L
75.6 82.4 L
75.755 80.417 L
75.91 80.417 L
76.065 80.417 L
76.22 80.417 L
76.375 80.417 L
76.53 80.417 L
76.685 80.417 L
76.84 80.417 L
76.995 80.417 L
77.15 80.417 L
77.305 80.417 L
77.46 80.417 L
77.615 80.417 L
77.77 78.433 L
77.925 78.433 L
78.08 78.433 L
78.235 78.433 L
78.39 78.433 L
78.545 78.433 L
78.7 76.45 L
78.855 76.45 L
79.01 78.433 L
79.165 78.433 L
79.32 78.433 L
79.475 78.433 L
79.63 78.433 L
79.785 78.433 L
79.94 78.433 L
80.095 78.433 L
80.25 78.433 L
80.405 78.433 L
80.56 78.433 L
80.715 78.433 L
80.87 78.433 L
81.025 78.433 L
81.18 78.433 L
81.335 78.433 L
81.49 78.433 L
81.645 78.433 L
81.8 78.433 L
81.955 76.45 L
82.11 76.45 L
82.265 76.45 L
82.42 76.45 L
82.575 76.45 L
82.73 76.45 L
82.885 76.45 L
83.04 74.467 L
83.195 74.467 L
83.35 74.467 L
83.505 74.467 L
83.66 74.467 L
83.815 74.467 L
83.97 74.467 L
84.125 72.483 L
84.28 74.467 L
84.435 74.467 L
84.59 74.467 L
84.745 74.467 L
84.9 74.467 L
85.055 74.467 L
85.21 74.467 L
85.365 74.467 L
85.52 74.467 L
85.675 74.467 L
85.83 74.467 L
85.985 74.467 L
86.14 74.467 L
86.295 74.467 L
86.45 74.467 L
86.605 74.467 L
86.76 74.467 L
86.915 74.467 L
87.07 74.467 L
87.225 74.467 L
87.38 74.467 L
87.535 72.483 L
87.69 72.483 L
87.845 72.483 L
88 72.483 L
88.155 72.483 L
88.31 70.5 L
88.465 70.5 L
88.62 68.517 L
88.775 66.533 L
88.93 66.533 L
89.085 66.533 L
89.24 66.533 L
89.395 66.533 L
89.55 66.533 L
89.705 66.533 L
89.86 66.533 L
90.015 66.533 L
90.17 66.533 L
90.325 66.533 L
90.48 66.533 L
90.635 66.533 L
90.79 66.533 L
90.945 66.533 L
91.1 66.533 L
91.255 66.533 L
91.41 66.533 L
91.565 64.55 L
91.72 64.55 L
91.875 64.55 L
92.03 64.55 L
92.185 64.55 L
92.34 64.55 L
92.495 62.567 L
92.65 62.567 L
92.805 62.567 L
92.96 62.567 L
93.115 62.567 L
93.27 62.567 L
93.425 62.567 L
93.58 62.567 L
93.735 62.567 L
93.89 62.567 L
94.045 62.567 L
94.2 62.567 L
94.355 62.567 L
94.51 62.567 L
94.665 62.567 L
94.82 62.567 L
94.975 62.567 L
95.13 62.567 L
95.285 62.567 L
95.44 62.567 L
95.595 62.567 L
95.75 62.567 L
95.905 60.583 L
96.06 60.583 L
96.215 60.583 L
96.37 60.583 L
96.525 60.583 L
96.68 60.583 L
96.835 60.583 L
96.99 60.583 L
97.145 60.583 L
97.3 60.583 L
97.455 60.583 L
97.61 60.583 L
97.765 60.583 L
97.92 60.583 L
98.075 60.583 L
98.23 60.583 L
98.385 60.583 L
98.54 60.583 L
98.695 60.583 L
98.85 60.583 L
99.005 60.583 L
99.16 60.583 L
99.315 60.583 L
99.47 60.583 L
99.625 60.583 L
99.78 60.583 L
99.935 60.583 L
100.09 60.583 L
100.245 60.583 L
100.4 60.583 L
100.555 60.583 L
100.71 60.583 L
100.865 60.583 L
101.02 60.583 L
101.175 60.583 L
101.33 60.583 L
101.485 60.583 L
101.64 60.583 L
101.795 60.583 L
101.95 60.583 L
102.105 60.583 L
102.26 60.583 L
102.415 60.583 L
102.57 60.583 L
102.725 60.583 L
102.88 60.583 L
103.035 60.583 L
103.19 60.583 L
103.345 60.583 L
103.5 60.583 L
103.655 60.583 L
103.81 60.583 L
103.965 60.583 L
104.12 60.583 L
104.275 60.583 L
104.43 62.567 L
104.585 62.567 L
104.74 62.567 L
104.895 62.567 L
105.05 62.567 L
105.205 62.567 L
105.36 62.567 L
105.515 62.567 L
105.67 62.567 L
105.825 62.567 L
105.98 60.583 L
106.135 60.583 L
106.29 60.583 L
106.445 60.583 L
106.6 60.583 L
106.755 60.583 L
106.91 60.583 L
107.065 60.583 L
107.22 60.583 L
107.375 62.567 L
107.53 62.567 L
107.685 62.567 L
107.84 64.55 L
107.995 64.55 L
108.15 64.55 L
108.305 64.55 L
108.46 64.55 L
108.615 64.55 L
108.77 62.567 L
108.925 62.567 L
109.08 62.567 L
109.235 62.567 L
109.39 62.567 L
109.545 62.567 L
109.7 62.567 L
109.855 62.567 L
110.01 60.583 L
110.165 60.583 L
110.32 60.583 L
110.475 60.583 L
110.63 60.583 L
110.785 60.583 L
110.94 60.583 L
111.095 60.583 L
111.25 60.583 L
111.405 60.583 L
111.56 60.583 L
111.715 62.567 L
111.87 62.567 L
112.025 62.567 L
112.18 62.567 L
112.335 62.567 L
112.49 60.583 L
112.645 60.583 L
112.8 60.583 L
112.955 60.583 L
113.11 60.583 L
113.265 60.583 L
113.42 60.583 L
113.575 60.583 L
113.73 60.583 L
113.885 60.583 L
114.04 58.6 L
114.195 58.6 L
114.35 58.6 L
114.505 58.6 L
114.66 58.6 L
114.815 58.6 L
114.97 58.6 L
115.125 56.617 L
115.28 56.617 L
115.435 56.617 L
115.59 56.617 L
115.745 56.617 L
115.9 56.617 L
116.055 54.633 L
116.21 54.633 L
116.365 54.633 L
116.52 54.633 L
116.675 54.633 L
116.83 54.633 L
116.985 52.65 L
117.14 52.65 L
117.295 52.65 L
117.45 52.65 L
117.605 50.667 L
117.76 50.667 L
117.915 50.667 L
118.07 50.667 L
118.225 50.667 L
118.38 50.667 L
118.535 50.667 L
118.69 50.667 L
118.845 48.683 L
119 48.683 L
119.155 48.683 L
119.31 48.683 L
119.465 48.683 L
119.62 48.683 L
119.775 48.683 L
119.93 48.683 L
120.085 48.683 L
120.24 48.683 L
120.395 48.683 L
120.55 48.683 L
120.705 48.683 L
120.86 48.683 L
121.015 48.683 L
121.17 50.667 L
121.325 50.667 L
121.48 52.65 L
121.635 52.65 L
121.79 52.65 L
121.945 52.65 L
122.1 52.65 L
122.255 52.65 L
122.41 52.65 L
122.565 52.65 L
122.72 52.65 L
122.875 52.65 L
123.03 52.65 L
123.185 52.65 L
123.34 52.65 L
123.495 52.65 L
123.65 52.65 L
123.805 52.65 L
123.96 52.65 L
124.115 52.65 L
124.27 50.667 L
124.425 50.667 L
124.58 50.667 L
124.735 50.667 L
124.89 48.683 L
125.045 48.683 L
125.2 48.683 L
125.355 48.683 L
125.51 48.683 L
125.665 48.683 L
125.82 50.667 L
125.975 50.667 L
126.13 50.667 L
126.285 52.65 L
126.44 52.65 L
126.595 52.65 L
126.75 52.65 L
126.905 52.65 L
127.06 52.65 L
127.215 52.65 L
127.37 54.633 L
127.525 54.633 L
127.68 54.633 L
127.835 54.633 L
127.99 54.633 L
128.145 54.633 L
128.3 54.633 L
128.455 54.633 L
128.61 54.633 L
128.765 54.633 L
128.92 54.633 L
129.075 54.633 L
129.23 54.633 L
129.385 54.633 L
129.54 50.667 L
129.695 50.667 L
129.85 52.65 L
130.005 52.65 L
130.16 52.65 L
130.315 52.65 L
130.47 52.65 L
130.625 52.65 L
130.78 50.667 L
130.935 48.683 L
131.09 48.683 L
131.245 48.683 L
131.4 48.683 L
131.555 48.683 L
131.71 48.683 L
131.865 48.683 L
132.02 48.683 L
132.175 48.683 L
132.33 48.683 L
132.485 48.683 L
132.64 48.683 L
132.795 48.683 L
132.95 48.683 L
133.105 48.683 L
133.26 50.667 L
133.415 50.667 L
133.57 50.667 L
133.725 50.667 L
133.88 50.667 L
134.035 50.667 L
134.19 50.667 L
134.345 50.667 L
134.5 50.667 L
134.655 50.667 L
134.81 50.667 L
134.965 50.667 L
135.12 50.667 L
135.275 50.667 L
135.43 50.667 L
135.585 50.667 L
135.74 48.683 L
135.895 48.683 L
136.05 48.683 L
136.205 48.683 L
136.36 48.683 L
136.515 48.683 L
136.67 48.683 L
136.825 48.683 L
136.98 48.683 L
137.135 48.683 L
137.29 48.683 L
137.445 48.683 L
137.6 48.683 L
137.755 46.7 L
137.91 44.717 L
138.065 44.717 L
138.22 44.717 L
138.375 44.717 L
138.53 44.717 L
138.685 44.717 L
138.84 44.717 L
138.995 44.717 L
139.15 44.717 L
139.305 42.733 L
139.46 42.733 L
139.615 40.75 L
139.77 40.75 L
139.925 40.75 L
140.08 40.75 L
140.235 40.75 L
140.39 40.75 L
140.545 40.75 L
140.7 40.75 L
140.855 40.75 L
141.01 40.75 L
141.165 40.75 L
141.32 42.733 L
141.475 40.75 L
141.63 42.733 L
141.785 42.733 L
141.94 42.733 L
142.095 42.733 L
142.25 42.733 L
142.405 42.733 L
142.56 42.733 L
142.715 40.75 L
142.87 40.75 L
143.025 40.75 L
143.18 40.75 L
143.335 40.75 L
143.49 40.75 L
143.645 40.75 L
143.8 40.75 L
143.955 40.75 L
144.11 40.75 L
144.265 40.75 L
144.42 40.75 L
144.575 38.767 L
144.73 38.767 L
144.885 38.767 L
145.04 38.767 L
145.195 38.767 L
145.35 38.767 L
145.505 38.767 L
145.66 38.767 L
145.815 36.783 L
145.97 36.783 L
146.125 36.783 L
146.28 36.783 L
146.435 36.783 L
146.59 36.783 L
146.745 36.783 L
146.9 36.783 L
147.055 36.783 L
147.21 36.783 L
147.365 34.8 L
147.52 30.833 L
147.675 30.833 L
147.83 30.833 L
147.985 30.833 L
148.14 30.833 L
148.295 32.817 L
148.45 32.817 L
148.605 32.817 L
148.76 32.817 L
148.915 32.817 L
149.07 32.817 L
149.225 32.817 L
149.38 32.817 L
149.535 32.817 L
149.69 32.817 L
149.845 32.817 L
150 32.817 L
150.155 34.8 L
150.31 34.8 L
150.465 34.8 L
150.62 34.8 L
150.775 34.8 L
150.93 34.8 L
151.085 34.8 L
151.24 34.8 L
151.395 34.8 L
151.55 34.8 L
151.705 34.8 L
151.86 34.8 L
152.015 32.817 L
152.17 32.817 L
152.325 32.817 L
152.48 32.817 L
152.635 32.817 L
152.79 32.817 L
152.945 32.817 L
153.1 32.817 L
153.255 32.817 L
153.41 32.817 L
153.565 30.833 L
153.72 30.833 L
153.875 30.833 L
154.03 30.833 L
154.185 30.833 L
154.34 28.85 L
154.495 28.85 L
154.65 28.85 L
154.805 28.85 L
154.96 28.85 L
155.115 28.85 L
155.27 28.85 L
155.425 28.85 L
155.58 28.85 L
155.735 28.85 L
155.89 26.867 L
156.045 24.883 L
156.2 24.883 L
156.355 22.9 L
156.51 24.883 L
156.665 24.883 L
156.82 22.9 L
156.975 22.9 L
157.13 22.9 L
157.285 22.9 L
157.44 22.9 L
157.595 22.9 L
157.75 20.917 L
157.905 20.917 L
158.06 20.917 L
158.215 20.917 L
158.37 20.917 L
158.525 20.917 L
158.68 20.917 L
158.835 20.917 L
158.99 20.917 L
159.145 20.917 L
159.3 20.917 L
159.455 20.917 L
159.61 20.917 L
159.765 20.917 L
159.92 20.917 L
160.075 20.917 L
160.23 20.917 L
160.385 20.917 L
160.54 20.917 L
160.695 20.917 L
160.85 20.917 L
161.005 20.917 L
161.16 20.917 L
161.315 20.917 L
161.47 20.917 L
161.625 20.917 L
161.78 20.917 L
161.935 20.917 L
162.09 20.917 L
162.245 24.883 L
162.4 24.883 L
162.555 24.883 L
162.71 24.883 L
162.865 24.883 L
163.02 24.883 L
163.175 24.883 L
163.33 24.883 L
163.485 24.883 L
163.64 24.883 L
163.795 24.883 L
163.95 24.883 L
164.105 24.883 L
164.26 24.883 L
164.415 24.883 L
164.57 22.9 L
164.725 22.9 L
164.88 22.9 L
165.035 22.9 L
165.19 22.9 L
165.345 22.9 L
165.5 26.867 L
165.655 26.867 L
165.81 26.867 L
165.965 26.867 L
166.12 24.883 L
166.275 24.883 L
166.43 24.883 L
166.585 24.883 L
166.74 24.883 L
166.895 24.883 L
167.05 24.883 L
167.205 24.883 L
167.36 24.883 L
167.515 24.883 L
167.67 24.883 L
167.825 24.883 L
167.98 24.883 L
168.135 24.883 L
168.29 24.883 L
168.445 24.883 L
168.6 22.9 L
168.755 22.9 L
168.91 22.9 L
169.065 22.9 L
169.22 22.9 L
169.375 24.883 L
169.53 24.883 L
169.685 24.883 L
169.84 24.883 L
169.995 24.883 L
170.15 24.883 L
170.305 24.883 L
170.46 24.883 L
170.615 24.883 L
170.77 24.883 L
170.925 24.883 L
171.08 24.883 L
171.235 24.883 L
171.39 24.883 L
171.545 24.883 L
171.7 24.883 L
171.855 24.883 L
172.01 24.883 L
172.165 26.867 L
172.32 26.867 L
172.475 26.867 L
172.63 24.883 L
172.785 24.883 L
172.94 24.883 L
173.095 24.883 L
173.25 24.883 L
173.405 22.9 L
173.56 22.9 L
173.715 22.9 L
173.87 20.917 L
174.025 20.917 L
174.18 20.917 L
174.335 20.917 L
174.49 20.917 L
174.645 20.917 L
174.8 18.933 L
174.955 18.933 L
175.11 16.95 L
175.265 16.95 L
175.42 16.95 L
175.575 18.933 L
175.73 18.933 L
175.885 18.933 L
176.04 18.933 L
176.195 18.933 L
176.35 18.933 L
176.505 18.933 L
176.66 18.933 L
176.815 18.933 L
176.97 20.917 L
177.125 20.917 L
177.28 18.933 L
177.435 18.933 L
177.59 18.933 L
177.745 18.933 L
177.9 18.933 L
178.055 18.933 L
178.21 18.933 L
178.365 18.933 L
178.52 18.933 L
178.675 18.933 L
178.83 18.933 L
178.985 18.933 L
179.14 18.933 L
179.295 18.933 L
179.45 18.933 L
179.605 18.933 L
179.76 18.933 L
179.915 18.933 L
180.07 16.95 L
180.225 16.95 L
180.38 14.967 L
180.535 14.967 L
180.69 14.967 L
180.845 14.967 L
181 14.967 L
S
GR
%%Trailer
%%Pages: 1
%%EOF
