%!PS-Adobe-3.0 EPSF-3.0
%%Creator: MATLAB, The MathWorks, Inc. Version 8.1.0.604 (R2013a). Operating System: Linux 3.11.0-13-generic #20-Ubuntu SMP Wed Oct 23 07:38:26 UTC 2013 x86_64.
%%Title: /home/pavol/GIT/AEM/1dplots/enumath/0dexample_small_arrows.eps
%%CreationDate: 11/11/2013  11:31:43
%%DocumentNeededFonts: Helvetica
%%DocumentProcessColors: Cyan Magenta Yellow Black
%%LanguageLevel: 2
%%Pages: 1
%%BoundingBox:   220   253   391   538
%%EndComments

%%BeginProlog
% MathWorks dictionary
/MathWorks 160 dict begin
% definition operators
/bdef {bind def} bind def
/ldef {load def} bind def
/xdef {exch def} bdef
/xstore {exch store} bdef
% operator abbreviations
/c  /clip ldef
/cc /concat ldef
/cp /closepath ldef
/gr /grestore ldef
/gs /gsave ldef
/mt /moveto ldef
/np /newpath ldef
/cm /currentmatrix ldef
/sm /setmatrix ldef
/rm /rmoveto ldef
/rl /rlineto ldef
/s {show newpath} bdef
/sc {setcmykcolor} bdef
/sr /setrgbcolor ldef
/sg /setgray ldef
/w /setlinewidth ldef
/j /setlinejoin ldef
/cap /setlinecap ldef
/rc {rectclip} bdef
/rf {rectfill} bdef
% page state control
/pgsv () def
/bpage {/pgsv save def} bdef
/epage {pgsv restore} bdef
/bplot /gsave ldef
/eplot {stroke grestore} bdef
% orientation switch
/portraitMode 0 def /landscapeMode 1 def /rotateMode 2 def
% coordinate system mappings
/dpi2point 0 def
% font control
/FontSize 0 def
/FMS {/FontSize xstore findfont [FontSize 0 0 FontSize neg 0 0]
  makefont setfont} bdef
/reencode {exch dup where {pop load} {pop StandardEncoding} ifelse
  exch dup 3 1 roll findfont dup length dict begin
  { 1 index /FID ne {def}{pop pop} ifelse } forall
  /Encoding exch def currentdict end definefont pop} bdef
/isroman {findfont /CharStrings get /Agrave known} bdef
/FMSR {3 1 roll 1 index dup isroman {reencode} {pop pop} ifelse
  exch FMS} bdef
/csm {1 dpi2point div -1 dpi2point div scale neg translate
 dup landscapeMode eq {pop -90 rotate}
  {rotateMode eq {90 rotate} if} ifelse} bdef
% line types: solid, dotted, dashed, dotdash
/SO { [] 0 setdash } bdef
/DO { [.5 dpi2point mul 4 dpi2point mul] 0 setdash } bdef
/DA { [6 dpi2point mul] 0 setdash } bdef
/DD { [.5 dpi2point mul 4 dpi2point mul 6 dpi2point mul 4
  dpi2point mul] 0 setdash } bdef
% macros for lines and objects
/L {lineto stroke} bdef
/MP {3 1 roll moveto 1 sub {rlineto} repeat} bdef
/AP {{rlineto} repeat} bdef
/PDlw -1 def
/W {/PDlw currentlinewidth def setlinewidth} def
/PP {closepath eofill} bdef
/DP {closepath stroke} bdef
/MR {4 -2 roll moveto dup  0 exch rlineto exch 0 rlineto
  neg 0 exch rlineto closepath} bdef
/FR {MR stroke} bdef
/PR {MR fill} bdef
/L1i {{currentfile picstr readhexstring pop} image} bdef
/tMatrix matrix def
/MakeOval {newpath tMatrix currentmatrix pop translate scale
0 0 1 0 360 arc tMatrix setmatrix} bdef
/FO {MakeOval stroke} bdef
/PO {MakeOval fill} bdef
/PD {currentlinewidth 2 div 0 360 arc fill
   PDlw -1 eq not {PDlw w /PDlw -1 def} if} def
/FA {newpath tMatrix currentmatrix pop translate scale
  0 0 1 5 -2 roll arc tMatrix setmatrix stroke} bdef
/PA {newpath tMatrix currentmatrix pop	translate 0 0 moveto scale
  0 0 1 5 -2 roll arc closepath tMatrix setmatrix fill} bdef
/FAn {newpath tMatrix currentmatrix pop translate scale
  0 0 1 5 -2 roll arcn tMatrix setmatrix stroke} bdef
/PAn {newpath tMatrix currentmatrix pop translate 0 0 moveto scale
  0 0 1 5 -2 roll arcn closepath tMatrix setmatrix fill} bdef
/vradius 0 def /hradius 0 def /lry 0 def
/lrx 0 def /uly 0 def /ulx 0 def /rad 0 def
/MRR {/vradius xdef /hradius xdef /lry xdef /lrx xdef /uly xdef
  /ulx xdef newpath tMatrix currentmatrix pop ulx hradius add uly
  vradius add translate hradius vradius scale 0 0 1 180 270 arc 
  tMatrix setmatrix lrx hradius sub uly vradius add translate
  hradius vradius scale 0 0 1 270 360 arc tMatrix setmatrix
  lrx hradius sub lry vradius sub translate hradius vradius scale
  0 0 1 0 90 arc tMatrix setmatrix ulx hradius add lry vradius sub
  translate hradius vradius scale 0 0 1 90 180 arc tMatrix setmatrix
  closepath} bdef
/FRR {MRR stroke } bdef
/PRR {MRR fill } bdef
/MlrRR {/lry xdef /lrx xdef /uly xdef /ulx xdef /rad lry uly sub 2 div def
  newpath tMatrix currentmatrix pop ulx rad add uly rad add translate
  rad rad scale 0 0 1 90 270 arc tMatrix setmatrix lrx rad sub lry rad
  sub translate rad rad scale 0 0 1 270 90 arc tMatrix setmatrix
  closepath} bdef
/FlrRR {MlrRR stroke } bdef
/PlrRR {MlrRR fill } bdef
/MtbRR {/lry xdef /lrx xdef /uly xdef /ulx xdef /rad lrx ulx sub 2 div def
  newpath tMatrix currentmatrix pop ulx rad add uly rad add translate
  rad rad scale 0 0 1 180 360 arc tMatrix setmatrix lrx rad sub lry rad
  sub translate rad rad scale 0 0 1 0 180 arc tMatrix setmatrix
  closepath} bdef
/FtbRR {MtbRR stroke } bdef
/PtbRR {MtbRR fill } bdef
/stri 6 array def /dtri 6 array def
/smat 6 array def /dmat 6 array def
/tmat1 6 array def /tmat2 6 array def /dif 3 array def
/asub {/ind2 exch def /ind1 exch def dup dup
  ind1 get exch ind2 get sub exch } bdef
/tri_to_matrix {
  2 0 asub 3 1 asub 4 0 asub 5 1 asub
  dup 0 get exch 1 get 7 -1 roll astore } bdef
/compute_transform {
  dmat dtri tri_to_matrix tmat1 invertmatrix 
  smat stri tri_to_matrix tmat2 concatmatrix } bdef
/ds {stri astore pop} bdef
/dt {dtri astore pop} bdef
/db {2 copy /cols xdef /rows xdef mul dup 3 mul string
  currentfile 
  3 index 0 eq {/ASCIIHexDecode filter}
  {/ASCII85Decode filter 3 index 2 eq {/RunLengthDecode filter} if }
  ifelse exch readstring pop
  dup 0 3 index getinterval /rbmap xdef
  dup 2 index dup getinterval /gbmap xdef
  1 index dup 2 mul exch getinterval /bbmap xdef pop pop}bdef
/it {gs np dtri aload pop moveto lineto lineto cp c
  cols rows 8 compute_transform 
  rbmap gbmap bbmap true 3 colorimage gr}bdef
/il {newpath moveto lineto stroke}bdef
currentdict end def
%%EndProlog

%%BeginSetup
MathWorks begin

0 cap

end
%%EndSetup

%%Page: 1 1
%%BeginPageSetup
%%PageBoundingBox:   220   253   391   538
MathWorks begin
bpage
%%EndPageSetup

%%BeginObject: obj1
bplot

/dpi2point 12 def
portraitMode 2640 6456 csm

    0     0  2054  3417 rc
85 dict begin %Colortable dictionary
/c0 { 0.000000 0.000000 0.000000 sr} bdef
/c1 { 1.000000 1.000000 1.000000 sr} bdef
/c2 { 0.900000 0.000000 0.000000 sr} bdef
/c3 { 0.000000 0.820000 0.000000 sr} bdef
/c4 { 0.000000 0.000000 0.800000 sr} bdef
/c5 { 0.910000 0.820000 0.320000 sr} bdef
/c6 { 1.000000 0.260000 0.820000 sr} bdef
/c7 { 0.000000 0.820000 0.820000 sr} bdef
c0
1 j
1 sg
   0    0 2055 3418 rf
6 w
0 2785 1495 0 0 -2785 364 3041 4 MP
PP
-1495 0 0 2785 1495 0 0 -2785 364 3041 5 MP stroke
4 w
DO
SO
6 w
0 sg
 364 3041 mt 1859 3041 L
 364  256 mt 1859  256 L
 364 3041 mt  364  256 L
1859 3041 mt 1859  256 L
 364 3041 mt 1859 3041 L
 364 3041 mt  364  256 L
 364 3041 mt  364 3013 L
 364  256 mt  364  283 L
%%IncludeResource: font Helvetica
/Helvetica /ISOLatin1Encoding 120 FMSR

 331 3186 mt 
(0) s
1859 3041 mt 1859 3013 L
1859  256 mt 1859  283 L
1793 3186 mt 
(10) s
 364 3041 mt  391 3041 L
1859 3041 mt 1831 3041 L
 263 3085 mt 
(5) s
 364 2692 mt  391 2692 L
1859 2692 mt 1831 2692 L
 196 2736 mt 
(10) s
 364 2344 mt  391 2344 L
1859 2344 mt 1831 2344 L
 196 2388 mt 
(15) s
 364 1996 mt  391 1996 L
1859 1996 mt 1831 1996 L
 196 2040 mt 
(20) s
 364 1648 mt  391 1648 L
1859 1648 mt 1831 1648 L
 196 1692 mt 
(25) s
 364 1300 mt  391 1300 L
1859 1300 mt 1831 1300 L
 196 1344 mt 
(30) s
 364  952 mt  391  952 L
1859  952 mt 1831  952 L
 196  996 mt 
(35) s
 364  604 mt  391  604 L
1859  604 mt 1831  604 L
 196  648 mt 
(40) s
 364  256 mt  391  256 L
1859  256 mt 1831  256 L
 196  300 mt 
(45) s
 364 3041 mt 1859 3041 L
 364  256 mt 1859  256 L
 364 3041 mt  364  256 L
1859 3041 mt 1859  256 L
gs 364 256 1496 2786 rc
DD
/c8 { 1.000000 0.000000 0.000000 sr} bdef
c8
1 0 15 0 15 0 15 0 15 0 15 0 15 0 15 0 
15 0 15 0 15 0 15 0 15 0 15 0 15 0 15 0 
15 0 15 0 15 0 15 0 14 0 15 0 15 0 15 0 
15 0 15 0 15 0 15 0 15 0 15 0 15 0 15 0 
15 0 15 0 15 0 15 0 15 0 15 0 15 0 15 0 
14 0 15 0 15 0 15 0 15 0 15 0 15 0 15 0 
15 0 15 0 15 0 15 0 15 0 15 0 15 0 15 0 
15 0 15 0 15 0 15 0 14 0 15 0 15 0 15 0 
15 0 15 0 15 0 15 0 15 0 15 0 15 0 15 0 
15 0 15 0 15 0 15 0 15 0 15 0 15 0 15 0 
14 0 15 0 15 0 15 0 15 0 15 0 15 0 15 0 
15 0 15 0 15 0 15 0 15 0 15 0 15 0 15 0 
15 0 15 0 15 0 15 0 378 2692 101 MP stroke
/c9 { 0.000000 0.000000 1.000000 sr} bdef
c9
1 0 15 0 15 0 15 0 15 0 15 0 15 0 15 0 
15 0 15 0 15 0 15 0 15 0 15 0 15 0 15 0 
15 0 15 0 15 0 15 0 14 0 15 0 15 0 15 0 
15 0 15 0 15 0 15 0 15 0 15 0 15 0 15 0 
15 0 15 0 15 0 15 0 15 0 15 0 15 0 15 0 
14 0 15 0 15 0 15 0 15 0 15 0 15 0 15 0 
15 0 15 0 15 0 15 0 15 0 15 0 15 0 15 0 
15 0 15 0 15 0 15 0 14 0 15 0 15 0 15 0 
15 0 15 0 15 0 15 0 15 0 15 0 15 0 15 0 
15 0 15 0 15 0 15 0 15 0 15 0 15 0 15 0 
14 0 15 0 15 0 15 0 15 0 15 0 15 0 15 0 
15 0 15 0 15 0 15 0 15 -1 15 -2 15 -6 15 -16 
15 -40 15 -100 15 -208 15 -321 378 2692 101 MP stroke
SO
c8
1 0 15 0 15 -3 15 0 15 9 15 -5 15 5 15 3 
15 -7 15 2 15 -1 15 7 15 0 15 -4 15 -5 15 2 
15 0 15 -3 15 0 15 0 14 2 15 -1 15 1 15 2 
15 -6 15 9 15 -3 15 -3 15 -4 15 5 15 10 15 -8 
15 3 15 -3 15 7 15 1 15 -10 15 2 15 -1 15 -1 
14 6 15 -6 15 -5 15 11 15 24 15 0 15 -8 15 -10 
15 -2 15 -5 15 -7 15 3 15 -2 15 9 15 16 15 -16 
15 -4 15 6 15 -6 15 4 14 -13 15 4 15 5 15 0 
15 8 15 16 15 -13 15 -9 15 0 15 2 15 -7 15 1 
15 11 15 8 15 -15 15 -2 15 -4 15 8 15 -7 15 8 
14 -3 15 7 15 -10 15 -2 15 -1 15 -3 15 -2 15 7 
15 -6 15 -6 15 16 15 -12 15 -13 15 -10 15 -6 15 -7 
15 -17 15 -6 15 -14 15 -10 378 2692 101 MP stroke
c9
1 2 15 -44 15 53 15 -110 15 143 15 -71 15 3 15 97 
15 -26 15 -47 15 42 15 125 15 -87 15 -38 15 -77 15 13 
15 31 15 33 15 3 15 -11 14 50 15 -158 15 -53 15 42 
15 -20 15 79 15 -16 15 -37 15 -8 15 -121 15 -97 15 21 
15 60 15 -3 15 1 15 90 15 -69 15 48 15 103 15 144 
14 -108 15 -13 15 86 15 5 15 25 15 -81 15 130 15 -10 
15 55 15 -257 15 -88 15 32 15 -49 15 -157 15 -3 15 88 
15 -6 15 42 15 13 15 35 14 -68 15 -24 15 -15 15 43 
15 -62 15 -56 15 42 15 -50 15 -4 15 -152 15 -26 15 -17 
15 2 15 -29 15 -27 15 -27 15 -83 15 -39 15 -64 15 17 
14 -21 15 2 15 -98 15 -112 15 -107 15 -22 15 -57 15 -37 
15 -80 15 -112 15 -65 15 -65 15 -68 15 -56 15 -55 15 -48 
15 -55 15 -47 15 -48 15 -42 378 2692 101 MP stroke
DD
c8
1 0 15 0 15 0 15 0 15 0 15 0 15 0 15 0 
15 0 15 0 15 0 15 0 15 0 15 0 15 0 15 0 
15 0 15 0 15 0 15 0 14 0 15 0 15 0 15 0 
15 0 15 0 15 0 15 0 15 0 15 0 15 0 15 0 
15 0 15 0 15 0 15 0 15 0 15 0 15 0 15 0 
14 0 15 0 15 0 15 0 15 0 15 0 15 0 15 0 
15 0 15 0 15 0 15 0 15 0 15 0 15 0 15 0 
15 0 15 0 15 0 15 0 14 0 15 0 15 0 15 0 
15 0 15 0 15 0 15 0 15 0 15 0 15 0 15 0 
15 0 15 0 15 0 15 0 15 0 15 0 15 0 15 0 
14 0 15 0 15 0 15 0 15 0 15 0 15 0 15 0 
15 0 15 0 15 0 15 0 15 0 15 0 15 0 15 0 
15 0 15 0 15 0 15 0 378 2692 101 MP stroke
c9
1 0 15 0 15 0 15 0 15 0 15 0 15 0 15 0 
15 0 15 0 15 0 15 0 15 0 15 0 15 0 15 0 
15 0 15 0 15 0 15 0 14 0 15 0 15 0 15 0 
15 0 15 0 15 0 15 0 15 0 15 0 15 0 15 0 
15 0 15 0 15 0 15 0 15 0 15 0 15 0 15 0 
14 0 15 0 15 0 15 0 15 0 15 0 15 0 15 0 
15 0 15 0 15 0 15 0 15 0 15 0 15 0 15 0 
15 0 15 0 15 0 15 0 14 0 15 0 15 0 15 0 
15 0 15 0 15 0 15 0 15 0 15 0 15 0 15 0 
15 0 15 0 15 0 15 0 15 0 15 0 15 0 15 0 
14 0 15 0 15 0 15 0 15 0 15 0 15 0 15 0 
15 0 15 0 15 0 15 0 15 -1 15 -2 15 -6 15 -16 
15 -40 15 -100 15 -208 15 -321 378 2692 101 MP stroke
SO
c8
1 0 15 0 15 -3 15 0 15 9 15 -5 15 5 15 3 
15 -7 15 2 15 -1 15 7 15 0 15 -4 15 -5 15 2 
15 0 15 -3 15 0 15 0 14 2 15 -1 15 1 15 2 
15 -6 15 9 15 -3 15 -3 15 -4 15 5 15 10 15 -8 
15 3 15 -3 15 7 15 1 15 -10 15 2 15 -1 15 -1 
14 6 15 -6 15 -5 15 11 15 24 15 0 15 -8 15 -10 
15 -2 15 -5 15 -7 15 3 15 -2 15 9 15 16 15 -16 
15 -4 15 6 15 -6 15 4 14 -13 15 4 15 5 15 0 
15 8 15 16 15 -13 15 -9 15 0 15 2 15 -7 15 1 
15 11 15 8 15 -15 15 -2 15 -4 15 8 15 -7 15 8 
14 -3 15 7 15 -10 15 -2 15 -1 15 -3 15 -2 15 7 
15 -6 15 -6 15 16 15 -12 15 -13 15 -10 15 -6 15 -7 
15 -17 15 -6 15 -14 15 -10 378 2692 101 MP stroke
c9
1 2 15 -44 15 53 15 -110 15 143 15 -71 15 3 15 97 
15 -26 15 -47 15 42 15 125 15 -87 15 -38 15 -77 15 13 
15 31 15 33 15 3 15 -11 14 50 15 -158 15 -53 15 42 
15 -20 15 79 15 -16 15 -37 15 -8 15 -121 15 -97 15 21 
15 60 15 -3 15 1 15 90 15 -69 15 48 15 103 15 144 
14 -108 15 -13 15 86 15 5 15 25 15 -81 15 130 15 -10 
15 55 15 -257 15 -88 15 32 15 -49 15 -157 15 -3 15 88 
15 -6 15 42 15 13 15 35 14 -68 15 -24 15 -15 15 43 
15 -62 15 -56 15 42 15 -50 15 -4 15 -152 15 -26 15 -17 
15 2 15 -29 15 -27 15 -27 15 -83 15 -39 15 -64 15 17 
14 -21 15 2 15 -98 15 -112 15 -107 15 -22 15 -57 15 -37 
15 -80 15 -112 15 -65 15 -65 15 -68 15 -56 15 -55 15 -48 
15 -55 15 -47 15 -48 15 -42 378 2692 101 MP stroke
gr

c9
0 sg
 977 3329 mt 
(Time) s
 114 1692 mt  -90 rotate
(C) s
90 rotate
 791  161 mt 
(C1, C2 \(0D\)) s
 347 3084 mt 
( ) s
1843  298 mt 
( ) s
-149 -166 1535 2239 2 MP stroke
52 58 -46 -119 1380 2134 3 MP
PP
-6 61 52 58 -46 -119 1380 2134 4 MP stroke
-61 -1 113 59 1334 2015 3 MP
PP
-52 -58 -61 -1 113 59 1334 2015 4 MP stroke
1537 2350 mt 
(ODE) s
-61 122 796 2380 2 MP stroke
35 -70 -94 87 794 2485 3 MP
PP
59 -17 35 -70 -94 87 794 2485 4 MP stroke
21 58 14 -128 700 2572 3 MP
PP
-35 70 21 58 14 -128 700 2572 4 MP stroke
-117 219 1574 2399 2 MP stroke
37 -69 -96 85 1516 2602 3 MP
PP
59 -16 37 -69 -96 85 1516 2602 4 MP stroke
20 58 17 -127 1420 2687 3 MP
PP
-37 69 20 58 17 -127 1420 2687 4 MP stroke
-137 -43 777 2293 2 MP stroke
74 24 -100 -80 666 2306 3 MP
PP
26 56 74 24 -100 -80 666 2306 4 MP stroke
-54 30 128 -6 566 2226 3 MP
PP
-74 -24 -54 30 128 -6 566 2226 4 MP stroke
 779 2335 mt 
(SDE) s

end %%Color Dict

eplot
%%EndObject

epage
end

showpage

%%Trailer
%%EOF
