%!PS-Adobe-3.0 EPSF-3.0
%%Creator: MATLAB, The MathWorks, Inc. Version 8.1.0.604 (R2013a). Operating System: Linux 3.11.0-15-generic #25-Ubuntu SMP Thu Jan 30 17:22:01 UTC 2014 x86_64.
%%Title: /home/pavol/SVN/URDME3/R/branches/doc/pp14/imgs/comp12.eps
%%CreationDate: 02/12/2014  17:55:43
%%DocumentNeededFonts: Helvetica
%%DocumentProcessColors: Cyan Magenta Yellow Black
%%LanguageLevel: 2
%%Pages: 1
%%BoundingBox:    81   227   529   564
%%EndComments

%%BeginProlog
% MathWorks dictionary
/MathWorks 160 dict begin
% definition operators
/bdef {bind def} bind def
/ldef {load def} bind def
/xdef {exch def} bdef
/xstore {exch store} bdef
% operator abbreviations
/c  /clip ldef
/cc /concat ldef
/cp /closepath ldef
/gr /grestore ldef
/gs /gsave ldef
/mt /moveto ldef
/np /newpath ldef
/cm /currentmatrix ldef
/sm /setmatrix ldef
/rm /rmoveto ldef
/rl /rlineto ldef
/s {show newpath} bdef
/sc {setcmykcolor} bdef
/sr /setrgbcolor ldef
/sg /setgray ldef
/w /setlinewidth ldef
/j /setlinejoin ldef
/cap /setlinecap ldef
/rc {rectclip} bdef
/rf {rectfill} bdef
% page state control
/pgsv () def
/bpage {/pgsv save def} bdef
/epage {pgsv restore} bdef
/bplot /gsave ldef
/eplot {stroke grestore} bdef
% orientation switch
/portraitMode 0 def /landscapeMode 1 def /rotateMode 2 def
% coordinate system mappings
/dpi2point 0 def
% font control
/FontSize 0 def
/FMS {/FontSize xstore findfont [FontSize 0 0 FontSize neg 0 0]
  makefont setfont} bdef
/reencode {exch dup where {pop load} {pop StandardEncoding} ifelse
  exch dup 3 1 roll findfont dup length dict begin
  { 1 index /FID ne {def}{pop pop} ifelse } forall
  /Encoding exch def currentdict end definefont pop} bdef
/isroman {findfont /CharStrings get /Agrave known} bdef
/FMSR {3 1 roll 1 index dup isroman {reencode} {pop pop} ifelse
  exch FMS} bdef
/csm {1 dpi2point div -1 dpi2point div scale neg translate
 dup landscapeMode eq {pop -90 rotate}
  {rotateMode eq {90 rotate} if} ifelse} bdef
% line types: solid, dotted, dashed, dotdash
/SO { [] 0 setdash } bdef
/DO { [.5 dpi2point mul 4 dpi2point mul] 0 setdash } bdef
/DA { [6 dpi2point mul] 0 setdash } bdef
/DD { [.5 dpi2point mul 4 dpi2point mul 6 dpi2point mul 4
  dpi2point mul] 0 setdash } bdef
% macros for lines and objects
/L {lineto stroke} bdef
/MP {3 1 roll moveto 1 sub {rlineto} repeat} bdef
/AP {{rlineto} repeat} bdef
/PDlw -1 def
/W {/PDlw currentlinewidth def setlinewidth} def
/PP {closepath eofill} bdef
/DP {closepath stroke} bdef
/MR {4 -2 roll moveto dup  0 exch rlineto exch 0 rlineto
  neg 0 exch rlineto closepath} bdef
/FR {MR stroke} bdef
/PR {MR fill} bdef
/L1i {{currentfile picstr readhexstring pop} image} bdef
/tMatrix matrix def
/MakeOval {newpath tMatrix currentmatrix pop translate scale
0 0 1 0 360 arc tMatrix setmatrix} bdef
/FO {MakeOval stroke} bdef
/PO {MakeOval fill} bdef
/PD {currentlinewidth 2 div 0 360 arc fill
   PDlw -1 eq not {PDlw w /PDlw -1 def} if} def
/FA {newpath tMatrix currentmatrix pop translate scale
  0 0 1 5 -2 roll arc tMatrix setmatrix stroke} bdef
/PA {newpath tMatrix currentmatrix pop	translate 0 0 moveto scale
  0 0 1 5 -2 roll arc closepath tMatrix setmatrix fill} bdef
/FAn {newpath tMatrix currentmatrix pop translate scale
  0 0 1 5 -2 roll arcn tMatrix setmatrix stroke} bdef
/PAn {newpath tMatrix currentmatrix pop translate 0 0 moveto scale
  0 0 1 5 -2 roll arcn closepath tMatrix setmatrix fill} bdef
/vradius 0 def /hradius 0 def /lry 0 def
/lrx 0 def /uly 0 def /ulx 0 def /rad 0 def
/MRR {/vradius xdef /hradius xdef /lry xdef /lrx xdef /uly xdef
  /ulx xdef newpath tMatrix currentmatrix pop ulx hradius add uly
  vradius add translate hradius vradius scale 0 0 1 180 270 arc 
  tMatrix setmatrix lrx hradius sub uly vradius add translate
  hradius vradius scale 0 0 1 270 360 arc tMatrix setmatrix
  lrx hradius sub lry vradius sub translate hradius vradius scale
  0 0 1 0 90 arc tMatrix setmatrix ulx hradius add lry vradius sub
  translate hradius vradius scale 0 0 1 90 180 arc tMatrix setmatrix
  closepath} bdef
/FRR {MRR stroke } bdef
/PRR {MRR fill } bdef
/MlrRR {/lry xdef /lrx xdef /uly xdef /ulx xdef /rad lry uly sub 2 div def
  newpath tMatrix currentmatrix pop ulx rad add uly rad add translate
  rad rad scale 0 0 1 90 270 arc tMatrix setmatrix lrx rad sub lry rad
  sub translate rad rad scale 0 0 1 270 90 arc tMatrix setmatrix
  closepath} bdef
/FlrRR {MlrRR stroke } bdef
/PlrRR {MlrRR fill } bdef
/MtbRR {/lry xdef /lrx xdef /uly xdef /ulx xdef /rad lrx ulx sub 2 div def
  newpath tMatrix currentmatrix pop ulx rad add uly rad add translate
  rad rad scale 0 0 1 180 360 arc tMatrix setmatrix lrx rad sub lry rad
  sub translate rad rad scale 0 0 1 0 180 arc tMatrix setmatrix
  closepath} bdef
/FtbRR {MtbRR stroke } bdef
/PtbRR {MtbRR fill } bdef
/stri 6 array def /dtri 6 array def
/smat 6 array def /dmat 6 array def
/tmat1 6 array def /tmat2 6 array def /dif 3 array def
/asub {/ind2 exch def /ind1 exch def dup dup
  ind1 get exch ind2 get sub exch } bdef
/tri_to_matrix {
  2 0 asub 3 1 asub 4 0 asub 5 1 asub
  dup 0 get exch 1 get 7 -1 roll astore } bdef
/compute_transform {
  dmat dtri tri_to_matrix tmat1 invertmatrix 
  smat stri tri_to_matrix tmat2 concatmatrix } bdef
/ds {stri astore pop} bdef
/dt {dtri astore pop} bdef
/db {2 copy /cols xdef /rows xdef mul dup 3 mul string
  currentfile 
  3 index 0 eq {/ASCIIHexDecode filter}
  {/ASCII85Decode filter 3 index 2 eq {/RunLengthDecode filter} if }
  ifelse exch readstring pop
  dup 0 3 index getinterval /rbmap xdef
  dup 2 index dup getinterval /gbmap xdef
  1 index dup 2 mul exch getinterval /bbmap xdef pop pop}bdef
/it {gs np dtri aload pop moveto lineto lineto cp c
  cols rows 8 compute_transform 
  rbmap gbmap bbmap true 3 colorimage gr}bdef
/il {newpath moveto lineto stroke}bdef
currentdict end def
%%EndProlog

%%BeginSetup
MathWorks begin

0 cap

end
%%EndSetup

%%Page: 1 1
%%BeginPageSetup
%%PageBoundingBox:    81   227   529   564
MathWorks begin
bpage
%%EndPageSetup

%%BeginObject: obj1
bplot

/dpi2point 12 def
portraitMode 0972 6768 csm

    0     0  5376  4033 rc
86 dict begin %Colortable dictionary
/c0 { 0.000000 0.000000 0.000000 sr} bdef
/c1 { 1.000000 1.000000 1.000000 sr} bdef
/c2 { 0.900000 0.000000 0.000000 sr} bdef
/c3 { 0.000000 0.820000 0.000000 sr} bdef
/c4 { 0.000000 0.000000 0.800000 sr} bdef
/c5 { 0.910000 0.820000 0.320000 sr} bdef
/c6 { 1.000000 0.260000 0.820000 sr} bdef
/c7 { 0.000000 0.820000 0.820000 sr} bdef
c0
1 j
1 sg
   0    0 5377 4034 rf
6 w
0 3287 4166 0 0 -3287 699 3589 4 MP
PP
-4166 0 0 3287 4166 0 0 -3287 699 3589 5 MP stroke
4 w
DO
SO
6 w
0 sg
 699 3589 mt 4865 3589 L
 699  302 mt 4865  302 L
 699 3589 mt  699  302 L
4865 3589 mt 4865  302 L
 699 3589 mt 4865 3589 L
 699 3589 mt  699  302 L
 699 3589 mt  699 3547 L
 699  302 mt  699  343 L
%%IncludeResource: font Helvetica
/Helvetica /ISOLatin1Encoding 120 FMSR

 666 3734 mt 
(1) s
1077 3589 mt 1077 3547 L
1077  302 mt 1077  343 L
1044 3734 mt 
(2) s
1456 3589 mt 1456 3547 L
1456  302 mt 1456  343 L
1423 3734 mt 
(3) s
1835 3589 mt 1835 3547 L
1835  302 mt 1835  343 L
1802 3734 mt 
(4) s
2213 3589 mt 2213 3547 L
2213  302 mt 2213  343 L
2180 3734 mt 
(5) s
2592 3589 mt 2592 3547 L
2592  302 mt 2592  343 L
2559 3734 mt 
(6) s
2971 3589 mt 2971 3547 L
2971  302 mt 2971  343 L
2938 3734 mt 
(7) s
3350 3589 mt 3350 3547 L
3350  302 mt 3350  343 L
3317 3734 mt 
(8) s
3728 3589 mt 3728 3547 L
3728  302 mt 3728  343 L
3695 3734 mt 
(9) s
4107 3589 mt 4107 3547 L
4107  302 mt 4107  343 L
4041 3734 mt 
(10) s
4486 3589 mt 4486 3547 L
4486  302 mt 4486  343 L
4420 3734 mt 
(11) s
4865 3589 mt 4865 3547 L
4865  302 mt 4865  343 L
4799 3734 mt 
(12) s
 699 3589 mt  740 3589 L
4865 3589 mt 4823 3589 L
 598 3633 mt 
(1) s
 699 3290 mt  740 3290 L
4865 3290 mt 4823 3290 L
 598 3334 mt 
(2) s
 699 2991 mt  740 2991 L
4865 2991 mt 4823 2991 L
 598 3035 mt 
(3) s
 699 2692 mt  740 2692 L
4865 2692 mt 4823 2692 L
 598 2736 mt 
(4) s
 699 2393 mt  740 2393 L
4865 2393 mt 4823 2393 L
 598 2437 mt 
(5) s
 699 2094 mt  740 2094 L
4865 2094 mt 4823 2094 L
 598 2138 mt 
(6) s
 699 1796 mt  740 1796 L
4865 1796 mt 4823 1796 L
 598 1840 mt 
(7) s
 699 1497 mt  740 1497 L
4865 1497 mt 4823 1497 L
 598 1541 mt 
(8) s
 699 1198 mt  740 1198 L
4865 1198 mt 4823 1198 L
 598 1242 mt 
(9) s
 699  899 mt  740  899 L
4865  899 mt 4823  899 L
 531  943 mt 
(10) s
 699  600 mt  740  600 L
4865  600 mt 4823  600 L
 531  644 mt 
(11) s
 699  302 mt  740  302 L
4865  302 mt 4823  302 L
 531  346 mt 
(12) s
 699 3589 mt 4865 3589 L
 699  302 mt 4865  302 L
 699 3589 mt  699  302 L
4865 3589 mt 4865  302 L
gs 699 302 4167 3288 rc
DD
379 -298 379 -299 379 -299 378 -299 379 -299 379 -298 379 -299 378 -299 
379 -299 379 -299 378 -299 699 3589 12 MP stroke
DO
1 -1 379 -242 379 -247 379 -251 378 -256 379 -261 379 -266 379 -271 
378 -276 379 -281 379 -288 378 -293 699 3589 13 MP stroke
SO
/c8 { 0.000000 1.000000 0.000000 sr} bdef
c8
1 -1 379 206 379 53 379 -172 378 -182 379 -207 379 -191 379 -274 
378 -221 379 -281 379 -258 378 -292 699 3589 13 MP stroke
gr

c8
 674 3564 mt  724 3614 L
 724 3564 mt  674 3614 L
1052 3272 mt 1102 3322 L
1102 3272 mt 1052 3322 L
1431 3014 mt 1481 3064 L
1481 3014 mt 1431 3064 L
1810 2733 mt 1860 2783 L
1860 2733 mt 1810 2783 L
2188 2512 mt 2238 2562 L
2238 2512 mt 2188 2562 L
2567 2238 mt 2617 2288 L
2617 2238 mt 2567 2288 L
2946 2047 mt 2996 2097 L
2996 2047 mt 2946 2097 L
3325 1840 mt 3375 1890 L
3375 1840 mt 3325 1890 L
3703 1658 mt 3753 1708 L
3753 1658 mt 3703 1708 L
4082 1486 mt 4132 1536 L
4132 1486 mt 4082 1536 L
4461 1539 mt 4511 1589 L
4511 1539 mt 4461 1589 L
4840 1745 mt 4890 1795 L
4890 1745 mt 4840 1795 L
gs 699 302 4167 3288 rc
1 -1 379 222 379 -9 379 -148 378 -142 379 -163 379 -195 379 -250 
378 -245 379 -251 379 -245 378 -304 699 3589 13 MP stroke
gr

  36   36  699 3589 FO
  36   36 1077 3285 FO
  36   36 1456 3040 FO
  36   36 1835 2789 FO
  36   36 2213 2544 FO
  36   36 2592 2294 FO
  36   36 2971 2099 FO
  36   36 3350 1936 FO
  36   36 3728 1794 FO
  36   36 4107 1646 FO
  36   36 4486 1637 FO
  36   36 4865 1859 FO
gs 699 302 4167 3288 rc
/c9 { 0.000000 0.000000 1.000000 sr} bdef
c9
1 -2 379 161 379 51 379 -143 378 -169 379 -233 379 -216 379 -278 
378 -245 379 -266 379 -283 378 -300 699 3589 13 MP stroke
gr

c9
 674 3564 mt  724 3614 L
 724 3564 mt  674 3614 L
1052 3264 mt 1102 3314 L
1102 3264 mt 1052 3314 L
1431 2981 mt 1481 3031 L
1481 2981 mt 1431 3031 L
1810 2715 mt 1860 2765 L
1860 2715 mt 1810 2765 L
2188 2470 mt 2238 2520 L
2238 2470 mt 2188 2520 L
2567 2192 mt 2617 2242 L
2617 2192 mt 2567 2242 L
2946 1976 mt 2996 2026 L
2996 1976 mt 2946 2026 L
3325 1743 mt 3375 1793 L
3375 1743 mt 3325 1793 L
3703 1574 mt 3753 1624 L
3753 1574 mt 3703 1624 L
4082 1431 mt 4132 1481 L
4132 1431 mt 4082 1481 L
4461 1482 mt 4511 1532 L
4511 1482 mt 4461 1532 L
4840 1643 mt 4890 1693 L
4890 1643 mt 4840 1693 L
gs 699 302 4167 3288 rc
1 -1 379 107 379 -49 379 -158 378 -206 379 -212 379 -255 379 -287 
378 -273 379 -272 379 -281 378 -299 699 3589 13 MP stroke
gr

  36   36  699 3589 FO
  36   36 1077 3290 FO
  36   36 1456 3009 FO
  36   36 1835 2737 FO
  36   36 2213 2464 FO
  36   36 2592 2177 FO
  36   36 2971 1922 FO
  36   36 3350 1710 FO
  36   36 3728 1504 FO
  36   36 4107 1346 FO
  36   36 4486 1297 FO
  36   36 4865 1404 FO
gs 699 302 4167 3288 rc
/c10 { 1.000000 0.000000 0.000000 sr} bdef
c10
1 -1 379 -132 379 -161 379 -236 378 -265 379 -277 379 -285 379 -287 
378 -274 379 -270 379 -282 378 -291 699 3589 13 MP stroke
gr

c10
 674 3564 mt  724 3614 L
 724 3564 mt  674 3614 L
1052 3273 mt 1102 3323 L
1102 3273 mt 1052 3323 L
1431 2991 mt 1481 3041 L
1481 2991 mt 1431 3041 L
1810 2721 mt 1860 2771 L
1860 2721 mt 1810 2771 L
2188 2447 mt 2238 2497 L
2238 2447 mt 2188 2497 L
2567 2160 mt 2617 2210 L
2617 2160 mt 2567 2210 L
2946 1875 mt 2996 1925 L
2996 1875 mt 2946 1925 L
3325 1598 mt 3375 1648 L
3375 1598 mt 3325 1648 L
3703 1333 mt 3753 1383 L
3753 1333 mt 3703 1383 L
4082 1097 mt 4132 1147 L
4132 1097 mt 4082 1147 L
4461  936 mt 4511  986 L
4511  936 mt 4461  986 L
4840  804 mt 4890  854 L
4890  804 mt 4840  854 L
gs 699 302 4167 3288 rc
1 0 379 -211 379 -222 379 -251 378 -249 379 -265 379 -285 379 -304 
378 -309 379 -287 379 -291 378 -295 699 3589 13 MP stroke
gr

  36   36  699 3589 FO
  36   36 1077 3294 FO
  36   36 1456 3003 FO
  36   36 1835 2716 FO
  36   36 2213 2407 FO
  36   36 2592 2103 FO
  36   36 2971 1818 FO
  36   36 3350 1553 FO
  36   36 3728 1304 FO
  36   36 4107 1053 FO
  36   36 4486  831 FO
  36   36 4865  620 FO
gs 699 302 4167 3288 rc
gr

0 sg
2634 3877 mt 
(cores) s
 449 2468 mt  -90 rotate
(speedup over serial) s
90 rotate
 682 3632 mt 
( ) s
4849  344 mt 
( ) s
gs 699 302 4167 3288 rc
DD
379 -298 379 -299 379 -299 378 -299 379 -299 379 -298 379 -299 378 -299 
379 -299 379 -299 378 -299 699 3589 12 MP stroke
DO
1 -1 379 -242 379 -247 379 -251 378 -256 379 -261 379 -266 379 -271 
378 -276 379 -281 379 -288 378 -293 699 3589 13 MP stroke
SO
c8
1 -1 379 206 379 53 379 -172 378 -182 379 -207 379 -191 379 -274 
378 -221 379 -281 379 -258 378 -292 699 3589 13 MP stroke
gr

c8
 674 3564 mt  724 3614 L
 724 3564 mt  674 3614 L
1052 3272 mt 1102 3322 L
1102 3272 mt 1052 3322 L
1431 3014 mt 1481 3064 L
1481 3014 mt 1431 3064 L
1810 2733 mt 1860 2783 L
1860 2733 mt 1810 2783 L
2188 2512 mt 2238 2562 L
2238 2512 mt 2188 2562 L
2567 2238 mt 2617 2288 L
2617 2238 mt 2567 2288 L
2946 2047 mt 2996 2097 L
2996 2047 mt 2946 2097 L
3325 1840 mt 3375 1890 L
3375 1840 mt 3325 1890 L
3703 1658 mt 3753 1708 L
3753 1658 mt 3703 1708 L
4082 1486 mt 4132 1536 L
4132 1486 mt 4082 1536 L
4461 1539 mt 4511 1589 L
4511 1539 mt 4461 1589 L
4840 1745 mt 4890 1795 L
4890 1745 mt 4840 1795 L
gs 699 302 4167 3288 rc
1 -1 379 222 379 -9 379 -148 378 -142 379 -163 379 -195 379 -250 
378 -245 379 -251 379 -245 378 -304 699 3589 13 MP stroke
gr

  36   36  699 3589 FO
  36   36 1077 3285 FO
  36   36 1456 3040 FO
  36   36 1835 2789 FO
  36   36 2213 2544 FO
  36   36 2592 2294 FO
  36   36 2971 2099 FO
  36   36 3350 1936 FO
  36   36 3728 1794 FO
  36   36 4107 1646 FO
  36   36 4486 1637 FO
  36   36 4865 1859 FO
gs 699 302 4167 3288 rc
c9
1 -2 379 161 379 51 379 -143 378 -169 379 -233 379 -216 379 -278 
378 -245 379 -266 379 -283 378 -300 699 3589 13 MP stroke
gr

c9
 674 3564 mt  724 3614 L
 724 3564 mt  674 3614 L
1052 3264 mt 1102 3314 L
1102 3264 mt 1052 3314 L
1431 2981 mt 1481 3031 L
1481 2981 mt 1431 3031 L
1810 2715 mt 1860 2765 L
1860 2715 mt 1810 2765 L
2188 2470 mt 2238 2520 L
2238 2470 mt 2188 2520 L
2567 2192 mt 2617 2242 L
2617 2192 mt 2567 2242 L
2946 1976 mt 2996 2026 L
2996 1976 mt 2946 2026 L
3325 1743 mt 3375 1793 L
3375 1743 mt 3325 1793 L
3703 1574 mt 3753 1624 L
3753 1574 mt 3703 1624 L
4082 1431 mt 4132 1481 L
4132 1431 mt 4082 1481 L
4461 1482 mt 4511 1532 L
4511 1482 mt 4461 1532 L
4840 1643 mt 4890 1693 L
4890 1643 mt 4840 1693 L
gs 699 302 4167 3288 rc
1 -1 379 107 379 -49 379 -158 378 -206 379 -212 379 -255 379 -287 
378 -273 379 -272 379 -281 378 -299 699 3589 13 MP stroke
gr

  36   36  699 3589 FO
  36   36 1077 3290 FO
  36   36 1456 3009 FO
  36   36 1835 2737 FO
  36   36 2213 2464 FO
  36   36 2592 2177 FO
  36   36 2971 1922 FO
  36   36 3350 1710 FO
  36   36 3728 1504 FO
  36   36 4107 1346 FO
  36   36 4486 1297 FO
  36   36 4865 1404 FO
gs 699 302 4167 3288 rc
c10
1 -1 379 -132 379 -161 379 -236 378 -265 379 -277 379 -285 379 -287 
378 -274 379 -270 379 -282 378 -291 699 3589 13 MP stroke
gr

c10
 674 3564 mt  724 3614 L
 724 3564 mt  674 3614 L
1052 3273 mt 1102 3323 L
1102 3273 mt 1052 3323 L
1431 2991 mt 1481 3041 L
1481 2991 mt 1431 3041 L
1810 2721 mt 1860 2771 L
1860 2721 mt 1810 2771 L
2188 2447 mt 2238 2497 L
2238 2447 mt 2188 2497 L
2567 2160 mt 2617 2210 L
2617 2160 mt 2567 2210 L
2946 1875 mt 2996 1925 L
2996 1875 mt 2946 1925 L
3325 1598 mt 3375 1648 L
3375 1598 mt 3325 1648 L
3703 1333 mt 3753 1383 L
3753 1333 mt 3703 1383 L
4082 1097 mt 4132 1147 L
4132 1097 mt 4082 1147 L
4461  936 mt 4511  986 L
4511  936 mt 4461  986 L
4840  804 mt 4890  854 L
4890  804 mt 4840  854 L
gs 699 302 4167 3288 rc
1 0 379 -211 379 -222 379 -251 378 -249 379 -265 379 -285 379 -304 
378 -309 379 -287 379 -291 378 -295 699 3589 13 MP stroke
gr

  36   36  699 3589 FO
  36   36 1077 3294 FO
  36   36 1456 3003 FO
  36   36 1835 2716 FO
  36   36 2213 2407 FO
  36   36 2592 2103 FO
  36   36 2971 1818 FO
  36   36 3350 1553 FO
  36   36 3728 1304 FO
  36   36 4107 1053 FO
  36   36 4486  831 FO
  36   36 4865  620 FO
gs 699 302 4167 3288 rc
gr

1 sg
0 1210 1565 0 0 -1210 758 1572 4 MP
PP
-1565 0 0 1210 1565 0 0 -1210 758 1572 5 MP stroke
4 w
DO
SO
6 w
0 sg
 758 1572 mt 2323 1572 L
 758  362 mt 2323  362 L
 758 1572 mt  758  362 L
2323 1572 mt 2323  362 L
 758 1572 mt 2323 1572 L
 758 1572 mt  758  362 L
 758 1572 mt 2323 1572 L
 758  362 mt 2323  362 L
 758 1572 mt  758  362 L
2323 1572 mt 2323  362 L
1231  496 mt 
(ideal) s
gs 758 362 1566 1211 rc
DD
364 0 830 453 2 MP stroke
SO
gr

1231  642 mt 
(amdahl \(p=0.99\)) s
gs 758 362 1566 1211 rc
DO
364 0 830 600 2 MP stroke
SO
gr

1231  789 mt 
(Tm=serial,   Ts=16c) s
gs 758 362 1566 1211 rc
c8
364 0 830 746 2 MP stroke
gs 939 673 147 147 rc
 987  721 mt 1037  771 L
1037  721 mt  987  771 L
gr

gr

c8
0 sg
1231  936 mt 
(Tm=serial,   Ts=32c) s
gs 758 362 1566 1211 rc
c8
364 0 830 893 2 MP stroke
gs 939 820 147 147 rc
  36   36 1012  893 FO
gr

gr

c8
0 sg
1231 1083 mt 
(Tm=coarse, Ts=16c) s
gs 758 362 1566 1211 rc
c9
364 0 830 1040 2 MP stroke
gs 939 967 147 147 rc
 987 1015 mt 1037 1065 L
1037 1015 mt  987 1065 L
gr

gr

c9
0 sg
1231 1230 mt 
(Tm=coarse, Ts=32c) s
gs 758 362 1566 1211 rc
c9
364 0 830 1187 2 MP stroke
gs 939 1114 147 147 rc
  36   36 1012 1187 FO
gr

gr

c9
0 sg
1231 1377 mt 
(Tm=fine,      Ts=16c) s
gs 758 362 1566 1211 rc
c10
364 0 830 1333 2 MP stroke
gs 939 1260 147 147 rc
 987 1308 mt 1037 1358 L
1037 1308 mt  987 1358 L
gr

gr

c10
0 sg
1231 1523 mt 
(Tm=fine,      Ts=32c) s
gs 758 362 1566 1211 rc
c10
364 0 830 1480 2 MP stroke
gs 939 1407 147 147 rc
  36   36 1012 1480 FO
gr

gr

c10

end %%Color Dict

eplot
%%EndObject

epage
end

showpage

%%Trailer
%%EOF
