%!PS-Adobe-3.0 EPSF-3.0
%%Creator: MATLAB, The MathWorks, Inc. Version 8.1.0.604 (R2013a). Operating System: Linux 3.11.0-15-generic #25-Ubuntu SMP Thu Jan 30 17:22:01 UTC 2014 x86_64.
%%Title: /home/pavol/SVN/URDME3/R/branches/doc/pp14/imgs/comp24.eps
%%CreationDate: 02/12/2014  17:55:56
%%DocumentNeededFonts: Helvetica
%%DocumentProcessColors: Cyan Magenta Yellow Black
%%LanguageLevel: 2
%%Pages: 1
%%BoundingBox:    81   227   529   564
%%EndComments

%%BeginProlog
% MathWorks dictionary
/MathWorks 160 dict begin
% definition operators
/bdef {bind def} bind def
/ldef {load def} bind def
/xdef {exch def} bdef
/xstore {exch store} bdef
% operator abbreviations
/c  /clip ldef
/cc /concat ldef
/cp /closepath ldef
/gr /grestore ldef
/gs /gsave ldef
/mt /moveto ldef
/np /newpath ldef
/cm /currentmatrix ldef
/sm /setmatrix ldef
/rm /rmoveto ldef
/rl /rlineto ldef
/s {show newpath} bdef
/sc {setcmykcolor} bdef
/sr /setrgbcolor ldef
/sg /setgray ldef
/w /setlinewidth ldef
/j /setlinejoin ldef
/cap /setlinecap ldef
/rc {rectclip} bdef
/rf {rectfill} bdef
% page state control
/pgsv () def
/bpage {/pgsv save def} bdef
/epage {pgsv restore} bdef
/bplot /gsave ldef
/eplot {stroke grestore} bdef
% orientation switch
/portraitMode 0 def /landscapeMode 1 def /rotateMode 2 def
% coordinate system mappings
/dpi2point 0 def
% font control
/FontSize 0 def
/FMS {/FontSize xstore findfont [FontSize 0 0 FontSize neg 0 0]
  makefont setfont} bdef
/reencode {exch dup where {pop load} {pop StandardEncoding} ifelse
  exch dup 3 1 roll findfont dup length dict begin
  { 1 index /FID ne {def}{pop pop} ifelse } forall
  /Encoding exch def currentdict end definefont pop} bdef
/isroman {findfont /CharStrings get /Agrave known} bdef
/FMSR {3 1 roll 1 index dup isroman {reencode} {pop pop} ifelse
  exch FMS} bdef
/csm {1 dpi2point div -1 dpi2point div scale neg translate
 dup landscapeMode eq {pop -90 rotate}
  {rotateMode eq {90 rotate} if} ifelse} bdef
% line types: solid, dotted, dashed, dotdash
/SO { [] 0 setdash } bdef
/DO { [.5 dpi2point mul 4 dpi2point mul] 0 setdash } bdef
/DA { [6 dpi2point mul] 0 setdash } bdef
/DD { [.5 dpi2point mul 4 dpi2point mul 6 dpi2point mul 4
  dpi2point mul] 0 setdash } bdef
% macros for lines and objects
/L {lineto stroke} bdef
/MP {3 1 roll moveto 1 sub {rlineto} repeat} bdef
/AP {{rlineto} repeat} bdef
/PDlw -1 def
/W {/PDlw currentlinewidth def setlinewidth} def
/PP {closepath eofill} bdef
/DP {closepath stroke} bdef
/MR {4 -2 roll moveto dup  0 exch rlineto exch 0 rlineto
  neg 0 exch rlineto closepath} bdef
/FR {MR stroke} bdef
/PR {MR fill} bdef
/L1i {{currentfile picstr readhexstring pop} image} bdef
/tMatrix matrix def
/MakeOval {newpath tMatrix currentmatrix pop translate scale
0 0 1 0 360 arc tMatrix setmatrix} bdef
/FO {MakeOval stroke} bdef
/PO {MakeOval fill} bdef
/PD {currentlinewidth 2 div 0 360 arc fill
   PDlw -1 eq not {PDlw w /PDlw -1 def} if} def
/FA {newpath tMatrix currentmatrix pop translate scale
  0 0 1 5 -2 roll arc tMatrix setmatrix stroke} bdef
/PA {newpath tMatrix currentmatrix pop	translate 0 0 moveto scale
  0 0 1 5 -2 roll arc closepath tMatrix setmatrix fill} bdef
/FAn {newpath tMatrix currentmatrix pop translate scale
  0 0 1 5 -2 roll arcn tMatrix setmatrix stroke} bdef
/PAn {newpath tMatrix currentmatrix pop translate 0 0 moveto scale
  0 0 1 5 -2 roll arcn closepath tMatrix setmatrix fill} bdef
/vradius 0 def /hradius 0 def /lry 0 def
/lrx 0 def /uly 0 def /ulx 0 def /rad 0 def
/MRR {/vradius xdef /hradius xdef /lry xdef /lrx xdef /uly xdef
  /ulx xdef newpath tMatrix currentmatrix pop ulx hradius add uly
  vradius add translate hradius vradius scale 0 0 1 180 270 arc 
  tMatrix setmatrix lrx hradius sub uly vradius add translate
  hradius vradius scale 0 0 1 270 360 arc tMatrix setmatrix
  lrx hradius sub lry vradius sub translate hradius vradius scale
  0 0 1 0 90 arc tMatrix setmatrix ulx hradius add lry vradius sub
  translate hradius vradius scale 0 0 1 90 180 arc tMatrix setmatrix
  closepath} bdef
/FRR {MRR stroke } bdef
/PRR {MRR fill } bdef
/MlrRR {/lry xdef /lrx xdef /uly xdef /ulx xdef /rad lry uly sub 2 div def
  newpath tMatrix currentmatrix pop ulx rad add uly rad add translate
  rad rad scale 0 0 1 90 270 arc tMatrix setmatrix lrx rad sub lry rad
  sub translate rad rad scale 0 0 1 270 90 arc tMatrix setmatrix
  closepath} bdef
/FlrRR {MlrRR stroke } bdef
/PlrRR {MlrRR fill } bdef
/MtbRR {/lry xdef /lrx xdef /uly xdef /ulx xdef /rad lrx ulx sub 2 div def
  newpath tMatrix currentmatrix pop ulx rad add uly rad add translate
  rad rad scale 0 0 1 180 360 arc tMatrix setmatrix lrx rad sub lry rad
  sub translate rad rad scale 0 0 1 0 180 arc tMatrix setmatrix
  closepath} bdef
/FtbRR {MtbRR stroke } bdef
/PtbRR {MtbRR fill } bdef
/stri 6 array def /dtri 6 array def
/smat 6 array def /dmat 6 array def
/tmat1 6 array def /tmat2 6 array def /dif 3 array def
/asub {/ind2 exch def /ind1 exch def dup dup
  ind1 get exch ind2 get sub exch } bdef
/tri_to_matrix {
  2 0 asub 3 1 asub 4 0 asub 5 1 asub
  dup 0 get exch 1 get 7 -1 roll astore } bdef
/compute_transform {
  dmat dtri tri_to_matrix tmat1 invertmatrix 
  smat stri tri_to_matrix tmat2 concatmatrix } bdef
/ds {stri astore pop} bdef
/dt {dtri astore pop} bdef
/db {2 copy /cols xdef /rows xdef mul dup 3 mul string
  currentfile 
  3 index 0 eq {/ASCIIHexDecode filter}
  {/ASCII85Decode filter 3 index 2 eq {/RunLengthDecode filter} if }
  ifelse exch readstring pop
  dup 0 3 index getinterval /rbmap xdef
  dup 2 index dup getinterval /gbmap xdef
  1 index dup 2 mul exch getinterval /bbmap xdef pop pop}bdef
/it {gs np dtri aload pop moveto lineto lineto cp c
  cols rows 8 compute_transform 
  rbmap gbmap bbmap true 3 colorimage gr}bdef
/il {newpath moveto lineto stroke}bdef
currentdict end def
%%EndProlog

%%BeginSetup
MathWorks begin

0 cap

end
%%EndSetup

%%Page: 1 1
%%BeginPageSetup
%%PageBoundingBox:    81   227   529   564
MathWorks begin
bpage
%%EndPageSetup

%%BeginObject: obj1
bplot

/dpi2point 12 def
portraitMode 0972 6768 csm

    0     0  5376  4033 rc
86 dict begin %Colortable dictionary
/c0 { 0.000000 0.000000 0.000000 sr} bdef
/c1 { 1.000000 1.000000 1.000000 sr} bdef
/c2 { 0.900000 0.000000 0.000000 sr} bdef
/c3 { 0.000000 0.820000 0.000000 sr} bdef
/c4 { 0.000000 0.000000 0.800000 sr} bdef
/c5 { 0.910000 0.820000 0.320000 sr} bdef
/c6 { 1.000000 0.260000 0.820000 sr} bdef
/c7 { 0.000000 0.820000 0.820000 sr} bdef
c0
1 j
1 sg
   0    0 5377 4034 rf
6 w
0 3287 4166 0 0 -3287 699 3589 4 MP
PP
-4166 0 0 3287 4166 0 0 -3287 699 3589 5 MP stroke
4 w
DO
SO
6 w
0 sg
 699 3589 mt 4865 3589 L
 699  302 mt 4865  302 L
 699 3589 mt  699  302 L
4865 3589 mt 4865  302 L
 699 3589 mt 4865 3589 L
 699 3589 mt  699  302 L
 880 3589 mt  880 3547 L
 880  301 mt  880  343 L
%%IncludeResource: font Helvetica
/Helvetica /ISOLatin1Encoding 120 FMSR

 847 3734 mt 
(2) s
1242 3589 mt 1242 3547 L
1242  301 mt 1242  343 L
1209 3734 mt 
(4) s
1604 3589 mt 1604 3547 L
1604  301 mt 1604  343 L
1571 3734 mt 
(6) s
1966 3589 mt 1966 3547 L
1966  301 mt 1966  343 L
1933 3734 mt 
(8) s
2329 3589 mt 2329 3547 L
2329  301 mt 2329  343 L
2263 3734 mt 
(10) s
2691 3589 mt 2691 3547 L
2691  301 mt 2691  343 L
2625 3734 mt 
(12) s
3053 3589 mt 3053 3547 L
3053  301 mt 3053  343 L
2987 3734 mt 
(14) s
3415 3589 mt 3415 3547 L
3415  301 mt 3415  343 L
3349 3734 mt 
(16) s
3778 3589 mt 3778 3547 L
3778  301 mt 3778  343 L
3712 3734 mt 
(18) s
4140 3589 mt 4140 3547 L
4140  301 mt 4140  343 L
4074 3734 mt 
(20) s
4502 3589 mt 4502 3547 L
4502  301 mt 4502  343 L
4436 3734 mt 
(22) s
4865 3589 mt 4865 3547 L
4865  301 mt 4865  343 L
4799 3734 mt 
(24) s
 699 3446 mt  740 3446 L
4865 3446 mt 4823 3446 L
 598 3490 mt 
(2) s
 699 3160 mt  740 3160 L
4865 3160 mt 4823 3160 L
 598 3204 mt 
(4) s
 699 2874 mt  740 2874 L
4865 2874 mt 4823 2874 L
 598 2918 mt 
(6) s
 699 2588 mt  740 2588 L
4865 2588 mt 4823 2588 L
 598 2632 mt 
(8) s
 699 2302 mt  740 2302 L
4865 2302 mt 4823 2302 L
 531 2346 mt 
(10) s
 699 2016 mt  740 2016 L
4865 2016 mt 4823 2016 L
 531 2060 mt 
(12) s
 699 1731 mt  740 1731 L
4865 1731 mt 4823 1731 L
 531 1775 mt 
(14) s
 699 1445 mt  740 1445 L
4865 1445 mt 4823 1445 L
 531 1489 mt 
(16) s
 699 1159 mt  740 1159 L
4865 1159 mt 4823 1159 L
 531 1203 mt 
(18) s
 699  873 mt  740  873 L
4865  873 mt 4823  873 L
 531  917 mt 
(20) s
 699  587 mt  740  587 L
4865  587 mt 4823  587 L
 531  631 mt 
(22) s
 699  301 mt  740  301 L
4865  301 mt 4823  301 L
 531  345 mt 
(24) s
 699 3589 mt 4865 3589 L
 699  302 mt 4865  302 L
 699 3589 mt  699  302 L
4865 3589 mt 4865  302 L
gs 699 302 4167 3288 rc
DD
182 -142 181 -143 181 -143 181 -143 181 -143 181 -143 181 -143 182 -143 
181 -143 181 -143 181 -143 181 -142 181 -143 181 -143 181 -143 182 -143 
181 -143 181 -143 181 -143 181 -143 181 -143 181 -143 181 -143 699 3589 24 MP stroke
DO
182 -94 181 -96 181 -97 181 -100 181 -100 181 -103 181 -104 182 -106 
181 -108 181 -110 181 -112 181 -113 181 -116 181 -118 181 -120 182 -123 
181 -125 181 -127 181 -129 181 -132 181 -135 181 -137 181 -141 699 3589 24 MP stroke
SO
/c8 { 0.000000 1.000000 0.000000 sr} bdef
c8
182 -134 181 118 181 20 181 38 181 158 181 -159 181 -234 182 15 
181 91 181 -58 181 -30 181 -143 181 99 181 25 181 -82 182 -87 
181 -99 181 -91 181 -132 181 -105 181 -134 181 -124 181 -140 699 3589 24 MP stroke
gr

c8
 674 3564 mt  724 3614 L
 724 3564 mt  674 3614 L
 855 3424 mt  905 3474 L
 905 3424 mt  855 3474 L
1036 3300 mt 1086 3350 L
1086 3300 mt 1036 3350 L
1217 3166 mt 1267 3216 L
1267 3166 mt 1217 3216 L
1398 3061 mt 1448 3111 L
1448 3061 mt 1398 3111 L
1579 2929 mt 1629 2979 L
1629 2929 mt 1579 2979 L
1760 2838 mt 1810 2888 L
1810 2838 mt 1760 2888 L
1941 2739 mt 1991 2789 L
1991 2739 mt 1941 2789 L
2123 2652 mt 2173 2702 L
2173 2652 mt 2123 2702 L
2304 2570 mt 2354 2620 L
2354 2570 mt 2304 2620 L
2485 2595 mt 2535 2645 L
2535 2595 mt 2485 2645 L
2666 2694 mt 2716 2744 L
2716 2694 mt 2666 2744 L
2847 2551 mt 2897 2601 L
2897 2551 mt 2847 2601 L
3028 2521 mt 3078 2571 L
3078 2521 mt 3028 2571 L
3209 2463 mt 3259 2513 L
3259 2463 mt 3209 2513 L
3390 2554 mt 3440 2604 L
3440 2554 mt 3390 2604 L
3572 2569 mt 3622 2619 L
3622 2569 mt 3572 2619 L
3753 2335 mt 3803 2385 L
3803 2335 mt 3753 2385 L
3934 2176 mt 3984 2226 L
3984 2176 mt 3934 2226 L
4115 2334 mt 4165 2384 L
4165 2334 mt 4115 2384 L
4296 2372 mt 4346 2422 L
4346 2372 mt 4296 2422 L
4477 2392 mt 4527 2442 L
4527 2392 mt 4477 2442 L
4658 2510 mt 4708 2560 L
4708 2510 mt 4658 2560 L
4840 2376 mt 4890 2426 L
4890 2376 mt 4840 2426 L
gs 699 302 4167 3288 rc
182 -20 181 182 181 46 181 14 181 -93 181 -37 181 37 182 20 
181 13 181 58 181 -52 181 -152 181 106 181 -5 181 -70 182 -68 
181 -78 181 -94 181 -119 181 -117 181 -120 181 -117 181 -146 699 3589 24 MP stroke
gr

  36   36  699 3589 FO
  36   36  880 3443 FO
  36   36 1061 3326 FO
  36   36 1242 3206 FO
  36   36 1423 3089 FO
  36   36 1604 2970 FO
  36   36 1785 2876 FO
  36   36 1966 2798 FO
  36   36 2148 2730 FO
  36   36 2329 2660 FO
  36   36 2510 2655 FO
  36   36 2691 2761 FO
  36   36 2872 2609 FO
  36   36 3053 2557 FO
  36   36 3234 2615 FO
  36   36 3415 2628 FO
  36   36 3597 2648 FO
  36   36 3778 2685 FO
  36   36 3959 2648 FO
  36   36 4140 2555 FO
  36   36 4321 2569 FO
  36   36 4502 2615 FO
  36   36 4683 2797 FO
  36   36 4865 2777 FO
gs 699 302 4167 3288 rc
/c9 { 0.000000 0.000000 1.000000 sr} bdef
c9
182 -49 181 77 181 90 181 21 181 123 181 -190 181 -244 182 15 
181 105 181 1 181 -88 181 -221 181 77 181 24 181 -68 182 -81 
181 -111 181 -103 181 -133 181 -118 181 -127 181 -135 181 -144 699 3589 24 MP stroke
gr

c9
 674 3564 mt  724 3614 L
 724 3564 mt  674 3614 L
 855 3420 mt  905 3470 L
 905 3420 mt  855 3470 L
1036 3285 mt 1086 3335 L
1086 3285 mt 1036 3335 L
1217 3158 mt 1267 3208 L
1267 3158 mt 1217 3208 L
1398 3040 mt 1448 3090 L
1448 3040 mt 1398 3090 L
1579 2907 mt 1629 2957 L
1629 2907 mt 1579 2957 L
1760 2804 mt 1810 2854 L
1810 2804 mt 1760 2854 L
1941 2693 mt 1991 2743 L
1991 2693 mt 1941 2743 L
2123 2612 mt 2173 2662 L
2173 2612 mt 2123 2662 L
2304 2544 mt 2354 2594 L
2354 2544 mt 2304 2594 L
2485 2568 mt 2535 2618 L
2535 2568 mt 2485 2618 L
2666 2645 mt 2716 2695 L
2716 2645 mt 2666 2695 L
2847 2424 mt 2897 2474 L
2897 2424 mt 2847 2474 L
3028 2336 mt 3078 2386 L
3078 2336 mt 3028 2386 L
3209 2337 mt 3259 2387 L
3259 2337 mt 3209 2387 L
3390 2442 mt 3440 2492 L
3440 2442 mt 3390 2492 L
3572 2457 mt 3622 2507 L
3622 2457 mt 3572 2507 L
3753 2213 mt 3803 2263 L
3803 2213 mt 3753 2263 L
3934 2023 mt 3984 2073 L
3984 2023 mt 3934 2073 L
4115 2146 mt 4165 2196 L
4165 2146 mt 4115 2196 L
4296 2167 mt 4346 2217 L
4346 2167 mt 4296 2217 L
4477 2257 mt 4527 2307 L
4527 2257 mt 4477 2307 L
4658 2334 mt 4708 2384 L
4708 2334 mt 4658 2384 L
4840 2285 mt 4890 2335 L
4890 2285 mt 4840 2335 L
gs 699 302 4167 3288 rc
182 -22 181 430 181 -70 181 -299 181 -314 181 70 181 -121 182 7 
181 47 181 -17 181 -97 181 -230 181 52 181 -24 181 -76 182 -98 
181 -102 181 -122 181 -137 181 -130 181 -131 181 -134 181 -143 699 3589 24 MP stroke
gr

  36   36  699 3589 FO
  36   36  880 3446 FO
  36   36 1061 3312 FO
  36   36 1242 3181 FO
  36   36 1423 3051 FO
  36   36 1604 2914 FO
  36   36 1785 2792 FO
  36   36 1966 2690 FO
  36   36 2148 2592 FO
  36   36 2329 2516 FO
  36   36 2510 2492 FO
  36   36 2691 2544 FO
  36   36 2872 2314 FO
  36   36 3053 2217 FO
  36   36 3234 2200 FO
  36   36 3415 2247 FO
  36   36 3597 2254 FO
  36   36 3778 2133 FO
  36   36 3959 2203 FO
  36   36 4140 1889 FO
  36   36 4321 1590 FO
  36   36 4502 1520 FO
  36   36 4683 1950 FO
  36   36 4865 1928 FO
gs 699 302 4167 3288 rc
/c10 { 1.000000 0.000000 0.000000 sr} bdef
c10
182 -26 181 -71 181 -46 181 -90 181 -27 181 -91 181 -151 182 -91 
181 -57 181 -80 181 -97 181 -194 181 -63 181 -77 181 -113 182 -126 
181 -133 181 -136 181 -137 181 -132 181 -129 181 -135 181 -139 699 3589 24 MP stroke
gr

c10
 674 3564 mt  724 3614 L
 724 3564 mt  674 3614 L
 855 3425 mt  905 3475 L
 905 3425 mt  855 3475 L
1036 3290 mt 1086 3340 L
1086 3290 mt 1036 3340 L
1217 3161 mt 1267 3211 L
1267 3161 mt 1217 3211 L
1398 3029 mt 1448 3079 L
1448 3029 mt 1398 3079 L
1579 2892 mt 1629 2942 L
1629 2892 mt 1579 2942 L
1760 2756 mt 1810 2806 L
1810 2756 mt 1760 2806 L
1941 2623 mt 1991 2673 L
1991 2623 mt 1941 2673 L
2123 2497 mt 2173 2547 L
2173 2497 mt 2123 2547 L
2304 2384 mt 2354 2434 L
2354 2384 mt 2304 2434 L
2485 2307 mt 2535 2357 L
2535 2307 mt 2485 2357 L
2666 2244 mt 2716 2294 L
2716 2244 mt 2666 2294 L
2847 2050 mt 2897 2100 L
2897 2050 mt 2847 2100 L
3028 1953 mt 3078 2003 L
3078 1953 mt 3028 2003 L
3209 1873 mt 3259 1923 L
3259 1873 mt 3209 1923 L
3390 1816 mt 3440 1866 L
3440 1816 mt 3390 1866 L
3572 1725 mt 3622 1775 L
3622 1725 mt 3572 1775 L
3753 1574 mt 3803 1624 L
3803 1574 mt 3753 1624 L
3934 1483 mt 3984 1533 L
3984 1483 mt 3934 1533 L
4115 1456 mt 4165 1506 L
4165 1456 mt 4115 1506 L
4296 1366 mt 4346 1416 L
4346 1366 mt 4296 1416 L
4477 1320 mt 4527 1370 L
4527 1320 mt 4477 1370 L
4658 1249 mt 4708 1299 L
4708 1249 mt 4658 1299 L
4840 1223 mt 4890 1273 L
4890 1223 mt 4840 1273 L
gs 699 302 4167 3288 rc
182 529 181 456 181 -89 181 -33 181 -50 181 -80 181 -85 182 -71 
181 -81 181 -50 181 -92 181 -82 181 -101 181 -106 181 -120 182 -119 
181 -127 181 -136 181 -145 181 -148 181 -138 181 -138 181 -142 699 3589 24 MP stroke
gr

  36   36  699 3589 FO
  36   36  880 3447 FO
  36   36 1061 3309 FO
  36   36 1242 3171 FO
  36   36 1423 3023 FO
  36   36 1604 2878 FO
  36   36 1785 2742 FO
  36   36 1966 2615 FO
  36   36 2148 2496 FO
  36   36 2329 2376 FO
  36   36 2510 2270 FO
  36   36 2691 2169 FO
  36   36 2872 2087 FO
  36   36 3053 1995 FO
  36   36 3234 1945 FO
  36   36 3415 1864 FO
  36   36 3597 1793 FO
  36   36 3778 1708 FO
  36   36 3959 1628 FO
  36   36 4140 1578 FO
  36   36 4321 1545 FO
  36   36 4502 1456 FO
  36   36 4683 1912 FO
  36   36 4865 2441 FO
gs 699 302 4167 3288 rc
gr

0 sg
2634 3877 mt 
(cores) s
 449 2468 mt  -90 rotate
(speedup over serial) s
90 rotate
 682 3632 mt 
( ) s
4849  344 mt 
( ) s
1 sg
0 1210 1565 0 0 -1210 758 1572 4 MP
PP
-1565 0 0 1210 1565 0 0 -1210 758 1572 5 MP stroke
4 w
DO
SO
6 w
0 sg
 758 1572 mt 2323 1572 L
 758  362 mt 2323  362 L
 758 1572 mt  758  362 L
2323 1572 mt 2323  362 L
 758 1572 mt 2323 1572 L
 758 1572 mt  758  362 L
 758 1572 mt 2323 1572 L
 758  362 mt 2323  362 L
 758 1572 mt  758  362 L
2323 1572 mt 2323  362 L
1231  496 mt 
(ideal) s
gs 758 362 1566 1211 rc
DD
364 0 830 453 2 MP stroke
SO
gr

1231  642 mt 
(amdahl \(p=0.99\)) s
gs 758 362 1566 1211 rc
DO
364 0 830 600 2 MP stroke
SO
gr

1231  789 mt 
(Tm=serial,   Ts=16c) s
gs 758 362 1566 1211 rc
c8
364 0 830 746 2 MP stroke
gs 939 673 147 147 rc
 987  721 mt 1037  771 L
1037  721 mt  987  771 L
gr

gr

c8
0 sg
1231  936 mt 
(Tm=serial,   Ts=32c) s
gs 758 362 1566 1211 rc
c8
364 0 830 893 2 MP stroke
gs 939 820 147 147 rc
  36   36 1012  893 FO
gr

gr

c8
0 sg
1231 1083 mt 
(Tm=coarse, Ts=16c) s
gs 758 362 1566 1211 rc
c9
364 0 830 1040 2 MP stroke
gs 939 967 147 147 rc
 987 1015 mt 1037 1065 L
1037 1015 mt  987 1065 L
gr

gr

c9
0 sg
1231 1230 mt 
(Tm=coarse, Ts=32c) s
gs 758 362 1566 1211 rc
c9
364 0 830 1187 2 MP stroke
gs 939 1114 147 147 rc
  36   36 1012 1187 FO
gr

gr

c9
0 sg
1231 1377 mt 
(Tm=fine,      Ts=16c) s
gs 758 362 1566 1211 rc
c10
364 0 830 1333 2 MP stroke
gs 939 1260 147 147 rc
 987 1308 mt 1037 1358 L
1037 1308 mt  987 1358 L
gr

gr

c10
0 sg
1231 1523 mt 
(Tm=fine,      Ts=32c) s
gs 758 362 1566 1211 rc
c10
364 0 830 1480 2 MP stroke
gs 939 1407 147 147 rc
  36   36 1012 1480 FO
gr

gr

c10

end %%Color Dict

eplot
%%EndObject

epage
end

showpage

%%Trailer
%%EOF
