%!PS-Adobe-3.0 EPSF-3.0
%%Creator: MATLAB, The MathWorks, Inc. Version 8.1.0.604 (R2013a). Operating System: Linux 3.11.0-15-generic #23-Ubuntu SMP Mon Dec 9 18:17:04 UTC 2013 x86_64.
%%Title: /home/pavol/SVN/URDME3/R/branches/doc/pp14/imgs/firstbench_1to6.eps
%%CreationDate: 01/27/2014  14:55:22
%%DocumentNeededFonts: Helvetica
%%DocumentProcessColors: Cyan Magenta Yellow Black
%%LanguageLevel: 2
%%Pages: 1
%%BoundingBox:    81   227   529   564
%%EndComments

%%BeginProlog
% MathWorks dictionary
/MathWorks 160 dict begin
% definition operators
/bdef {bind def} bind def
/ldef {load def} bind def
/xdef {exch def} bdef
/xstore {exch store} bdef
% operator abbreviations
/c  /clip ldef
/cc /concat ldef
/cp /closepath ldef
/gr /grestore ldef
/gs /gsave ldef
/mt /moveto ldef
/np /newpath ldef
/cm /currentmatrix ldef
/sm /setmatrix ldef
/rm /rmoveto ldef
/rl /rlineto ldef
/s {show newpath} bdef
/sc {setcmykcolor} bdef
/sr /setrgbcolor ldef
/sg /setgray ldef
/w /setlinewidth ldef
/j /setlinejoin ldef
/cap /setlinecap ldef
/rc {rectclip} bdef
/rf {rectfill} bdef
% page state control
/pgsv () def
/bpage {/pgsv save def} bdef
/epage {pgsv restore} bdef
/bplot /gsave ldef
/eplot {stroke grestore} bdef
% orientation switch
/portraitMode 0 def /landscapeMode 1 def /rotateMode 2 def
% coordinate system mappings
/dpi2point 0 def
% font control
/FontSize 0 def
/FMS {/FontSize xstore findfont [FontSize 0 0 FontSize neg 0 0]
  makefont setfont} bdef
/reencode {exch dup where {pop load} {pop StandardEncoding} ifelse
  exch dup 3 1 roll findfont dup length dict begin
  { 1 index /FID ne {def}{pop pop} ifelse } forall
  /Encoding exch def currentdict end definefont pop} bdef
/isroman {findfont /CharStrings get /Agrave known} bdef
/FMSR {3 1 roll 1 index dup isroman {reencode} {pop pop} ifelse
  exch FMS} bdef
/csm {1 dpi2point div -1 dpi2point div scale neg translate
 dup landscapeMode eq {pop -90 rotate}
  {rotateMode eq {90 rotate} if} ifelse} bdef
% line types: solid, dotted, dashed, dotdash
/SO { [] 0 setdash } bdef
/DO { [.5 dpi2point mul 4 dpi2point mul] 0 setdash } bdef
/DA { [6 dpi2point mul] 0 setdash } bdef
/DD { [.5 dpi2point mul 4 dpi2point mul 6 dpi2point mul 4
  dpi2point mul] 0 setdash } bdef
% macros for lines and objects
/L {lineto stroke} bdef
/MP {3 1 roll moveto 1 sub {rlineto} repeat} bdef
/AP {{rlineto} repeat} bdef
/PDlw -1 def
/W {/PDlw currentlinewidth def setlinewidth} def
/PP {closepath eofill} bdef
/DP {closepath stroke} bdef
/MR {4 -2 roll moveto dup  0 exch rlineto exch 0 rlineto
  neg 0 exch rlineto closepath} bdef
/FR {MR stroke} bdef
/PR {MR fill} bdef
/L1i {{currentfile picstr readhexstring pop} image} bdef
/tMatrix matrix def
/MakeOval {newpath tMatrix currentmatrix pop translate scale
0 0 1 0 360 arc tMatrix setmatrix} bdef
/FO {MakeOval stroke} bdef
/PO {MakeOval fill} bdef
/PD {currentlinewidth 2 div 0 360 arc fill
   PDlw -1 eq not {PDlw w /PDlw -1 def} if} def
/FA {newpath tMatrix currentmatrix pop translate scale
  0 0 1 5 -2 roll arc tMatrix setmatrix stroke} bdef
/PA {newpath tMatrix currentmatrix pop	translate 0 0 moveto scale
  0 0 1 5 -2 roll arc closepath tMatrix setmatrix fill} bdef
/FAn {newpath tMatrix currentmatrix pop translate scale
  0 0 1 5 -2 roll arcn tMatrix setmatrix stroke} bdef
/PAn {newpath tMatrix currentmatrix pop translate 0 0 moveto scale
  0 0 1 5 -2 roll arcn closepath tMatrix setmatrix fill} bdef
/vradius 0 def /hradius 0 def /lry 0 def
/lrx 0 def /uly 0 def /ulx 0 def /rad 0 def
/MRR {/vradius xdef /hradius xdef /lry xdef /lrx xdef /uly xdef
  /ulx xdef newpath tMatrix currentmatrix pop ulx hradius add uly
  vradius add translate hradius vradius scale 0 0 1 180 270 arc 
  tMatrix setmatrix lrx hradius sub uly vradius add translate
  hradius vradius scale 0 0 1 270 360 arc tMatrix setmatrix
  lrx hradius sub lry vradius sub translate hradius vradius scale
  0 0 1 0 90 arc tMatrix setmatrix ulx hradius add lry vradius sub
  translate hradius vradius scale 0 0 1 90 180 arc tMatrix setmatrix
  closepath} bdef
/FRR {MRR stroke } bdef
/PRR {MRR fill } bdef
/MlrRR {/lry xdef /lrx xdef /uly xdef /ulx xdef /rad lry uly sub 2 div def
  newpath tMatrix currentmatrix pop ulx rad add uly rad add translate
  rad rad scale 0 0 1 90 270 arc tMatrix setmatrix lrx rad sub lry rad
  sub translate rad rad scale 0 0 1 270 90 arc tMatrix setmatrix
  closepath} bdef
/FlrRR {MlrRR stroke } bdef
/PlrRR {MlrRR fill } bdef
/MtbRR {/lry xdef /lrx xdef /uly xdef /ulx xdef /rad lrx ulx sub 2 div def
  newpath tMatrix currentmatrix pop ulx rad add uly rad add translate
  rad rad scale 0 0 1 180 360 arc tMatrix setmatrix lrx rad sub lry rad
  sub translate rad rad scale 0 0 1 0 180 arc tMatrix setmatrix
  closepath} bdef
/FtbRR {MtbRR stroke } bdef
/PtbRR {MtbRR fill } bdef
/stri 6 array def /dtri 6 array def
/smat 6 array def /dmat 6 array def
/tmat1 6 array def /tmat2 6 array def /dif 3 array def
/asub {/ind2 exch def /ind1 exch def dup dup
  ind1 get exch ind2 get sub exch } bdef
/tri_to_matrix {
  2 0 asub 3 1 asub 4 0 asub 5 1 asub
  dup 0 get exch 1 get 7 -1 roll astore } bdef
/compute_transform {
  dmat dtri tri_to_matrix tmat1 invertmatrix 
  smat stri tri_to_matrix tmat2 concatmatrix } bdef
/ds {stri astore pop} bdef
/dt {dtri astore pop} bdef
/db {2 copy /cols xdef /rows xdef mul dup 3 mul string
  currentfile 
  3 index 0 eq {/ASCIIHexDecode filter}
  {/ASCII85Decode filter 3 index 2 eq {/RunLengthDecode filter} if }
  ifelse exch readstring pop
  dup 0 3 index getinterval /rbmap xdef
  dup 2 index dup getinterval /gbmap xdef
  1 index dup 2 mul exch getinterval /bbmap xdef pop pop}bdef
/it {gs np dtri aload pop moveto lineto lineto cp c
  cols rows 8 compute_transform 
  rbmap gbmap bbmap true 3 colorimage gr}bdef
/il {newpath moveto lineto stroke}bdef
currentdict end def
%%EndProlog

%%BeginSetup
MathWorks begin

0 cap

end
%%EndSetup

%%Page: 1 1
%%BeginPageSetup
%%PageBoundingBox:    81   227   529   564
MathWorks begin
bpage
%%EndPageSetup

%%BeginObject: obj1
bplot

/dpi2point 12 def
portraitMode 0972 6768 csm

    0     0  5376  4033 rc
86 dict begin %Colortable dictionary
/c0 { 0.000000 0.000000 0.000000 sr} bdef
/c1 { 1.000000 1.000000 1.000000 sr} bdef
/c2 { 0.900000 0.000000 0.000000 sr} bdef
/c3 { 0.000000 0.820000 0.000000 sr} bdef
/c4 { 0.000000 0.000000 0.800000 sr} bdef
/c5 { 0.910000 0.820000 0.320000 sr} bdef
/c6 { 1.000000 0.260000 0.820000 sr} bdef
/c7 { 0.000000 0.820000 0.820000 sr} bdef
c0
1 j
1 sg
   0    0 5377 4034 rf
6 w
0 3288 4166 0 0 -3288 699 3589 4 MP
PP
-4166 0 0 3288 4166 0 0 -3288 699 3589 5 MP stroke
4 w
DO
0 sg
 699 3589 mt  699  302 L
 699  302 mt  699  302 L
1532 3589 mt 1532  302 L
1532  302 mt 1532  302 L
2365 3589 mt 2365  302 L
2365  302 mt 2365  302 L
3198 3589 mt 3198  302 L
3198  302 mt 3198  302 L
4031 3589 mt 4031  302 L
4031  302 mt 4031  302 L
4865 3589 mt 4865  302 L
4865  302 mt 4865  302 L
 699 3589 mt 4865 3589 L
4865 3589 mt 4865 3589 L
 699 2931 mt 4865 2931 L
4865 2931 mt 4865 2931 L
 699 2274 mt 4865 2274 L
4865 2274 mt 4865 2274 L
 699 1616 mt 4865 1616 L
4865 1616 mt 4865 1616 L
 699  959 mt 4865  959 L
4865  959 mt 4865  959 L
 699  302 mt 4865  302 L
4865  302 mt 4865  302 L
SO
6 w
 699 3589 mt 4865 3589 L
 699 3589 mt  699  301 L
 699 3589 mt  699 3547 L
%%IncludeResource: font Helvetica
/Helvetica /ISOLatin1Encoding 120 FMSR

 666 3734 mt 
(1) s
1532 3589 mt 1532 3547 L
1499 3734 mt 
(2) s
2365 3589 mt 2365 3547 L
2332 3734 mt 
(3) s
3198 3589 mt 3198 3547 L
3165 3734 mt 
(4) s
4031 3589 mt 4031 3547 L
3998 3734 mt 
(5) s
4865 3589 mt 4865 3547 L
4832 3734 mt 
(6) s
 699 3589 mt  740 3589 L
 598 3633 mt 
(1) s
 699 2931 mt  740 2931 L
 598 2975 mt 
(2) s
 699 2274 mt  740 2274 L
 598 2318 mt 
(3) s
 699 1616 mt  740 1616 L
 598 1660 mt 
(4) s
 699  959 mt  740  959 L
 598 1003 mt 
(5) s
 699  302 mt  740  302 L
 598  346 mt 
(6) s
gs 699 302 4167 3288 rc
DD
833 -657 833 -657 833 -658 833 -657 833 -658 699 3589 6 MP stroke
SO
/c8 { 0.000000 0.000000 1.000000 sr} bdef
c8
1 0 834 -122 833 -108 833 -36 833 -223 833 -10 699 3589 7 MP stroke
gr

c8
gs 626 3017 4314 646 rc
 663 3589 mt  735 3589 L
 699 3553 mt  699 3625 L
1496 3579 mt 1568 3579 L
1532 3543 mt 1532 3615 L
2329 3356 mt 2401 3356 L
2365 3320 mt 2365 3392 L
3162 3320 mt 3234 3320 L
3198 3284 mt 3198 3356 L
3995 3212 mt 4067 3212 L
4031 3176 mt 4031 3248 L
4829 3090 mt 4901 3090 L
4865 3054 mt 4865 3126 L
 674 3564 mt  724 3614 L
 724 3564 mt  674 3614 L
1507 3554 mt 1557 3604 L
1557 3554 mt 1507 3604 L
2340 3331 mt 2390 3381 L
2390 3331 mt 2340 3381 L
3173 3295 mt 3223 3345 L
3223 3295 mt 3173 3345 L
4006 3187 mt 4056 3237 L
4056 3187 mt 4006 3237 L
4840 3065 mt 4890 3115 L
4890 3065 mt 4840 3115 L
gr

gs 699 302 4167 3288 rc
/c9 { 0.000000 1.000000 0.000000 sr} bdef
c9
1 0 834 -204 833 -198 833 -667 833 -447 833 -205 699 3589 7 MP stroke
gr

c9
gs 626 1795 4314 1868 rc
 663 3589 mt  735 3589 L
 699 3553 mt  699 3625 L
1496 3384 mt 1568 3384 L
1532 3348 mt 1532 3420 L
2329 2937 mt 2401 2937 L
2365 2901 mt 2365 2973 L
3162 2270 mt 3234 2270 L
3198 2234 mt 3198 2306 L
3995 2072 mt 4067 2072 L
4031 2036 mt 4031 2108 L
4829 1868 mt 4901 1868 L
4865 1832 mt 4865 1904 L
gr

gs 699 302 4167 3288 rc
/c10 { 1.000000 0.000000 0.000000 sr} bdef
c10
1 -1 834 -550 833 -485 833 -637 833 -606 833 -690 699 3589 7 MP stroke
gr

c10
gs 626 547 4314 3116 rc
0 j
36 47 -36 47 -36 -47 36 -47 699 3636 5 MP
DP
36 47 -36 47 -36 -47 36 -47 1532 2946 5 MP
DP
36 47 -36 47 -36 -47 36 -47 2365 2340 5 MP
DP
36 47 -36 47 -36 -47 36 -47 3198 1703 5 MP
DP
36 47 -36 47 -36 -47 36 -47 4031 1218 5 MP
DP
36 47 -36 47 -36 -47 36 -47 4865 668 5 MP
DP
gr

gs 699 302 4167 3288 rc
gr

0 sg
2581 3877 mt 
(threads) s
 516 2468 mt  -90 rotate
(speedup over serial) s
90 rotate
 682 3632 mt 
( ) s
4849  344 mt 
( ) s
1 sg
0 719 1186 0 0 -719 852 1091 4 MP
PP
-1186 0 0 719 1186 0 0 -719 852 1091 5 MP stroke
4 w
DO
SO
6 w
0 sg
 852 1091 mt 2038 1091 L
 852  372 mt 2038  372 L
 852 1091 mt  852  372 L
2038 1091 mt 2038  372 L
 852 1091 mt 2038 1091 L
 852 1091 mt  852  372 L
 852 1091 mt 2038 1091 L
 852  372 mt 2038  372 L
 852 1091 mt  852  372 L
2038 1091 mt 2038  372 L
1321  520 mt 
(ideal) s
gs 852 372 1187 720 rc
DD
360 0 924 477 2 MP stroke
SO
gr

1321  689 mt 
(serial events) s
gs 852 372 1187 720 rc
c8
360 0 924 646 2 MP stroke
gs 1031 573 147 147 rc
1068  646 mt 1140  646 L
1104  610 mt 1104  682 L
1079  621 mt 1129  671 L
1129  621 mt 1079  671 L
gr

gr

c8
0 sg
1321  859 mt 
(pthreads) s
gs 852 372 1187 720 rc
c9
360 0 924 816 2 MP stroke
gs 1031 743 147 147 rc
1068  816 mt 1140  816 L
1104  780 mt 1104  852 L
gr

gr

c9
0 sg
1321 1028 mt 
(superglue) s
gs 852 372 1187 720 rc
c10
360 0 924 985 2 MP stroke
gs 1031 912 147 147 rc
0 j
36 47 -36 47 -36 -47 36 -47 1104 1032 5 MP
DP
gr

gr

c10

end %%Color Dict

eplot
%%EndObject

epage
end

showpage

%%Trailer
%%EOF
