%!PS-Adobe-3.0 EPSF-3.0
%%Creator: (MATLAB, The Mathworks, Inc. Version 8.4.0.150421 \(R2014b\). Operating System: Linux)
%%Title: /home/pavol/GIT/paemreport/paemreport/figures/fitting_lpd_size.eps
%%CreationDate: 2015-03-13T18:30:40
%%Pages: (atend)
%%BoundingBox: 0 0 428 317
%%LanguageLevel: 2
%%EndComments
%%BeginProlog
%%BeginResource: procset (Apache XML Graphics Std ProcSet) 1.2 0
%%Version: 1.2 0
%%Copyright: (Copyright 2001-2003,2010 The Apache Software Foundation. License terms: http://www.apache.org/licenses/LICENSE-2.0)
/bd{bind def}bind def
/ld{load def}bd
/GR/grestore ld
/M/moveto ld
/LJ/setlinejoin ld
/C/curveto ld
/f/fill ld
/LW/setlinewidth ld
/GC/setgray ld
/t/show ld
/N/newpath ld
/CT/concat ld
/cp/closepath ld
/S/stroke ld
/L/lineto ld
/CC/setcmykcolor ld
/A/ashow ld
/GS/gsave ld
/RC/setrgbcolor ld
/RM/rmoveto ld
/ML/setmiterlimit ld
/re {4 2 roll M
1 index 0 rlineto
0 exch rlineto
neg 0 rlineto
cp } bd
/_ctm matrix def
/_tm matrix def
/BT { _ctm currentmatrix pop matrix _tm copy pop 0 0 moveto } bd
/ET { _ctm setmatrix } bd
/iTm { _ctm setmatrix _tm concat } bd
/Tm { _tm astore pop iTm 0 0 moveto } bd
/ux 0.0 def
/uy 0.0 def
/F {
  /Tp exch def
  /Tf exch def
  Tf findfont Tp scalefont setfont
  /cf Tf def  /cs Tp def
} bd
/ULS {currentpoint /uy exch def /ux exch def} bd
/ULE {
  /Tcx currentpoint pop def
  gsave
  newpath
  cf findfont cs scalefont dup
  /FontMatrix get 0 get /Ts exch def /FontInfo get dup
  /UnderlinePosition get Ts mul /To exch def
  /UnderlineThickness get Ts mul /Tt exch def
  ux uy To add moveto  Tcx uy To add lineto
  Tt setlinewidth stroke
  grestore
} bd
/OLE {
  /Tcx currentpoint pop def
  gsave
  newpath
  cf findfont cs scalefont dup
  /FontMatrix get 0 get /Ts exch def /FontInfo get dup
  /UnderlinePosition get Ts mul /To exch def
  /UnderlineThickness get Ts mul /Tt exch def
  ux uy To add cs add moveto Tcx uy To add cs add lineto
  Tt setlinewidth stroke
  grestore
} bd
/SOE {
  /Tcx currentpoint pop def
  gsave
  newpath
  cf findfont cs scalefont dup
  /FontMatrix get 0 get /Ts exch def /FontInfo get dup
  /UnderlinePosition get Ts mul /To exch def
  /UnderlineThickness get Ts mul /Tt exch def
  ux uy To add cs 10 mul 26 idiv add moveto Tcx uy To add cs 10 mul 26 idiv add lineto
  Tt setlinewidth stroke
  grestore
} bd
/QT {
/Y22 exch store
/X22 exch store
/Y21 exch store
/X21 exch store
currentpoint
/Y21 load 2 mul add 3 div exch
/X21 load 2 mul add 3 div exch
/X21 load 2 mul /X22 load add 3 div
/Y21 load 2 mul /Y22 load add 3 div
/X22 load /Y22 load curveto
} bd
/SSPD {
dup length /d exch dict def
{
/v exch def
/k exch def
currentpagedevice k known {
/cpdv currentpagedevice k get def
v cpdv ne {
/upd false def
/nullv v type /nulltype eq def
/nullcpdv cpdv type /nulltype eq def
nullv nullcpdv or
{
/upd true def
} {
/sametype v type cpdv type eq def
sametype {
v type /arraytype eq {
/vlen v length def
/cpdvlen cpdv length def
vlen cpdvlen eq {
0 1 vlen 1 sub {
/i exch def
/obj v i get def
/cpdobj cpdv i get def
obj cpdobj ne {
/upd true def
exit
} if
} for
} {
/upd true def
} ifelse
} {
v type /dicttype eq {
v {
/dv exch def
/dk exch def
/cpddv cpdv dk get def
dv cpddv ne {
/upd true def
exit
} if
} forall
} {
/upd true def
} ifelse
} ifelse
} if
} ifelse
upd true eq {
d k v put
} if
} if
} if
} forall
d length 0 gt {
d setpagedevice
} if
} bd
%%EndResource
%%BeginResource: procset (Apache XML Graphics EPS ProcSet) 1.0 0
%%Version: 1.0 0
%%Copyright: (Copyright 2002-2003 The Apache Software Foundation. License terms: http://www.apache.org/licenses/LICENSE-2.0)
/BeginEPSF { %def
/b4_Inc_state save def         % Save state for cleanup
/dict_count countdictstack def % Count objects on dict stack
/op_count count 1 sub def      % Count objects on operand stack
userdict begin                 % Push userdict on dict stack
/showpage { } def              % Redefine showpage, { } = null proc
0 setgray 0 setlinecap         % Prepare graphics state
1 setlinewidth 0 setlinejoin
10 setmiterlimit [ ] 0 setdash newpath
/languagelevel where           % If level not equal to 1 then
{pop languagelevel             % set strokeadjust and
1 ne                           % overprint to their defaults.
{false setstrokeadjust false setoverprint
} if
} if
} bd
/EndEPSF { %def
count op_count sub {pop} repeat            % Clean up stacks
countdictstack dict_count sub {end} repeat
b4_Inc_state restore
} bd
%%EndResource
%FOPBeginFontDict
%%IncludeResource: font Courier-Bold
%%IncludeResource: font Helvetica
%%IncludeResource: font Courier-BoldOblique
%%IncludeResource: font Courier-Oblique
%%IncludeResource: font Times-Roman
%%IncludeResource: font Helvetica-BoldOblique
%%IncludeResource: font Helvetica-Bold
%%IncludeResource: font Helvetica-Oblique
%%IncludeResource: font Times-BoldItalic
%%IncludeResource: font Courier
%%IncludeResource: font Times-Italic
%%IncludeResource: font Times-Bold
%%IncludeResource: font Symbol
%%IncludeResource: font ZapfDingbats
%FOPEndFontDict
%%BeginResource: encoding WinAnsiEncoding
/WinAnsiEncoding [
/.notdef /.notdef /.notdef /.notdef /.notdef
/.notdef /.notdef /.notdef /.notdef /.notdef
/.notdef /.notdef /.notdef /.notdef /.notdef
/.notdef /.notdef /.notdef /.notdef /.notdef
/.notdef /.notdef /.notdef /.notdef /.notdef
/.notdef /.notdef /.notdef /.notdef /.notdef
/.notdef /.notdef /space /exclam /quotedbl
/numbersign /dollar /percent /ampersand /quotesingle
/parenleft /parenright /asterisk /plus /comma
/hyphen /period /slash /zero /one
/two /three /four /five /six
/seven /eight /nine /colon /semicolon
/less /equal /greater /question /at
/A /B /C /D /E
/F /G /H /I /J
/K /L /M /N /O
/P /Q /R /S /T
/U /V /W /X /Y
/Z /bracketleft /backslash /bracketright /asciicircum
/underscore /quoteleft /a /b /c
/d /e /f /g /h
/i /j /k /l /m
/n /o /p /q /r
/s /t /u /v /w
/x /y /z /braceleft /bar
/braceright /asciitilde /bullet /Euro /bullet
/quotesinglbase /florin /quotedblbase /ellipsis /dagger
/daggerdbl /circumflex /perthousand /Scaron /guilsinglleft
/OE /bullet /Zcaron /bullet /bullet
/quoteleft /quoteright /quotedblleft /quotedblright /bullet
/endash /emdash /asciitilde /trademark /scaron
/guilsinglright /oe /bullet /zcaron /Ydieresis
/space /exclamdown /cent /sterling /currency
/yen /brokenbar /section /dieresis /copyright
/ordfeminine /guillemotleft /logicalnot /sfthyphen /registered
/macron /degree /plusminus /twosuperior /threesuperior
/acute /mu /paragraph /middot /cedilla
/onesuperior /ordmasculine /guillemotright /onequarter /onehalf
/threequarters /questiondown /Agrave /Aacute /Acircumflex
/Atilde /Adieresis /Aring /AE /Ccedilla
/Egrave /Eacute /Ecircumflex /Edieresis /Igrave
/Iacute /Icircumflex /Idieresis /Eth /Ntilde
/Ograve /Oacute /Ocircumflex /Otilde /Odieresis
/multiply /Oslash /Ugrave /Uacute /Ucircumflex
/Udieresis /Yacute /Thorn /germandbls /agrave
/aacute /acircumflex /atilde /adieresis /aring
/ae /ccedilla /egrave /eacute /ecircumflex
/edieresis /igrave /iacute /icircumflex /idieresis
/eth /ntilde /ograve /oacute /ocircumflex
/otilde /odieresis /divide /oslash /ugrave
/uacute /ucircumflex /udieresis /yacute /thorn
/ydieresis
] def
%%EndResource
%FOPBeginFontReencode
/Courier-Bold findfont
dup length dict begin
  {1 index /FID ne {def} {pop pop} ifelse} forall
  /Encoding WinAnsiEncoding def
  currentdict
end
/Courier-Bold exch definefont pop
/Helvetica findfont
dup length dict begin
  {1 index /FID ne {def} {pop pop} ifelse} forall
  /Encoding WinAnsiEncoding def
  currentdict
end
/Helvetica exch definefont pop
/Courier-BoldOblique findfont
dup length dict begin
  {1 index /FID ne {def} {pop pop} ifelse} forall
  /Encoding WinAnsiEncoding def
  currentdict
end
/Courier-BoldOblique exch definefont pop
/Courier-Oblique findfont
dup length dict begin
  {1 index /FID ne {def} {pop pop} ifelse} forall
  /Encoding WinAnsiEncoding def
  currentdict
end
/Courier-Oblique exch definefont pop
/Times-Roman findfont
dup length dict begin
  {1 index /FID ne {def} {pop pop} ifelse} forall
  /Encoding WinAnsiEncoding def
  currentdict
end
/Times-Roman exch definefont pop
/Helvetica-BoldOblique findfont
dup length dict begin
  {1 index /FID ne {def} {pop pop} ifelse} forall
  /Encoding WinAnsiEncoding def
  currentdict
end
/Helvetica-BoldOblique exch definefont pop
/Helvetica-Bold findfont
dup length dict begin
  {1 index /FID ne {def} {pop pop} ifelse} forall
  /Encoding WinAnsiEncoding def
  currentdict
end
/Helvetica-Bold exch definefont pop
/Helvetica-Oblique findfont
dup length dict begin
  {1 index /FID ne {def} {pop pop} ifelse} forall
  /Encoding WinAnsiEncoding def
  currentdict
end
/Helvetica-Oblique exch definefont pop
/Times-BoldItalic findfont
dup length dict begin
  {1 index /FID ne {def} {pop pop} ifelse} forall
  /Encoding WinAnsiEncoding def
  currentdict
end
/Times-BoldItalic exch definefont pop
/Courier findfont
dup length dict begin
  {1 index /FID ne {def} {pop pop} ifelse} forall
  /Encoding WinAnsiEncoding def
  currentdict
end
/Courier exch definefont pop
/Times-Italic findfont
dup length dict begin
  {1 index /FID ne {def} {pop pop} ifelse} forall
  /Encoding WinAnsiEncoding def
  currentdict
end
/Times-Italic exch definefont pop
/Times-Bold findfont
dup length dict begin
  {1 index /FID ne {def} {pop pop} ifelse} forall
  /Encoding WinAnsiEncoding def
  currentdict
end
/Times-Bold exch definefont pop
%FOPEndFontReencode
%%EndProlog
%%Page: 1 1
%%PageBoundingBox: 0 0 428 317
%%BeginPageSetup
[1 0 0 -1 0 317] CT
%%EndPageSetup
GS
[0.75 0 0 0.75 0 0.5] CT
N
0 0 M
570 0 L
570 422 L
0 422 L
0 0 L
cp
clip
1 GC
N
0 0 570 422 re
f
GR
GS
[0.75 0 0 0.75 0 0.5] CT
N
0 0 M
570 0 L
570 422 L
0 422 L
0 0 L
cp
clip
1 GC
N
0 0 570 422 re
f
GR
GS
[0.75 0 0 0.75 0 0.5] CT
1 GC
N
74 173 M
516 173 L
516 32 L
74 32 L
cp
f
GR
GS
[0.75 0 0 0.75 221.25 146.59961] CT
0.149 GC
/Helvetica 15 F
GS
[1 0 0 1 0 0] CT
-83.284 13.923 moveto 
1 -1 scale
(Inter-LP diffusion ratio) t 
GR
GR
GS
[0.75 0 0 0.75 0 0.5] CT
0.149 GC
2 setlinecap
10.0 ML
N
74 173 M
516 173 L
S
GR
GS
[0.75 0 0 0.75 0 0.5] CT
0.149 GC
2 setlinecap
10.0 ML
N
74 173 M
74 168.58 L
S
GR
GS
[0.75 0 0 0.75 0 0.5] CT
0.149 GC
2 setlinecap
10.0 ML
N
137.143 173 M
137.143 168.58 L
S
GR
GS
[0.75 0 0 0.75 0 0.5] CT
0.149 GC
2 setlinecap
10.0 ML
N
200.286 173 M
200.286 168.58 L
S
GR
GS
[0.75 0 0 0.75 0 0.5] CT
0.149 GC
2 setlinecap
10.0 ML
N
263.429 173 M
263.429 168.58 L
S
GR
GS
[0.75 0 0 0.75 0 0.5] CT
0.149 GC
2 setlinecap
10.0 ML
N
326.571 173 M
326.571 168.58 L
S
GR
GS
[0.75 0 0 0.75 0 0.5] CT
0.149 GC
2 setlinecap
10.0 ML
N
389.714 173 M
389.714 168.58 L
S
GR
GS
[0.75 0 0 0.75 0 0.5] CT
0.149 GC
2 setlinecap
10.0 ML
N
452.857 173 M
452.857 168.58 L
S
GR
GS
[0.75 0 0 0.75 0 0.5] CT
0.149 GC
2 setlinecap
10.0 ML
N
516 173 M
516 168.58 L
S
GR
GS
[0.75 0 0 0.75 55.5 134.25] CT
0.149 GC
/Helvetica 13 F
GS
[1 0 0 1 0 0] CT
-4.135 12.067 moveto 
1 -1 scale
(0) t 
GR
GR
GS
[0.75 0 0 0.75 102.85714 134.25] CT
0.149 GC
/Helvetica 13 F
GS
[1 0 0 1 0 0] CT
-4.135 12.067 moveto 
1 -1 scale
(5) t 
GR
GR
GS
[0.75 0 0 0.75 150.21429 134.25] CT
0.149 GC
/Helvetica 13 F
GS
[1 0 0 1 0 0] CT
-8.271 12.067 moveto 
1 -1 scale
(10) t 
GR
GR
GS
[0.75 0 0 0.75 197.57142 134.25] CT
0.149 GC
/Helvetica 13 F
GS
[1 0 0 1 0 0] CT
-8.271 12.067 moveto 
1 -1 scale
(15) t 
GR
GR
GS
[0.75 0 0 0.75 244.92858 134.25] CT
0.149 GC
/Helvetica 13 F
GS
[1 0 0 1 0 0] CT
-8.271 12.067 moveto 
1 -1 scale
(20) t 
GR
GR
GS
[0.75 0 0 0.75 292.28572 134.25] CT
0.149 GC
/Helvetica 13 F
GS
[1 0 0 1 0 0] CT
-8.271 12.067 moveto 
1 -1 scale
(25) t 
GR
GR
GS
[0.75 0 0 0.75 339.64286 134.25] CT
0.149 GC
/Helvetica 13 F
GS
[1 0 0 1 0 0] CT
-8.271 12.067 moveto 
1 -1 scale
(30) t 
GR
GR
GS
[0.75 0 0 0.75 387 134.25] CT
0.149 GC
/Helvetica 13 F
GS
[1 0 0 1 0 0] CT
-8.271 12.067 moveto 
1 -1 scale
(35) t 
GR
GR
GS
[0 -0.75 0.75 0 32.99426 77.375] CT
0.149 GC
/Helvetica 15 F
GS
[1 0 0 1 0 0] CT
-66.401 -2.538 moveto 
1 -1 scale
(parallel efficiency) t 
GR
GR
GS
[0.75 0 0 0.75 0 0.5] CT
0.149 GC
2 setlinecap
10.0 ML
N
74 173 M
74 32 L
S
GR
GS
[0.75 0 0 0.75 0 0.5] CT
0.149 GC
2 setlinecap
10.0 ML
N
74 173 M
78.42 173 L
S
GR
GS
[0.75 0 0 0.75 0 0.5] CT
0.149 GC
2 setlinecap
10.0 ML
N
74 137.75 M
78.42 137.75 L
S
GR
GS
[0.75 0 0 0.75 0 0.5] CT
0.149 GC
2 setlinecap
10.0 ML
N
74 102.5 M
78.42 102.5 L
S
GR
GS
[0.75 0 0 0.75 0 0.5] CT
0.149 GC
2 setlinecap
10.0 ML
N
74 67.25 M
78.42 67.25 L
S
GR
GS
[0.75 0 0 0.75 0 0.5] CT
0.149 GC
2 setlinecap
10.0 ML
N
74 32 M
78.42 32 L
S
GR
GS
[0.75 0 0 0.75 51.5 130.25] CT
0.149 GC
/Helvetica 13 F
GS
[1 0 0 1 0 0] CT
-8.271 4.5 moveto 
1 -1 scale
(0) t 
GR
GR
GS
[0.75 0 0 0.75 51.5 103.8125] CT
0.149 GC
/Helvetica 13 F
GS
[1 0 0 1 0 0] CT
-20.674 4.5 moveto 
1 -1 scale
(0.2) t 
GR
GR
GS
[0.75 0 0 0.75 51.5 77.375] CT
0.149 GC
/Helvetica 13 F
GS
[1 0 0 1 0 0] CT
-20.674 4.5 moveto 
1 -1 scale
(0.4) t 
GR
GR
GS
[0.75 0 0 0.75 51.5 50.93749] CT
0.149 GC
/Helvetica 13 F
GS
[1 0 0 1 0 0] CT
-20.674 4.5 moveto 
1 -1 scale
(0.6) t 
GR
GR
GS
[0.75 0 0 0.75 51.5 24.5] CT
0.149 GC
/Helvetica 13 F
GS
[1 0 0 1 0 0] CT
-20.674 4.5 moveto 
1 -1 scale
(0.8) t 
GR
GR
GS
[0.75 0 0 0.75 0 0.5] CT
0 0.447 0.741 RC
2 setlinecap
10.0 ML
N
482.5 136.5 M
481.736 134.149 L
479.736 132.696 L
477.264 132.696 L
475.264 134.149 L
474.5 136.5 L
475.264 138.851 L
477.264 140.304 L
479.736 140.304 L
481.736 138.851 L
482.5 136.5 L
S
GR
GS
[0.75 0 0 0.75 0 0.5] CT
0 0.447 0.741 RC
2 setlinecap
10.0 ML
N
267.5 110.5 M
266.736 108.149 L
264.736 106.696 L
262.264 106.696 L
260.264 108.149 L
259.5 110.5 L
260.264 112.851 L
262.264 114.304 L
264.736 114.304 L
266.736 112.851 L
267.5 110.5 L
S
GR
GS
[0.75 0 0 0.75 0 0.5] CT
0 0.447 0.741 RC
2 setlinecap
10.0 ML
N
179.5 76.5 M
178.736 74.149 L
176.736 72.696 L
174.264 72.696 L
172.264 74.149 L
171.5 76.5 L
172.264 78.851 L
174.264 80.304 L
176.736 80.304 L
178.736 78.851 L
179.5 76.5 L
S
GR
GS
[0.75 0 0 0.75 0 0.5] CT
0 0.447 0.741 RC
2 setlinecap
10.0 ML
N
355.5 129.5 M
354.736 127.149 L
352.736 125.696 L
350.264 125.696 L
348.264 127.149 L
347.5 129.5 L
348.264 131.851 L
350.264 133.304 L
352.736 133.304 L
354.736 131.851 L
355.5 129.5 L
S
GR
GS
[0.75 0 0 0.75 0 0.5] CT
0 0.447 0.741 RC
2 setlinecap
10.0 ML
N
179.5 97.5 M
178.736 95.149 L
176.736 93.696 L
174.264 93.696 L
172.264 95.149 L
171.5 97.5 L
172.264 99.851 L
174.264 101.304 L
176.736 101.304 L
178.736 99.851 L
179.5 97.5 L
S
GR
GS
[0.75 0 0 0.75 0 0.5] CT
0 0.447 0.741 RC
2 setlinecap
10.0 ML
N
115.5 69.5 M
114.736 67.149 L
112.736 65.696 L
110.264 65.696 L
108.264 67.149 L
107.5 69.5 L
108.264 71.851 L
110.264 73.304 L
112.736 73.304 L
114.736 71.851 L
115.5 69.5 L
S
GR
GS
[0.75 0 0 0.75 0 0.5] CT
0 0.447 0.741 RC
2 setlinecap
10.0 ML
N
418.5 131.5 M
417.736 129.149 L
415.736 127.696 L
413.264 127.696 L
411.264 129.149 L
410.5 131.5 L
411.264 133.851 L
413.264 135.304 L
415.736 135.304 L
417.736 133.851 L
418.5 131.5 L
S
GR
GS
[0.75 0 0 0.75 0 0.5] CT
0 0.447 0.741 RC
2 setlinecap
10.0 ML
N
103.5 89.5 M
102.736 87.149 L
100.736 85.696 L
98.264 85.696 L
96.264 87.149 L
95.5 89.5 L
96.264 91.851 L
98.264 93.304 L
100.736 93.304 L
102.736 91.851 L
103.5 89.5 L
S
GR
GS
[0.75 0 0 0.75 0 0.5] CT
0 0.447 0.741 RC
2 setlinecap
10.0 ML
N
78.5 73.5 M
77.736 71.149 L
75.736 69.696 L
73.264 69.696 L
71.264 71.149 L
70.5 73.5 L
71.264 75.851 L
73.264 77.304 L
75.736 77.304 L
77.736 75.851 L
78.5 73.5 L
S
GR
GS
[0.75 0 0 0.75 0 0.5] CT
0 0.447 0.741 RC
2 setlinecap
10.0 ML
N
204.5 123.5 M
203.736 121.149 L
201.736 119.696 L
199.264 119.696 L
197.264 121.149 L
196.5 123.5 L
197.264 125.851 L
199.264 127.304 L
201.736 127.304 L
203.736 125.851 L
204.5 123.5 L
S
GR
GS
[0.75 0 0 0.75 0 0.5] CT
0 0.447 0.741 RC
2 setlinecap
10.0 ML
N
115.5 82.5 M
114.736 80.149 L
112.736 78.696 L
110.264 78.696 L
108.264 80.149 L
107.5 82.5 L
108.264 84.851 L
110.264 86.304 L
112.736 86.304 L
114.736 84.851 L
115.5 82.5 L
S
GR
GS
[0.75 0 0 0.75 0 0.5] CT
0 0.447 0.741 RC
2 setlinecap
10.0 ML
N
103.5 58.5 M
102.736 56.149 L
100.736 54.696 L
98.264 54.696 L
96.264 56.149 L
95.5 58.5 L
96.264 60.851 L
98.264 62.304 L
100.736 62.304 L
102.736 60.851 L
103.5 58.5 L
S
GR
GS
[0.75 0 0 0.75 0 0.5] CT
0 0.447 0.741 RC
2 setlinecap
10.0 ML
N
418.5 142.5 M
417.736 140.149 L
415.736 138.696 L
413.264 138.696 L
411.264 140.149 L
410.5 142.5 L
411.264 144.851 L
413.264 146.304 L
415.736 146.304 L
417.736 144.851 L
418.5 142.5 L
S
GR
GS
[0.75 0 0 0.75 0 0.5] CT
0.851 0.325 0.098 RC
2 setlinecap
10.0 ML
N
74 67.49 M
86.629 71.465 L
99.257 75.289 L
111.886 78.969 L
124.514 82.511 L
137.143 85.919 L
149.771 89.199 L
162.4 92.356 L
175.029 95.393 L
187.657 98.316 L
200.286 101.129 L
212.914 103.836 L
225.543 106.441 L
238.171 108.948 L
250.8 111.361 L
263.429 113.682 L
276.057 115.917 L
288.686 118.067 L
301.314 120.136 L
313.943 122.127 L
326.571 124.043 L
339.2 125.887 L
351.829 127.662 L
364.457 129.369 L
377.086 131.013 L
389.714 132.594 L
402.343 134.116 L
414.971 135.581 L
427.6 136.99 L
440.229 138.346 L
452.857 139.652 L
465.486 140.908 L
478.114 142.116 L
490.743 143.28 L
503.371 144.399 L
516 145.476 L
S
GR
GS
[0.75 0 0 0.75 221.25 21.74999] CT
/Helvetica-Bold 15 F
GS
[1 0 0 1 0 0] CT
-27.788 -2.538 moveto 
1 -1 scale
(32 LPs) t 
GR
GR
GS
[0.75 0 0 0.75 0 0.5] CT
1 GC
N
74 373 M
516 373 L
516 232 L
74 232 L
cp
f
GR
GS
[0.75 0 0 0.75 221.25 296.5996] CT
0.149 GC
/Helvetica 15 F
GS
[1 0 0 1 0 0] CT
-87.667 13.923 moveto 
1 -1 scale
(log10\(model size\)) t 
GR
GR
GS
[0.75 0 0 0.75 0 0.5] CT
0.149 GC
2 setlinecap
10.0 ML
N
74 373 M
516 373 L
S
GR
GS
[0.75 0 0 0.75 0 0.5] CT
0.149 GC
2 setlinecap
10.0 ML
N
74 373 M
74 368.58 L
S
GR
GS
[0.75 0 0 0.75 0 0.5] CT
0.149 GC
2 setlinecap
10.0 ML
N
162.4 373 M
162.4 368.58 L
S
GR
GS
[0.75 0 0 0.75 0 0.5] CT
0.149 GC
2 setlinecap
10.0 ML
N
250.8 373 M
250.8 368.58 L
S
GR
GS
[0.75 0 0 0.75 0 0.5] CT
0.149 GC
2 setlinecap
10.0 ML
N
339.2 373 M
339.2 368.58 L
S
GR
GS
[0.75 0 0 0.75 0 0.5] CT
0.149 GC
2 setlinecap
10.0 ML
N
427.6 373 M
427.6 368.58 L
S
GR
GS
[0.75 0 0 0.75 0 0.5] CT
0.149 GC
2 setlinecap
10.0 ML
N
516 373 M
516 368.58 L
S
GR
GS
[0.75 0 0 0.75 55.5 284.25001] CT
0.149 GC
/Helvetica 13 F
GS
[1 0 0 1 0 0] CT
-4.135 12.067 moveto 
1 -1 scale
(7) t 
GR
GR
GS
[0.75 0 0 0.75 121.8 284.25001] CT
0.149 GC
/Helvetica 13 F
GS
[1 0 0 1 0 0] CT
-4.135 12.067 moveto 
1 -1 scale
(8) t 
GR
GR
GS
[0.75 0 0 0.75 188.1 284.25001] CT
0.149 GC
/Helvetica 13 F
GS
[1 0 0 1 0 0] CT
-4.135 12.067 moveto 
1 -1 scale
(9) t 
GR
GR
GS
[0.75 0 0 0.75 254.40001 284.25001] CT
0.149 GC
/Helvetica 13 F
GS
[1 0 0 1 0 0] CT
-8.271 12.067 moveto 
1 -1 scale
(10) t 
GR
GR
GS
[0.75 0 0 0.75 320.7 284.25001] CT
0.149 GC
/Helvetica 13 F
GS
[1 0 0 1 0 0] CT
-8.271 12.067 moveto 
1 -1 scale
(11) t 
GR
GR
GS
[0.75 0 0 0.75 387 284.25001] CT
0.149 GC
/Helvetica 13 F
GS
[1 0 0 1 0 0] CT
-8.271 12.067 moveto 
1 -1 scale
(12) t 
GR
GR
GS
[0 -0.75 0.75 0 32.99425 227.375] CT
0.149 GC
/Helvetica 15 F
GS
[1 0 0 1 0 0] CT
-66.401 -2.538 moveto 
1 -1 scale
(parallel efficiency) t 
GR
GR
GS
[0.75 0 0 0.75 0 0.5] CT
0.149 GC
2 setlinecap
10.0 ML
N
74 373 M
74 232 L
S
GR
GS
[0.75 0 0 0.75 0 0.5] CT
0.149 GC
2 setlinecap
10.0 ML
N
74 373 M
78.42 373 L
S
GR
GS
[0.75 0 0 0.75 0 0.5] CT
0.149 GC
2 setlinecap
10.0 ML
N
74 337.75 M
78.42 337.75 L
S
GR
GS
[0.75 0 0 0.75 0 0.5] CT
0.149 GC
2 setlinecap
10.0 ML
N
74 302.5 M
78.42 302.5 L
S
GR
GS
[0.75 0 0 0.75 0 0.5] CT
0.149 GC
2 setlinecap
10.0 ML
N
74 267.25 M
78.42 267.25 L
S
GR
GS
[0.75 0 0 0.75 0 0.5] CT
0.149 GC
2 setlinecap
10.0 ML
N
74 232 M
78.42 232 L
S
GR
GS
[0.75 0 0 0.75 51.5 280.25] CT
0.149 GC
/Helvetica 13 F
GS
[1 0 0 1 0 0] CT
-8.271 4.5 moveto 
1 -1 scale
(0) t 
GR
GR
GS
[0.75 0 0 0.75 51.5 253.8125] CT
0.149 GC
/Helvetica 13 F
GS
[1 0 0 1 0 0] CT
-20.674 4.5 moveto 
1 -1 scale
(0.2) t 
GR
GR
GS
[0.75 0 0 0.75 51.5 227.375] CT
0.149 GC
/Helvetica 13 F
GS
[1 0 0 1 0 0] CT
-20.674 4.5 moveto 
1 -1 scale
(0.4) t 
GR
GR
GS
[0.75 0 0 0.75 51.5 200.9375] CT
0.149 GC
/Helvetica 13 F
GS
[1 0 0 1 0 0] CT
-20.674 4.5 moveto 
1 -1 scale
(0.6) t 
GR
GR
GS
[0.75 0 0 0.75 51.5 174.5] CT
0.149 GC
/Helvetica 13 F
GS
[1 0 0 1 0 0] CT
-20.674 4.5 moveto 
1 -1 scale
(0.8) t 
GR
GR
GS
[0.75 0 0 0.75 0 0.5] CT
0 0.447 0.741 RC
2 setlinecap
10.0 ML
N
101.5 336.5 M
100.736 334.149 L
98.736 332.696 L
96.264 332.696 L
94.264 334.149 L
93.5 336.5 L
94.264 338.851 L
96.264 340.304 L
98.736 340.304 L
100.736 338.851 L
101.5 336.5 L
S
GR
GS
[0.75 0 0 0.75 0 0.5] CT
0 0.447 0.741 RC
2 setlinecap
10.0 ML
N
300.5 310.5 M
299.736 308.149 L
297.736 306.696 L
295.264 306.696 L
293.264 308.149 L
292.5 310.5 L
293.264 312.851 L
295.264 314.304 L
297.736 314.304 L
299.736 312.851 L
300.5 310.5 L
S
GR
GS
[0.75 0 0 0.75 0 0.5] CT
0 0.447 0.741 RC
2 setlinecap
10.0 ML
N
503.5 276.5 M
502.736 274.149 L
500.736 272.696 L
498.264 272.696 L
496.264 274.149 L
495.5 276.5 L
496.264 278.851 L
498.264 280.304 L
500.736 280.304 L
502.736 278.851 L
503.5 276.5 L
S
GR
GS
[0.75 0 0 0.75 0 0.5] CT
0 0.447 0.741 RC
2 setlinecap
10.0 ML
N
108.5 329.5 M
107.736 327.149 L
105.736 325.696 L
103.264 325.696 L
101.264 327.149 L
100.5 329.5 L
101.264 331.851 L
103.264 333.304 L
105.736 333.304 L
107.736 331.851 L
108.5 329.5 L
S
GR
GS
[0.75 0 0 0.75 0 0.5] CT
0 0.447 0.741 RC
2 setlinecap
10.0 ML
N
299.5 297.5 M
298.736 295.149 L
296.736 293.696 L
294.264 293.696 L
292.264 295.149 L
291.5 297.5 L
292.264 299.851 L
294.264 301.304 L
296.736 301.304 L
298.736 299.851 L
299.5 297.5 L
S
GR
GS
[0.75 0 0 0.75 0 0.5] CT
0 0.447 0.741 RC
2 setlinecap
10.0 ML
N
497.5 269.5 M
496.736 267.149 L
494.736 265.696 L
492.264 265.696 L
490.264 267.149 L
489.5 269.5 L
490.264 271.851 L
492.264 273.304 L
494.736 273.304 L
496.736 271.851 L
497.5 269.5 L
S
GR
GS
[0.75 0 0 0.75 0 0.5] CT
0 0.447 0.741 RC
2 setlinecap
10.0 ML
N
101.5 331.5 M
100.736 329.149 L
98.736 327.696 L
96.264 327.696 L
94.264 329.149 L
93.5 331.5 L
94.264 333.851 L
96.264 335.304 L
98.736 335.304 L
100.736 333.851 L
101.5 331.5 L
S
GR
GS
[0.75 0 0 0.75 0 0.5] CT
0 0.447 0.741 RC
2 setlinecap
10.0 ML
N
303.5 289.5 M
302.736 287.149 L
300.736 285.696 L
298.264 285.696 L
296.264 287.149 L
295.5 289.5 L
296.264 291.851 L
298.264 293.304 L
300.736 293.304 L
302.736 291.851 L
303.5 289.5 L
S
GR
GS
[0.75 0 0 0.75 0 0.5] CT
0 0.447 0.741 RC
2 setlinecap
10.0 ML
N
506.5 273.5 M
505.736 271.149 L
503.736 269.696 L
501.264 269.696 L
499.264 271.149 L
498.5 273.5 L
499.264 275.851 L
501.264 277.304 L
503.736 277.304 L
505.736 275.851 L
506.5 273.5 L
S
GR
GS
[0.75 0 0 0.75 0 0.5] CT
0 0.447 0.741 RC
2 setlinecap
10.0 ML
N
194.5 323.5 M
193.736 321.149 L
191.736 319.696 L
189.264 319.696 L
187.264 321.149 L
186.5 323.5 L
187.264 325.851 L
189.264 327.304 L
191.736 327.304 L
193.736 325.851 L
194.5 323.5 L
S
GR
GS
[0.75 0 0 0.75 0 0.5] CT
0 0.447 0.741 RC
2 setlinecap
10.0 ML
N
395.5 282.5 M
394.736 280.149 L
392.736 278.696 L
390.264 278.696 L
388.264 280.149 L
387.5 282.5 L
388.264 284.851 L
390.264 286.304 L
392.736 286.304 L
394.736 284.851 L
395.5 282.5 L
S
GR
GS
[0.75 0 0 0.75 0 0.5] CT
0 0.447 0.741 RC
2 setlinecap
10.0 ML
N
518.5 258.5 M
517.736 256.149 L
515.736 254.696 L
513.264 254.696 L
511.264 256.149 L
510.5 258.5 L
511.264 260.851 L
513.264 262.304 L
515.736 262.304 L
517.736 260.851 L
518.5 258.5 L
S
GR
GS
[0.75 0 0 0.75 0 0.5] CT
0 0.447 0.741 RC
2 setlinecap
10.0 ML
N
108.5 342.5 M
107.736 340.149 L
105.736 338.696 L
103.264 338.696 L
101.264 340.149 L
100.5 342.5 L
101.264 344.851 L
103.264 346.304 L
105.736 346.304 L
107.736 344.851 L
108.5 342.5 L
S
GR
GS
[0.75 0 0 0.75 0 0.5] CT
0.851 0.325 0.098 RC
2 setlinecap
10.0 ML
N
74 338.954 M
162.4 324.317 L
250.8 309.679 L
339.2 295.042 L
427.6 280.405 L
516 265.767 L
S
GR
%%Trailer
%%Pages: 1
%%EOF
