%!PS-Adobe-3.0 EPSF-3.0
%%Creator: (MATLAB, The Mathworks, Inc. Version 8.4.0.150421 \(R2014b\). Operating System: Linux)
%%Title: /home/pavol/GIT/paemreport/paemreport/figures/fitting_lpd_size64.eps
%%CreationDate: 2015-03-15T04:41:43
%%Pages: (atend)
%%BoundingBox: 0 0 428 267
%%LanguageLevel: 2
%%EndComments
%%BeginProlog
%%BeginResource: procset (Apache XML Graphics Std ProcSet) 1.2 0
%%Version: 1.2 0
%%Copyright: (Copyright 2001-2003,2010 The Apache Software Foundation. License terms: http://www.apache.org/licenses/LICENSE-2.0)
/bd{bind def}bind def
/ld{load def}bd
/GR/grestore ld
/M/moveto ld
/LJ/setlinejoin ld
/C/curveto ld
/f/fill ld
/LW/setlinewidth ld
/GC/setgray ld
/t/show ld
/N/newpath ld
/CT/concat ld
/cp/closepath ld
/S/stroke ld
/L/lineto ld
/CC/setcmykcolor ld
/A/ashow ld
/GS/gsave ld
/RC/setrgbcolor ld
/RM/rmoveto ld
/ML/setmiterlimit ld
/re {4 2 roll M
1 index 0 rlineto
0 exch rlineto
neg 0 rlineto
cp } bd
/_ctm matrix def
/_tm matrix def
/BT { _ctm currentmatrix pop matrix _tm copy pop 0 0 moveto } bd
/ET { _ctm setmatrix } bd
/iTm { _ctm setmatrix _tm concat } bd
/Tm { _tm astore pop iTm 0 0 moveto } bd
/ux 0.0 def
/uy 0.0 def
/F {
  /Tp exch def
  /Tf exch def
  Tf findfont Tp scalefont setfont
  /cf Tf def  /cs Tp def
} bd
/ULS {currentpoint /uy exch def /ux exch def} bd
/ULE {
  /Tcx currentpoint pop def
  gsave
  newpath
  cf findfont cs scalefont dup
  /FontMatrix get 0 get /Ts exch def /FontInfo get dup
  /UnderlinePosition get Ts mul /To exch def
  /UnderlineThickness get Ts mul /Tt exch def
  ux uy To add moveto  Tcx uy To add lineto
  Tt setlinewidth stroke
  grestore
} bd
/OLE {
  /Tcx currentpoint pop def
  gsave
  newpath
  cf findfont cs scalefont dup
  /FontMatrix get 0 get /Ts exch def /FontInfo get dup
  /UnderlinePosition get Ts mul /To exch def
  /UnderlineThickness get Ts mul /Tt exch def
  ux uy To add cs add moveto Tcx uy To add cs add lineto
  Tt setlinewidth stroke
  grestore
} bd
/SOE {
  /Tcx currentpoint pop def
  gsave
  newpath
  cf findfont cs scalefont dup
  /FontMatrix get 0 get /Ts exch def /FontInfo get dup
  /UnderlinePosition get Ts mul /To exch def
  /UnderlineThickness get Ts mul /Tt exch def
  ux uy To add cs 10 mul 26 idiv add moveto Tcx uy To add cs 10 mul 26 idiv add lineto
  Tt setlinewidth stroke
  grestore
} bd
/QT {
/Y22 exch store
/X22 exch store
/Y21 exch store
/X21 exch store
currentpoint
/Y21 load 2 mul add 3 div exch
/X21 load 2 mul add 3 div exch
/X21 load 2 mul /X22 load add 3 div
/Y21 load 2 mul /Y22 load add 3 div
/X22 load /Y22 load curveto
} bd
/SSPD {
dup length /d exch dict def
{
/v exch def
/k exch def
currentpagedevice k known {
/cpdv currentpagedevice k get def
v cpdv ne {
/upd false def
/nullv v type /nulltype eq def
/nullcpdv cpdv type /nulltype eq def
nullv nullcpdv or
{
/upd true def
} {
/sametype v type cpdv type eq def
sametype {
v type /arraytype eq {
/vlen v length def
/cpdvlen cpdv length def
vlen cpdvlen eq {
0 1 vlen 1 sub {
/i exch def
/obj v i get def
/cpdobj cpdv i get def
obj cpdobj ne {
/upd true def
exit
} if
} for
} {
/upd true def
} ifelse
} {
v type /dicttype eq {
v {
/dv exch def
/dk exch def
/cpddv cpdv dk get def
dv cpddv ne {
/upd true def
exit
} if
} forall
} {
/upd true def
} ifelse
} ifelse
} if
} ifelse
upd true eq {
d k v put
} if
} if
} if
} forall
d length 0 gt {
d setpagedevice
} if
} bd
%%EndResource
%%BeginResource: procset (Apache XML Graphics EPS ProcSet) 1.0 0
%%Version: 1.0 0
%%Copyright: (Copyright 2002-2003 The Apache Software Foundation. License terms: http://www.apache.org/licenses/LICENSE-2.0)
/BeginEPSF { %def
/b4_Inc_state save def         % Save state for cleanup
/dict_count countdictstack def % Count objects on dict stack
/op_count count 1 sub def      % Count objects on operand stack
userdict begin                 % Push userdict on dict stack
/showpage { } def              % Redefine showpage, { } = null proc
0 setgray 0 setlinecap         % Prepare graphics state
1 setlinewidth 0 setlinejoin
10 setmiterlimit [ ] 0 setdash newpath
/languagelevel where           % If level not equal to 1 then
{pop languagelevel             % set strokeadjust and
1 ne                           % overprint to their defaults.
{false setstrokeadjust false setoverprint
} if
} if
} bd
/EndEPSF { %def
count op_count sub {pop} repeat            % Clean up stacks
countdictstack dict_count sub {end} repeat
b4_Inc_state restore
} bd
%%EndResource
%FOPBeginFontDict
%%IncludeResource: font Courier-Bold
%%IncludeResource: font Helvetica
%%IncludeResource: font Courier-BoldOblique
%%IncludeResource: font Courier-Oblique
%%IncludeResource: font Times-Roman
%%IncludeResource: font Helvetica-BoldOblique
%%IncludeResource: font Helvetica-Bold
%%IncludeResource: font Helvetica-Oblique
%%IncludeResource: font Times-BoldItalic
%%IncludeResource: font Courier
%%IncludeResource: font Times-Italic
%%IncludeResource: font Times-Bold
%%IncludeResource: font Symbol
%%IncludeResource: font ZapfDingbats
%FOPEndFontDict
%%BeginResource: encoding WinAnsiEncoding
/WinAnsiEncoding [
/.notdef /.notdef /.notdef /.notdef /.notdef
/.notdef /.notdef /.notdef /.notdef /.notdef
/.notdef /.notdef /.notdef /.notdef /.notdef
/.notdef /.notdef /.notdef /.notdef /.notdef
/.notdef /.notdef /.notdef /.notdef /.notdef
/.notdef /.notdef /.notdef /.notdef /.notdef
/.notdef /.notdef /space /exclam /quotedbl
/numbersign /dollar /percent /ampersand /quotesingle
/parenleft /parenright /asterisk /plus /comma
/hyphen /period /slash /zero /one
/two /three /four /five /six
/seven /eight /nine /colon /semicolon
/less /equal /greater /question /at
/A /B /C /D /E
/F /G /H /I /J
/K /L /M /N /O
/P /Q /R /S /T
/U /V /W /X /Y
/Z /bracketleft /backslash /bracketright /asciicircum
/underscore /quoteleft /a /b /c
/d /e /f /g /h
/i /j /k /l /m
/n /o /p /q /r
/s /t /u /v /w
/x /y /z /braceleft /bar
/braceright /asciitilde /bullet /Euro /bullet
/quotesinglbase /florin /quotedblbase /ellipsis /dagger
/daggerdbl /circumflex /perthousand /Scaron /guilsinglleft
/OE /bullet /Zcaron /bullet /bullet
/quoteleft /quoteright /quotedblleft /quotedblright /bullet
/endash /emdash /asciitilde /trademark /scaron
/guilsinglright /oe /bullet /zcaron /Ydieresis
/space /exclamdown /cent /sterling /currency
/yen /brokenbar /section /dieresis /copyright
/ordfeminine /guillemotleft /logicalnot /sfthyphen /registered
/macron /degree /plusminus /twosuperior /threesuperior
/acute /mu /paragraph /middot /cedilla
/onesuperior /ordmasculine /guillemotright /onequarter /onehalf
/threequarters /questiondown /Agrave /Aacute /Acircumflex
/Atilde /Adieresis /Aring /AE /Ccedilla
/Egrave /Eacute /Ecircumflex /Edieresis /Igrave
/Iacute /Icircumflex /Idieresis /Eth /Ntilde
/Ograve /Oacute /Ocircumflex /Otilde /Odieresis
/multiply /Oslash /Ugrave /Uacute /Ucircumflex
/Udieresis /Yacute /Thorn /germandbls /agrave
/aacute /acircumflex /atilde /adieresis /aring
/ae /ccedilla /egrave /eacute /ecircumflex
/edieresis /igrave /iacute /icircumflex /idieresis
/eth /ntilde /ograve /oacute /ocircumflex
/otilde /odieresis /divide /oslash /ugrave
/uacute /ucircumflex /udieresis /yacute /thorn
/ydieresis
] def
%%EndResource
%FOPBeginFontReencode
/Courier-Bold findfont
dup length dict begin
  {1 index /FID ne {def} {pop pop} ifelse} forall
  /Encoding WinAnsiEncoding def
  currentdict
end
/Courier-Bold exch definefont pop
/Helvetica findfont
dup length dict begin
  {1 index /FID ne {def} {pop pop} ifelse} forall
  /Encoding WinAnsiEncoding def
  currentdict
end
/Helvetica exch definefont pop
/Courier-BoldOblique findfont
dup length dict begin
  {1 index /FID ne {def} {pop pop} ifelse} forall
  /Encoding WinAnsiEncoding def
  currentdict
end
/Courier-BoldOblique exch definefont pop
/Courier-Oblique findfont
dup length dict begin
  {1 index /FID ne {def} {pop pop} ifelse} forall
  /Encoding WinAnsiEncoding def
  currentdict
end
/Courier-Oblique exch definefont pop
/Times-Roman findfont
dup length dict begin
  {1 index /FID ne {def} {pop pop} ifelse} forall
  /Encoding WinAnsiEncoding def
  currentdict
end
/Times-Roman exch definefont pop
/Helvetica-BoldOblique findfont
dup length dict begin
  {1 index /FID ne {def} {pop pop} ifelse} forall
  /Encoding WinAnsiEncoding def
  currentdict
end
/Helvetica-BoldOblique exch definefont pop
/Helvetica-Bold findfont
dup length dict begin
  {1 index /FID ne {def} {pop pop} ifelse} forall
  /Encoding WinAnsiEncoding def
  currentdict
end
/Helvetica-Bold exch definefont pop
/Helvetica-Oblique findfont
dup length dict begin
  {1 index /FID ne {def} {pop pop} ifelse} forall
  /Encoding WinAnsiEncoding def
  currentdict
end
/Helvetica-Oblique exch definefont pop
/Times-BoldItalic findfont
dup length dict begin
  {1 index /FID ne {def} {pop pop} ifelse} forall
  /Encoding WinAnsiEncoding def
  currentdict
end
/Times-BoldItalic exch definefont pop
/Courier findfont
dup length dict begin
  {1 index /FID ne {def} {pop pop} ifelse} forall
  /Encoding WinAnsiEncoding def
  currentdict
end
/Courier exch definefont pop
/Times-Italic findfont
dup length dict begin
  {1 index /FID ne {def} {pop pop} ifelse} forall
  /Encoding WinAnsiEncoding def
  currentdict
end
/Times-Italic exch definefont pop
/Times-Bold findfont
dup length dict begin
  {1 index /FID ne {def} {pop pop} ifelse} forall
  /Encoding WinAnsiEncoding def
  currentdict
end
/Times-Bold exch definefont pop
%FOPEndFontReencode
%%EndProlog
%%Page: 1 1
%%PageBoundingBox: 0 0 428 267
%%BeginPageSetup
[1 0 0 -1 0 267] CT
%%EndPageSetup
GS
[0.75 0 0 0.75 0 0] CT
1 GC
N
0 0 570 356 re
f
GR
GS
[0.75 0 0 0.75 0 0] CT
1 GC
N
0 0 570 356 re
f
GR
GS
[0.75 0 0 0.75 0 0] CT
1 GC
N
74 140 M
516 140 L
516 27 L
74 27 L
cp
f
GR
GS
[0.75 0 0 0.75 221.25 121.34961] CT
0.149 GC
/Helvetica 15 F
GS
[1 0 0 1 0 0] CT
-83.284 13.923 moveto 
1 -1 scale
(Inter-LP diffusion ratio) t 
GR
GR
GS
[0.75 0 0 0.75 0 0] CT
0.149 GC
2 setlinecap
10.0 ML
N
74 140 M
516 140 L
S
GR
GS
[0.75 0 0 0.75 0 0] CT
0.149 GC
2 setlinecap
10.0 ML
N
74 140 M
74 135.58 L
S
GR
GS
[0.75 0 0 0.75 0 0] CT
0.149 GC
2 setlinecap
10.0 ML
N
147.667 140 M
147.667 135.58 L
S
GR
GS
[0.75 0 0 0.75 0 0] CT
0.149 GC
2 setlinecap
10.0 ML
N
221.333 140 M
221.333 135.58 L
S
GR
GS
[0.75 0 0 0.75 0 0] CT
0.149 GC
2 setlinecap
10.0 ML
N
295 140 M
295 135.58 L
S
GR
GS
[0.75 0 0 0.75 0 0] CT
0.149 GC
2 setlinecap
10.0 ML
N
368.667 140 M
368.667 135.58 L
S
GR
GS
[0.75 0 0 0.75 0 0] CT
0.149 GC
2 setlinecap
10.0 ML
N
442.333 140 M
442.333 135.58 L
S
GR
GS
[0.75 0 0 0.75 0 0] CT
0.149 GC
2 setlinecap
10.0 ML
N
516 140 M
516 135.58 L
S
GR
GS
[0.75 0 0 0.75 55.5 109] CT
0.149 GC
/Helvetica 13 F
GS
[1 0 0 1 0 0] CT
-4.135 12.067 moveto 
1 -1 scale
(0) t 
GR
GR
GS
[0.75 0 0 0.75 110.75 109] CT
0.149 GC
/Helvetica 13 F
GS
[1 0 0 1 0 0] CT
-8.271 12.067 moveto 
1 -1 scale
(10) t 
GR
GR
GS
[0.75 0 0 0.75 166 109] CT
0.149 GC
/Helvetica 13 F
GS
[1 0 0 1 0 0] CT
-8.271 12.067 moveto 
1 -1 scale
(20) t 
GR
GR
GS
[0.75 0 0 0.75 221.25 109] CT
0.149 GC
/Helvetica 13 F
GS
[1 0 0 1 0 0] CT
-8.271 12.067 moveto 
1 -1 scale
(30) t 
GR
GR
GS
[0.75 0 0 0.75 276.49999 109] CT
0.149 GC
/Helvetica 13 F
GS
[1 0 0 1 0 0] CT
-8.271 12.067 moveto 
1 -1 scale
(40) t 
GR
GR
GS
[0.75 0 0 0.75 331.75001 109] CT
0.149 GC
/Helvetica 13 F
GS
[1 0 0 1 0 0] CT
-8.271 12.067 moveto 
1 -1 scale
(50) t 
GR
GR
GS
[0.75 0 0 0.75 387 109] CT
0.149 GC
/Helvetica 13 F
GS
[1 0 0 1 0 0] CT
-8.271 12.067 moveto 
1 -1 scale
(60) t 
GR
GR
GS
[0 -0.75 0.75 0 32.99426 62.625] CT
0.149 GC
/Helvetica 15 F
GS
[1 0 0 1 0 0] CT
-66.401 -2.538 moveto 
1 -1 scale
(parallel efficiency) t 
GR
GR
GS
[0.75 0 0 0.75 0 0] CT
0.149 GC
2 setlinecap
10.0 ML
N
74 140 M
74 27 L
S
GR
GS
[0.75 0 0 0.75 0 0] CT
0.149 GC
2 setlinecap
10.0 ML
N
74 140 M
78.42 140 L
S
GR
GS
[0.75 0 0 0.75 0 0] CT
0.149 GC
2 setlinecap
10.0 ML
N
74 83.5 M
78.42 83.5 L
S
GR
GS
[0.75 0 0 0.75 0 0] CT
0.149 GC
2 setlinecap
10.0 ML
N
74 27 M
78.42 27 L
S
GR
GS
[0.75 0 0 0.75 51.5 105] CT
0.149 GC
/Helvetica 13 F
GS
[1 0 0 1 0 0] CT
-8.271 4.5 moveto 
1 -1 scale
(0) t 
GR
GR
GS
[0.75 0 0 0.75 51.5 62.625] CT
0.149 GC
/Helvetica 13 F
GS
[1 0 0 1 0 0] CT
-20.674 4.5 moveto 
1 -1 scale
(0.5) t 
GR
GR
GS
[0.75 0 0 0.75 51.5 20.25] CT
0.149 GC
/Helvetica 13 F
GS
[1 0 0 1 0 0] CT
-8.271 4.5 moveto 
1 -1 scale
(1) t 
GR
GR
GS
[0.75 0 0 0.75 0 0] CT
0 0.447 0.741 RC
2 setlinecap
10.0 ML
N
388.5 123.5 M
387.736 121.149 L
385.736 119.696 L
383.264 119.696 L
381.264 121.149 L
380.5 123.5 L
381.264 125.851 L
383.264 127.304 L
385.736 127.304 L
387.736 125.851 L
388.5 123.5 L
S
GR
GS
[0.75 0 0 0.75 0 0] CT
0 0.447 0.741 RC
2 setlinecap
10.0 ML
N
234.5 106.5 M
233.736 104.149 L
231.736 102.696 L
229.264 102.696 L
227.264 104.149 L
226.5 106.5 L
227.264 108.851 L
229.264 110.304 L
231.736 110.304 L
233.736 108.851 L
234.5 106.5 L
S
GR
GS
[0.75 0 0 0.75 0 0] CT
0 0.447 0.741 RC
2 setlinecap
10.0 ML
N
153.5 63.5 M
152.736 61.149 L
150.736 59.696 L
148.264 59.696 L
146.264 61.149 L
145.5 63.5 L
146.264 65.851 L
148.264 67.304 L
150.736 67.304 L
152.736 65.851 L
153.5 63.5 L
S
GR
GS
[0.75 0 0 0.75 0 0] CT
0 0.447 0.741 RC
2 setlinecap
10.0 ML
N
322.5 125.5 M
321.736 123.149 L
319.736 121.696 L
317.264 121.696 L
315.264 123.149 L
314.5 125.5 L
315.264 127.851 L
317.264 129.304 L
319.736 129.304 L
321.736 127.851 L
322.5 125.5 L
S
GR
GS
[0.75 0 0 0.75 0 0] CT
0 0.447 0.741 RC
2 setlinecap
10.0 ML
N
160.5 99.5 M
159.736 97.149 L
157.736 95.696 L
155.264 95.696 L
153.264 97.149 L
152.5 99.5 L
153.264 101.851 L
155.264 103.304 L
157.736 103.304 L
159.736 101.851 L
160.5 99.5 L
S
GR
GS
[0.75 0 0 0.75 0 0] CT
0 0.447 0.741 RC
2 setlinecap
10.0 ML
N
108.5 50.5 M
107.736 48.149 L
105.736 46.696 L
103.264 46.696 L
101.264 48.149 L
100.5 50.5 L
101.264 52.851 L
103.264 54.304 L
105.736 54.304 L
107.736 52.851 L
108.5 50.5 L
S
GR
GS
[0.75 0 0 0.75 0 0] CT
0 0.447 0.741 RC
2 setlinecap
10.0 ML
N
477.5 128.5 M
476.736 126.149 L
474.736 124.696 L
472.264 124.696 L
470.264 126.149 L
469.5 128.5 L
470.264 130.851 L
472.264 132.304 L
474.736 132.304 L
476.736 130.851 L
477.5 128.5 L
S
GR
GS
[0.75 0 0 0.75 0 0] CT
0 0.447 0.741 RC
2 setlinecap
10.0 ML
N
116.5 92.5 M
115.736 90.149 L
113.736 88.696 L
111.264 88.696 L
109.264 90.149 L
108.5 92.5 L
109.264 94.851 L
111.264 96.304 L
113.736 96.304 L
115.736 94.851 L
116.5 92.5 L
S
GR
GS
[0.75 0 0 0.75 0 0] CT
0 0.447 0.741 RC
2 setlinecap
10.0 ML
N
79.5 50.5 M
78.736 48.149 L
76.736 46.696 L
74.264 46.696 L
72.264 48.149 L
71.5 50.5 L
72.264 52.851 L
74.264 54.304 L
76.736 54.304 L
78.736 52.851 L
79.5 50.5 L
S
GR
GS
[0.75 0 0 0.75 0 0] CT
0 0.447 0.741 RC
2 setlinecap
10.0 ML
N
182.5 110.5 M
181.736 108.149 L
179.736 106.696 L
177.264 106.696 L
175.264 108.149 L
174.5 110.5 L
175.264 112.851 L
177.264 114.304 L
179.736 114.304 L
181.736 112.851 L
182.5 110.5 L
S
GR
GS
[0.75 0 0 0.75 0 0] CT
0 0.447 0.741 RC
2 setlinecap
10.0 ML
N
116.5 80.5 M
115.736 78.149 L
113.736 76.696 L
111.264 76.696 L
109.264 78.149 L
108.5 80.5 L
109.264 82.851 L
111.264 84.304 L
113.736 84.304 L
115.736 82.851 L
116.5 80.5 L
S
GR
GS
[0.75 0 0 0.75 0 0] CT
0 0.447 0.741 RC
2 setlinecap
10.0 ML
N
94.5 52.5 M
93.736 50.149 L
91.736 48.696 L
89.264 48.696 L
87.264 50.149 L
86.5 52.5 L
87.264 54.851 L
89.264 56.304 L
91.736 56.304 L
93.736 54.851 L
94.5 52.5 L
S
GR
GS
[0.75 0 0 0.75 0 0] CT
0 0.447 0.741 RC
2 setlinecap
10.0 ML
N
359.5 130.5 M
358.736 128.149 L
356.736 126.696 L
354.264 126.696 L
352.264 128.149 L
351.5 130.5 L
352.264 132.851 L
354.264 134.304 L
356.736 134.304 L
358.736 132.851 L
359.5 130.5 L
S
GR
GS
[0.75 0 0 0.75 0 0] CT
0.851 0.325 0.098 RC
2 setlinecap
10.0 ML
N
74 49.016 M
81.367 53.731 L
88.733 58.201 L
96.1 62.439 L
103.467 66.458 L
110.833 70.269 L
118.2 73.882 L
125.567 77.308 L
132.933 80.556 L
140.3 83.636 L
147.667 86.557 L
155.033 89.326 L
162.4 91.952 L
169.767 94.441 L
177.133 96.802 L
184.5 99.04 L
191.867 101.163 L
199.233 103.175 L
206.6 105.083 L
213.967 106.892 L
221.333 108.608 L
228.7 110.234 L
236.067 111.777 L
243.433 113.239 L
250.8 114.626 L
258.167 115.941 L
265.533 117.187 L
272.9 118.369 L
280.267 119.49 L
287.633 120.553 L
295 121.56 L
302.367 122.516 L
309.733 123.422 L
317.1 124.281 L
324.467 125.095 L
331.833 125.868 L
339.2 126.6 L
346.567 127.294 L
353.933 127.953 L
361.3 128.577 L
368.667 129.169 L
376.033 129.73 L
383.4 130.262 L
390.767 130.767 L
398.133 131.245 L
405.5 131.699 L
412.867 132.129 L
420.233 132.537 L
427.6 132.923 L
434.967 133.29 L
442.333 133.638 L
449.7 133.967 L
457.067 134.28 L
464.433 134.576 L
471.8 134.857 L
479.167 135.124 L
486.533 135.377 L
493.9 135.616 L
501.267 135.843 L
508.633 136.059 L
516 136.263 L
S
GR
GS
[0.75 0 0 0.75 221.25 17.5] CT
/Helvetica-Bold 15 F
GS
[1 0 0 1 0 0] CT
-45.652 -2.538 moveto 
1 -1 scale
(64 threads) t 
GR
GR
GS
[0.75 0 0 0.75 0 0] CT
1 GC
N
74 309 M
516 309 L
516 195 L
74 195 L
cp
f
GR
GS
[0.75 0 0 0.75 221.25 248.0996] CT
0.149 GC
/Helvetica 15 F
GS
[1 0 0 1 0 0] CT
-82.035 13.923 moveto 
1 -1 scale
(log\(subvolume count\)) t 
GR
GR
GS
[0.75 0 0 0.75 0 0] CT
0.149 GC
2 setlinecap
10.0 ML
N
74 309 M
516 309 L
S
GR
GS
[0.75 0 0 0.75 0 0] CT
0.149 GC
2 setlinecap
10.0 ML
N
74 309 M
74 304.58 L
S
GR
GS
[0.75 0 0 0.75 0 0] CT
0.149 GC
2 setlinecap
10.0 ML
N
162.4 309 M
162.4 304.58 L
S
GR
GS
[0.75 0 0 0.75 0 0] CT
0.149 GC
2 setlinecap
10.0 ML
N
250.8 309 M
250.8 304.58 L
S
GR
GS
[0.75 0 0 0.75 0 0] CT
0.149 GC
2 setlinecap
10.0 ML
N
339.2 309 M
339.2 304.58 L
S
GR
GS
[0.75 0 0 0.75 0 0] CT
0.149 GC
2 setlinecap
10.0 ML
N
427.6 309 M
427.6 304.58 L
S
GR
GS
[0.75 0 0 0.75 0 0] CT
0.149 GC
2 setlinecap
10.0 ML
N
516 309 M
516 304.58 L
S
GR
GS
[0.75 0 0 0.75 55.5 235.75001] CT
0.149 GC
/Helvetica 13 F
GS
[1 0 0 1 0 0] CT
-4.135 12.067 moveto 
1 -1 scale
(7) t 
GR
GR
GS
[0.75 0 0 0.75 121.8 235.75001] CT
0.149 GC
/Helvetica 13 F
GS
[1 0 0 1 0 0] CT
-4.135 12.067 moveto 
1 -1 scale
(8) t 
GR
GR
GS
[0.75 0 0 0.75 188.1 235.75001] CT
0.149 GC
/Helvetica 13 F
GS
[1 0 0 1 0 0] CT
-4.135 12.067 moveto 
1 -1 scale
(9) t 
GR
GR
GS
[0.75 0 0 0.75 254.40001 235.75001] CT
0.149 GC
/Helvetica 13 F
GS
[1 0 0 1 0 0] CT
-8.271 12.067 moveto 
1 -1 scale
(10) t 
GR
GR
GS
[0.75 0 0 0.75 320.7 235.75001] CT
0.149 GC
/Helvetica 13 F
GS
[1 0 0 1 0 0] CT
-8.271 12.067 moveto 
1 -1 scale
(11) t 
GR
GR
GS
[0.75 0 0 0.75 387 235.75001] CT
0.149 GC
/Helvetica 13 F
GS
[1 0 0 1 0 0] CT
-8.271 12.067 moveto 
1 -1 scale
(12) t 
GR
GR
GS
[0 -0.75 0.75 0 32.99425 189] CT
0.149 GC
/Helvetica 15 F
GS
[1 0 0 1 0 0] CT
-66.401 -2.538 moveto 
1 -1 scale
(parallel efficiency) t 
GR
GR
GS
[0.75 0 0 0.75 0 0] CT
0.149 GC
2 setlinecap
10.0 ML
N
74 309 M
74 195 L
S
GR
GS
[0.75 0 0 0.75 0 0] CT
0.149 GC
2 setlinecap
10.0 ML
N
74 309 M
78.42 309 L
S
GR
GS
[0.75 0 0 0.75 0 0] CT
0.149 GC
2 setlinecap
10.0 ML
N
74 280.5 M
78.42 280.5 L
S
GR
GS
[0.75 0 0 0.75 0 0] CT
0.149 GC
2 setlinecap
10.0 ML
N
74 252 M
78.42 252 L
S
GR
GS
[0.75 0 0 0.75 0 0] CT
0.149 GC
2 setlinecap
10.0 ML
N
74 223.5 M
78.42 223.5 L
S
GR
GS
[0.75 0 0 0.75 0 0] CT
0.149 GC
2 setlinecap
10.0 ML
N
74 195 M
78.42 195 L
S
GR
GS
[0.75 0 0 0.75 51.5 231.75] CT
0.149 GC
/Helvetica 13 F
GS
[1 0 0 1 0 0] CT
-8.271 4.5 moveto 
1 -1 scale
(0) t 
GR
GR
GS
[0.75 0 0 0.75 51.5 210.375] CT
0.149 GC
/Helvetica 13 F
GS
[1 0 0 1 0 0] CT
-20.674 4.5 moveto 
1 -1 scale
(0.2) t 
GR
GR
GS
[0.75 0 0 0.75 51.5 189] CT
0.149 GC
/Helvetica 13 F
GS
[1 0 0 1 0 0] CT
-20.674 4.5 moveto 
1 -1 scale
(0.4) t 
GR
GR
GS
[0.75 0 0 0.75 51.5 167.625] CT
0.149 GC
/Helvetica 13 F
GS
[1 0 0 1 0 0] CT
-20.674 4.5 moveto 
1 -1 scale
(0.6) t 
GR
GR
GS
[0.75 0 0 0.75 51.5 146.25] CT
0.149 GC
/Helvetica 13 F
GS
[1 0 0 1 0 0] CT
-20.674 4.5 moveto 
1 -1 scale
(0.8) t 
GR
GR
GS
[0.75 0 0 0.75 0 0] CT
0 0.447 0.741 RC
2 setlinecap
10.0 ML
N
101.5 288.5 M
100.736 286.149 L
98.736 284.696 L
96.264 284.696 L
94.264 286.149 L
93.5 288.5 L
94.264 290.851 L
96.264 292.304 L
98.736 292.304 L
100.736 290.851 L
101.5 288.5 L
S
GR
GS
[0.75 0 0 0.75 0 0] CT
0 0.447 0.741 RC
2 setlinecap
10.0 ML
N
300.5 266.5 M
299.736 264.149 L
297.736 262.696 L
295.264 262.696 L
293.264 264.149 L
292.5 266.5 L
293.264 268.851 L
295.264 270.304 L
297.736 270.304 L
299.736 268.851 L
300.5 266.5 L
S
GR
GS
[0.75 0 0 0.75 0 0] CT
0 0.447 0.741 RC
2 setlinecap
10.0 ML
N
503.5 212.5 M
502.736 210.149 L
500.736 208.696 L
498.264 208.696 L
496.264 210.149 L
495.5 212.5 L
496.264 214.851 L
498.264 216.304 L
500.736 216.304 L
502.736 214.851 L
503.5 212.5 L
S
GR
GS
[0.75 0 0 0.75 0 0] CT
0 0.447 0.741 RC
2 setlinecap
10.0 ML
N
108.5 291.5 M
107.736 289.149 L
105.736 287.696 L
103.264 287.696 L
101.264 289.149 L
100.5 291.5 L
101.264 293.851 L
103.264 295.304 L
105.736 295.304 L
107.736 293.851 L
108.5 291.5 L
S
GR
GS
[0.75 0 0 0.75 0 0] CT
0 0.447 0.741 RC
2 setlinecap
10.0 ML
N
299.5 257.5 M
298.736 255.149 L
296.736 253.696 L
294.264 253.696 L
292.264 255.149 L
291.5 257.5 L
292.264 259.851 L
294.264 261.304 L
296.736 261.304 L
298.736 259.851 L
299.5 257.5 L
S
GR
GS
[0.75 0 0 0.75 0 0] CT
0 0.447 0.741 RC
2 setlinecap
10.0 ML
N
497.5 195.5 M
496.736 193.149 L
494.736 191.696 L
492.264 191.696 L
490.264 193.149 L
489.5 195.5 L
490.264 197.851 L
492.264 199.304 L
494.736 199.304 L
496.736 197.851 L
497.5 195.5 L
S
GR
GS
[0.75 0 0 0.75 0 0] CT
0 0.447 0.741 RC
2 setlinecap
10.0 ML
N
101.5 294.5 M
100.736 292.149 L
98.736 290.696 L
96.264 290.696 L
94.264 292.149 L
93.5 294.5 L
94.264 296.851 L
96.264 298.304 L
98.736 298.304 L
100.736 296.851 L
101.5 294.5 L
S
GR
GS
[0.75 0 0 0.75 0 0] CT
0 0.447 0.741 RC
2 setlinecap
10.0 ML
N
303.5 249.5 M
302.736 247.149 L
300.736 245.696 L
298.264 245.696 L
296.264 247.149 L
295.5 249.5 L
296.264 251.851 L
298.264 253.304 L
300.736 253.304 L
302.736 251.851 L
303.5 249.5 L
S
GR
GS
[0.75 0 0 0.75 0 0] CT
0 0.447 0.741 RC
2 setlinecap
10.0 ML
N
506.5 196.5 M
505.736 194.149 L
503.736 192.696 L
501.264 192.696 L
499.264 194.149 L
498.5 196.5 L
499.264 198.851 L
501.264 200.304 L
503.736 200.304 L
505.736 198.851 L
506.5 196.5 L
S
GR
GS
[0.75 0 0 0.75 0 0] CT
0 0.447 0.741 RC
2 setlinecap
10.0 ML
N
194.5 271.5 M
193.736 269.149 L
191.736 267.696 L
189.264 267.696 L
187.264 269.149 L
186.5 271.5 L
187.264 273.851 L
189.264 275.304 L
191.736 275.304 L
193.736 273.851 L
194.5 271.5 L
S
GR
GS
[0.75 0 0 0.75 0 0] CT
0 0.447 0.741 RC
2 setlinecap
10.0 ML
N
395.5 233.5 M
394.736 231.149 L
392.736 229.696 L
390.264 229.696 L
388.264 231.149 L
387.5 233.5 L
388.264 235.851 L
390.264 237.304 L
392.736 237.304 L
394.736 235.851 L
395.5 233.5 L
S
GR
GS
[0.75 0 0 0.75 0 0] CT
0 0.447 0.741 RC
2 setlinecap
10.0 ML
N
518.5 198.5 M
517.736 196.149 L
515.736 194.696 L
513.264 194.696 L
511.264 196.149 L
510.5 198.5 L
511.264 200.851 L
513.264 202.304 L
515.736 202.304 L
517.736 200.851 L
518.5 198.5 L
S
GR
GS
[0.75 0 0 0.75 0 0] CT
0 0.447 0.741 RC
2 setlinecap
10.0 ML
N
108.5 297.5 M
107.736 295.149 L
105.736 293.696 L
103.264 293.696 L
101.264 295.149 L
100.5 297.5 L
101.264 299.851 L
103.264 301.304 L
105.736 301.304 L
107.736 299.851 L
108.5 297.5 L
S
GR
GS
[0.75 0 0 0.75 0 0] CT
0.851 0.325 0.098 RC
2 setlinecap
10.0 ML
N
74 301.519 M
162.4 281.381 L
250.8 261.243 L
339.2 241.105 L
427.6 220.967 L
516 200.829 L
S
GR
%%Trailer
%%Pages: 1
%%EOF
