%!PS-Adobe-2.0 EPSF-2.0
%%Title: /home/pavol/Pictures/Diagram1.dia
%%Creator: Dia v0.97.2
%%CreationDate: Fri Jan 24 11:05:02 2014
%%For: pavol
%%Orientation: Portrait
%%Magnification: 1.0000
%%BoundingBox: 0 0 1598 776
%%BeginSetup
%%EndSetup
%%EndComments
%%BeginProlog
[ /.notdef /.notdef /.notdef /.notdef /.notdef /.notdef /.notdef /.notdef /.notdef /.notdef
/.notdef /.notdef /.notdef /.notdef /.notdef /.notdef /.notdef /.notdef /.notdef /.notdef
/.notdef /.notdef /.notdef /.notdef /.notdef /.notdef /.notdef /.notdef /.notdef /.notdef
/.notdef /.notdef /space /exclam /quotedbl /numbersign /dollar /percent /ampersand /quoteright
/parenleft /parenright /asterisk /plus /comma /hyphen /period /slash /zero /one
/two /three /four /five /six /seven /eight /nine /colon /semicolon
/less /equal /greater /question /at /A /B /C /D /E
/F /G /H /I /J /K /L /M /N /O
/P /Q /R /S /T /U /V /W /X /Y
/Z /bracketleft /backslash /bracketright /asciicircum /underscore /quoteleft /a /b /c
/d /e /f /g /h /i /j /k /l /m
/n /o /p /q /r /s /t /u /v /w
/x /y /z /braceleft /bar /braceright /asciitilde /.notdef /.notdef /.notdef
/.notdef /.notdef /.notdef /.notdef /.notdef /.notdef /.notdef /.notdef /.notdef /.notdef
/.notdef /.notdef /.notdef /.notdef /.notdef /.notdef /.notdef /.notdef /.notdef /.notdef
/.notdef /.notdef /.notdef /.notdef /.notdef /.notdef /.notdef /.notdef /.notdef /.notdef
/space /exclamdown /cent /sterling /currency /yen /brokenbar /section /dieresis /copyright
/ordfeminine /guillemotleft /logicalnot /hyphen /registered /macron /degree /plusminus /twosuperior /threesuperior
/acute /mu /paragraph /periodcentered /cedilla /onesuperior /ordmasculine /guillemotright /onequarter /onehalf
/threequarters /questiondown /Agrave /Aacute /Acircumflex /Atilde /Adieresis /Aring /AE /Ccedilla
/Egrave /Eacute /Ecircumflex /Edieresis /Igrave /Iacute /Icircumflex /Idieresis /Eth /Ntilde
/Ograve /Oacute /Ocircumflex /Otilde /Odieresis /multiply /Oslash /Ugrave /Uacute /Ucircumflex
/Udieresis /Yacute /Thorn /germandbls /agrave /aacute /acircumflex /atilde /adieresis /aring
/ae /ccedilla /egrave /eacute /ecircumflex /edieresis /igrave /iacute /icircumflex /idieresis
/eth /ntilde /ograve /oacute /ocircumflex /otilde /odieresis /divide /oslash /ugrave
/uacute /ucircumflex /udieresis /yacute /thorn /ydieresis] /isolatin1encoding exch def
/cp {closepath} bind def
/c {curveto} bind def
/f {fill} bind def
/a {arc} bind def
/ef {eofill} bind def
/ex {exch} bind def
/gr {grestore} bind def
/gs {gsave} bind def
/sa {save} bind def
/rs {restore} bind def
/l {lineto} bind def
/m {moveto} bind def
/rm {rmoveto} bind def
/n {newpath} bind def
/s {stroke} bind def
/sh {show} bind def
/slc {setlinecap} bind def
/slj {setlinejoin} bind def
/slw {setlinewidth} bind def
/srgb {setrgbcolor} bind def
/rot {rotate} bind def
/sc {scale} bind def
/sd {setdash} bind def
/ff {findfont} bind def
/sf {setfont} bind def
/scf {scalefont} bind def
/sw {stringwidth pop} bind def
/tr {translate} bind def

/ellipsedict 8 dict def
ellipsedict /mtrx matrix put
/ellipse
{ ellipsedict begin
   /endangle exch def
   /startangle exch def
   /yrad exch def
   /xrad exch def
   /y exch def
   /x exch def   /savematrix mtrx currentmatrix def
   x y tr xrad yrad sc
   0 0 1 startangle endangle arc
   savematrix setmatrix
   end
} def

/mergeprocs {
dup length
3 -1 roll
dup
length
dup
5 1 roll
3 -1 roll
add
array cvx
dup
3 -1 roll
0 exch
putinterval
dup
4 2 roll
putinterval
} bind def
/Times-Roman-latin1
    /Times-Roman findfont
    dup length dict begin
	{1 index /FID ne {def} {pop pop} ifelse} forall
	/Encoding isolatin1encoding def
    currentdict end
definefont pop
/Times-Italic-latin1
    /Times-Italic findfont
    dup length dict begin
	{1 index /FID ne {def} {pop pop} ifelse} forall
	/Encoding isolatin1encoding def
    currentdict end
definefont pop
/Times-Bold-latin1
    /Times-Bold findfont
    dup length dict begin
	{1 index /FID ne {def} {pop pop} ifelse} forall
	/Encoding isolatin1encoding def
    currentdict end
definefont pop
/Times-BoldItalic-latin1
    /Times-BoldItalic findfont
    dup length dict begin
	{1 index /FID ne {def} {pop pop} ifelse} forall
	/Encoding isolatin1encoding def
    currentdict end
definefont pop
/AvantGarde-Gothic-latin1
    /AvantGarde-Gothic findfont
    dup length dict begin
	{1 index /FID ne {def} {pop pop} ifelse} forall
	/Encoding isolatin1encoding def
    currentdict end
definefont pop
/AvantGarde-BookOblique-latin1
    /AvantGarde-BookOblique findfont
    dup length dict begin
	{1 index /FID ne {def} {pop pop} ifelse} forall
	/Encoding isolatin1encoding def
    currentdict end
definefont pop
/AvantGarde-Demi-latin1
    /AvantGarde-Demi findfont
    dup length dict begin
	{1 index /FID ne {def} {pop pop} ifelse} forall
	/Encoding isolatin1encoding def
    currentdict end
definefont pop
/AvantGarde-DemiOblique-latin1
    /AvantGarde-DemiOblique findfont
    dup length dict begin
	{1 index /FID ne {def} {pop pop} ifelse} forall
	/Encoding isolatin1encoding def
    currentdict end
definefont pop
/Bookman-Light-latin1
    /Bookman-Light findfont
    dup length dict begin
	{1 index /FID ne {def} {pop pop} ifelse} forall
	/Encoding isolatin1encoding def
    currentdict end
definefont pop
/Bookman-LightItalic-latin1
    /Bookman-LightItalic findfont
    dup length dict begin
	{1 index /FID ne {def} {pop pop} ifelse} forall
	/Encoding isolatin1encoding def
    currentdict end
definefont pop
/Bookman-Demi-latin1
    /Bookman-Demi findfont
    dup length dict begin
	{1 index /FID ne {def} {pop pop} ifelse} forall
	/Encoding isolatin1encoding def
    currentdict end
definefont pop
/Bookman-DemiItalic-latin1
    /Bookman-DemiItalic findfont
    dup length dict begin
	{1 index /FID ne {def} {pop pop} ifelse} forall
	/Encoding isolatin1encoding def
    currentdict end
definefont pop
/Courier-latin1
    /Courier findfont
    dup length dict begin
	{1 index /FID ne {def} {pop pop} ifelse} forall
	/Encoding isolatin1encoding def
    currentdict end
definefont pop
/Courier-Oblique-latin1
    /Courier-Oblique findfont
    dup length dict begin
	{1 index /FID ne {def} {pop pop} ifelse} forall
	/Encoding isolatin1encoding def
    currentdict end
definefont pop
/Courier-Bold-latin1
    /Courier-Bold findfont
    dup length dict begin
	{1 index /FID ne {def} {pop pop} ifelse} forall
	/Encoding isolatin1encoding def
    currentdict end
definefont pop
/Courier-BoldOblique-latin1
    /Courier-BoldOblique findfont
    dup length dict begin
	{1 index /FID ne {def} {pop pop} ifelse} forall
	/Encoding isolatin1encoding def
    currentdict end
definefont pop
/Helvetica-latin1
    /Helvetica findfont
    dup length dict begin
	{1 index /FID ne {def} {pop pop} ifelse} forall
	/Encoding isolatin1encoding def
    currentdict end
definefont pop
/Helvetica-Oblique-latin1
    /Helvetica-Oblique findfont
    dup length dict begin
	{1 index /FID ne {def} {pop pop} ifelse} forall
	/Encoding isolatin1encoding def
    currentdict end
definefont pop
/Helvetica-Bold-latin1
    /Helvetica-Bold findfont
    dup length dict begin
	{1 index /FID ne {def} {pop pop} ifelse} forall
	/Encoding isolatin1encoding def
    currentdict end
definefont pop
/Helvetica-BoldOblique-latin1
    /Helvetica-BoldOblique findfont
    dup length dict begin
	{1 index /FID ne {def} {pop pop} ifelse} forall
	/Encoding isolatin1encoding def
    currentdict end
definefont pop
/Helvetica-Narrow-latin1
    /Helvetica-Narrow findfont
    dup length dict begin
	{1 index /FID ne {def} {pop pop} ifelse} forall
	/Encoding isolatin1encoding def
    currentdict end
definefont pop
/Helvetica-Narrow-Oblique-latin1
    /Helvetica-Narrow-Oblique findfont
    dup length dict begin
	{1 index /FID ne {def} {pop pop} ifelse} forall
	/Encoding isolatin1encoding def
    currentdict end
definefont pop
/Helvetica-Narrow-Bold-latin1
    /Helvetica-Narrow-Bold findfont
    dup length dict begin
	{1 index /FID ne {def} {pop pop} ifelse} forall
	/Encoding isolatin1encoding def
    currentdict end
definefont pop
/Helvetica-Narrow-BoldOblique-latin1
    /Helvetica-Narrow-BoldOblique findfont
    dup length dict begin
	{1 index /FID ne {def} {pop pop} ifelse} forall
	/Encoding isolatin1encoding def
    currentdict end
definefont pop
/NewCenturySchlbk-Roman-latin1
    /NewCenturySchlbk-Roman findfont
    dup length dict begin
	{1 index /FID ne {def} {pop pop} ifelse} forall
	/Encoding isolatin1encoding def
    currentdict end
definefont pop
/NewCenturySchlbk-Italic-latin1
    /NewCenturySchlbk-Italic findfont
    dup length dict begin
	{1 index /FID ne {def} {pop pop} ifelse} forall
	/Encoding isolatin1encoding def
    currentdict end
definefont pop
/NewCenturySchlbk-Bold-latin1
    /NewCenturySchlbk-Bold findfont
    dup length dict begin
	{1 index /FID ne {def} {pop pop} ifelse} forall
	/Encoding isolatin1encoding def
    currentdict end
definefont pop
/NewCenturySchlbk-BoldItalic-latin1
    /NewCenturySchlbk-BoldItalic findfont
    dup length dict begin
	{1 index /FID ne {def} {pop pop} ifelse} forall
	/Encoding isolatin1encoding def
    currentdict end
definefont pop
/Palatino-Roman-latin1
    /Palatino-Roman findfont
    dup length dict begin
	{1 index /FID ne {def} {pop pop} ifelse} forall
	/Encoding isolatin1encoding def
    currentdict end
definefont pop
/Palatino-Italic-latin1
    /Palatino-Italic findfont
    dup length dict begin
	{1 index /FID ne {def} {pop pop} ifelse} forall
	/Encoding isolatin1encoding def
    currentdict end
definefont pop
/Palatino-Bold-latin1
    /Palatino-Bold findfont
    dup length dict begin
	{1 index /FID ne {def} {pop pop} ifelse} forall
	/Encoding isolatin1encoding def
    currentdict end
definefont pop
/Palatino-BoldItalic-latin1
    /Palatino-BoldItalic findfont
    dup length dict begin
	{1 index /FID ne {def} {pop pop} ifelse} forall
	/Encoding isolatin1encoding def
    currentdict end
definefont pop
/Symbol-latin1
    /Symbol findfont
definefont pop
/ZapfChancery-MediumItalic-latin1
    /ZapfChancery-MediumItalic findfont
    dup length dict begin
	{1 index /FID ne {def} {pop pop} ifelse} forall
	/Encoding isolatin1encoding def
    currentdict end
definefont pop
/ZapfDingbats-latin1
    /ZapfDingbats findfont
    dup length dict begin
	{1 index /FID ne {def} {pop pop} ifelse} forall
	/Encoding isolatin1encoding def
    currentdict end
definefont pop
28.346000 -28.346000 scale
-11.550000 -36.053364 translate
%%EndProlog


0.564706 0.933333 0.564706 srgb
n 15.000000 16.000000 m 15.000000 32.200000 l 16.700000 32.200000 l 16.700000 16.000000 l f
0.100000 slw
[] 0 sd
[] 0 sd
0 slj
0.000000 0.000000 0.000000 srgb
n 15.000000 16.000000 m 15.000000 32.200000 l 16.700000 32.200000 l 16.700000 16.000000 l cp s
/Helvetica-latin1 ff 0.560000 scf sf
0.564706 0.933333 0.564706 srgb
n 31.000000 16.000000 m 31.000000 32.200000 l 32.700000 32.200000 l 32.700000 16.000000 l f
0.100000 slw
[] 0 sd
[] 0 sd
0 slj
0.000000 0.000000 0.000000 srgb
n 31.000000 16.000000 m 31.000000 32.200000 l 32.700000 32.200000 l 32.700000 16.000000 l cp s
0.564706 0.933333 0.564706 srgb
n 46.000000 16.000000 m 46.000000 32.200000 l 47.700000 32.200000 l 47.700000 16.000000 l f
0.100000 slw
[] 0 sd
[] 0 sd
0 slj
0.000000 0.000000 0.000000 srgb
n 46.000000 16.000000 m 46.000000 32.200000 l 47.700000 32.200000 l 47.700000 16.000000 l cp s
0.564706 0.933333 0.564706 srgb
n 62.000000 16.000000 m 62.000000 32.200000 l 63.700000 32.200000 l 63.700000 16.000000 l f
0.100000 slw
[] 0 sd
[] 0 sd
0 slj
0.000000 0.000000 0.000000 srgb
n 62.000000 16.000000 m 62.000000 32.200000 l 63.700000 32.200000 l 63.700000 16.000000 l cp s
0.000000 0.000000 1.000000 srgb
n 23.728364 12.751682 1.128364 1.151682 0 360 ellipse f
0.100000 slw
[] 0 sd
[] 0 sd
0 slj
0.000000 0.000000 0.000000 srgb
n 23.728364 12.751682 1.128364 1.151682 0 360 ellipse cp s
0.000000 0.000000 1.000000 srgb
n 23.728364 18.151682 1.128364 1.151682 0 360 ellipse f
0.100000 slw
[] 0 sd
[] 0 sd
0 slj
0.000000 0.000000 0.000000 srgb
n 23.728364 18.151682 1.128364 1.151682 0 360 ellipse cp s
0.000000 0.000000 1.000000 srgb
n 23.728364 24.101682 1.128364 1.151682 0 360 ellipse f
0.100000 slw
[] 0 sd
[] 0 sd
0 slj
0.000000 0.000000 0.000000 srgb
n 23.728364 24.101682 1.128364 1.151682 0 360 ellipse cp s
0.000000 0.000000 1.000000 srgb
n 23.728364 29.351682 1.128364 1.151682 0 360 ellipse f
0.100000 slw
[] 0 sd
[] 0 sd
0 slj
0.000000 0.000000 0.000000 srgb
n 23.728364 29.351682 1.128364 1.151682 0 360 ellipse cp s
0.000000 0.000000 1.000000 srgb
n 23.728364 34.701682 1.128364 1.151682 0 360 ellipse f
0.100000 slw
[] 0 sd
[] 0 sd
0 slj
0.000000 0.000000 0.000000 srgb
n 23.728364 34.701682 1.128364 1.151682 0 360 ellipse cp s
0.000000 0.000000 1.000000 srgb
n 39.428364 12.901682 1.128364 1.151682 0 360 ellipse f
0.100000 slw
[] 0 sd
[] 0 sd
0 slj
0.000000 0.000000 0.000000 srgb
n 39.428364 12.901682 1.128364 1.151682 0 360 ellipse cp s
0.000000 0.000000 1.000000 srgb
n 39.428364 18.301682 1.128364 1.151682 0 360 ellipse f
0.100000 slw
[] 0 sd
[] 0 sd
0 slj
0.000000 0.000000 0.000000 srgb
n 39.428364 18.301682 1.128364 1.151682 0 360 ellipse cp s
0.000000 0.000000 1.000000 srgb
n 39.428364 24.101682 1.128364 1.151682 0 360 ellipse f
0.100000 slw
[] 0 sd
[] 0 sd
0 slj
0.000000 0.000000 0.000000 srgb
n 39.428364 24.101682 1.128364 1.151682 0 360 ellipse cp s
0.000000 0.000000 1.000000 srgb
n 39.428364 29.501682 1.128364 1.151682 0 360 ellipse f
0.100000 slw
[] 0 sd
[] 0 sd
0 slj
0.000000 0.000000 0.000000 srgb
n 39.428364 29.501682 1.128364 1.151682 0 360 ellipse cp s
0.000000 0.000000 1.000000 srgb
n 39.428364 34.851682 1.128364 1.151682 0 360 ellipse f
0.100000 slw
[] 0 sd
[] 0 sd
0 slj
0.000000 0.000000 0.000000 srgb
n 39.428364 34.851682 1.128364 1.151682 0 360 ellipse cp s
0.000000 0.000000 1.000000 srgb
n 54.728364 12.851682 1.128364 1.151682 0 360 ellipse f
0.100000 slw
[] 0 sd
[] 0 sd
0 slj
0.000000 0.000000 0.000000 srgb
n 54.728364 12.851682 1.128364 1.151682 0 360 ellipse cp s
0.000000 0.000000 1.000000 srgb
n 54.728364 18.251682 1.128364 1.151682 0 360 ellipse f
0.100000 slw
[] 0 sd
[] 0 sd
0 slj
0.000000 0.000000 0.000000 srgb
n 54.728364 18.251682 1.128364 1.151682 0 360 ellipse cp s
0.000000 0.000000 1.000000 srgb
n 54.728364 24.101682 1.128364 1.151682 0 360 ellipse f
0.100000 slw
[] 0 sd
[] 0 sd
0 slj
0.000000 0.000000 0.000000 srgb
n 54.728364 24.101682 1.128364 1.151682 0 360 ellipse cp s
0.000000 0.000000 1.000000 srgb
n 54.728364 29.451682 1.128364 1.151682 0 360 ellipse f
0.100000 slw
[] 0 sd
[] 0 sd
0 slj
0.000000 0.000000 0.000000 srgb
n 54.728364 29.451682 1.128364 1.151682 0 360 ellipse cp s
0.000000 0.000000 1.000000 srgb
n 54.728364 34.801682 1.128364 1.151682 0 360 ellipse f
0.100000 slw
[] 0 sd
[] 0 sd
0 slj
0.000000 0.000000 0.000000 srgb
n 54.728364 34.801682 1.128364 1.151682 0 360 ellipse cp s
0.150000 slw
[] 0 sd
[] 0 sd
0 slc
n 16.746318 22.808907 m 22.739901 14.175505 l s
[] 0 sd
0 slj
0 slc
n 22.953755 13.867460 m 22.873979 14.420756 l 22.739901 14.175505 l 22.463253 14.135617 l ef
n 22.953755 13.867460 m 22.873979 14.420756 l 22.739901 14.175505 l 22.463253 14.135617 l cp s
0.150000 slw
[] 0 sd
[] 0 sd
0 slc
n 16.746318 23.423263 m 22.348438 19.193553 l s
[] 0 sd
0 slj
0 slc
n 22.647715 18.967593 m 22.399319 19.468391 l 22.348438 19.193553 l 22.098039 19.069355 l ef
n 22.647715 18.967593 m 22.399319 19.468391 l 22.348438 19.193553 l 22.098039 19.069355 l cp s
0.150000 slw
[] 0 sd
[] 0 sd
0 slc
n 16.746318 24.697481 m 22.291034 28.393564 l s
[] 0 sd
0 slj
0 slc
n 22.603063 28.601561 m 22.048359 28.532251 l 22.291034 28.393564 l 22.325689 28.116212 l ef
n 22.603063 28.601561 m 22.048359 28.532251 l 22.291034 28.393564 l 22.325689 28.116212 l cp s
0.150000 slw
[] 0 sd
[] 0 sd
0 slc
n 16.700000 24.100000 m 22.007687 24.101270 l s
[] 0 sd
0 slj
0 slc
n 22.382687 24.101360 m 21.882627 24.351240 l 22.007687 24.101270 l 21.882747 23.851240 l ef
n 22.382687 24.101360 m 21.882627 24.351240 l 22.007687 24.101270 l 21.882747 23.851240 l cp s
0.150000 slw
[] 0 sd
[] 0 sd
0 slc
n 16.746318 25.306148 m 22.692752 33.308089 l s
[] 0 sd
0 slj
0 slc
n 22.916425 33.609080 m 22.417534 33.356875 l 22.692752 33.308089 l 22.818854 33.058644 l ef
n 22.916425 33.609080 m 22.417534 33.356875 l 22.692752 33.308089 l 22.818854 33.058644 l cp s
0.150000 slw
[] 0 sd
[] 0 sd
0 slc
n 24.422847 13.722080 m 30.635937 22.403596 l s
[] 0 sd
0 slj
0 slc
n 30.854180 22.708547 m 30.359889 22.447442 l 30.635937 22.403596 l 30.766489 22.156451 l ef
n 30.854180 22.708547 m 30.359889 22.447442 l 30.635937 22.403596 l 30.766489 22.156451 l cp s
0.150000 slw
[] 0 sd
[] 0 sd
0 slc
n 24.685075 18.852381 m 30.513948 23.121470 l s
[] 0 sd
0 slj
0 slc
n 30.816484 23.343049 m 30.265384 23.249301 l 30.513948 23.121470 l 30.560822 22.845920 l ef
n 30.816484 23.343049 m 30.265384 23.249301 l 30.513948 23.121470 l 30.560822 22.845920 l cp s
0.150000 slw
[] 0 sd
[] 0 sd
0 slc
n 24.906655 24.101438 m 30.409077 24.100298 l s
[] 0 sd
0 slj
0 slc
n 30.784077 24.100221 m 30.284129 24.350324 l 30.409077 24.100298 l 30.284025 23.850324 l ef
n 30.784077 24.100221 m 30.284129 24.350324 l 30.409077 24.100298 l 30.284025 23.850324 l cp s
0.150000 slw
[] 0 sd
[] 0 sd
0 slc
n 24.721757 28.709325 m 30.496054 24.975500 l s
[] 0 sd
0 slj
0 slc
n 30.810954 24.771877 m 30.526836 25.253309 l 30.496054 24.975500 l 30.255338 24.833441 l ef
n 30.810954 24.771877 m 30.526836 25.253309 l 30.496054 24.975500 l 30.255338 24.833441 l cp s
0.150000 slw
[] 0 sd
[] 0 sd
0 slc
n 24.452094 33.756952 m 30.621745 25.703319 l s
[] 0 sd
0 slj
0 slc
n 30.849795 25.405631 m 30.744187 25.954581 l 30.621745 25.703319 l 30.347269 25.650515 l ef
n 30.849795 25.405631 m 30.744187 25.954581 l 30.621745 25.703319 l 30.347269 25.650515 l cp s
0.150000 slw
[] 0 sd
[] 0 sd
0 slc
n 32.749653 22.770610 m 38.456280 14.338100 l s
[] 0 sd
0 slj
0 slc
n 38.666454 14.027533 m 38.593267 14.581738 l 38.456280 14.338100 l 38.179178 14.301507 l ef
n 38.666454 14.027533 m 38.593267 14.581738 l 38.456280 14.338100 l 38.179178 14.301507 l cp s
0.150000 slw
[] 0 sd
[] 0 sd
0 slc
n 32.749653 23.411662 m 38.055139 19.352356 l s
[] 0 sd
0 slj
0 slc
n 38.352965 19.124486 m 38.107778 19.626863 l 38.055139 19.352356 l 37.803951 19.229763 l ef
n 38.352965 19.124486 m 38.107778 19.626863 l 38.055139 19.352356 l 37.803951 19.229763 l cp s
0.150000 slw
[] 0 sd
[] 0 sd
0 slc
n 32.749653 24.100200 m 37.708015 24.101300 l s
[] 0 sd
0 slj
0 slc
n 38.083015 24.101383 m 37.582960 24.351272 l 37.708015 24.101300 l 37.583071 23.851272 l ef
n 38.083015 24.101383 m 37.582960 24.351272 l 37.708015 24.101300 l 37.583071 23.851272 l cp s
0.150000 slw
[] 0 sd
[] 0 sd
0 slc
n 32.749653 24.741252 m 38.020403 28.498120 l s
[] 0 sd
0 slj
0 slc
n 38.325771 28.715779 m 37.773507 28.629145 l 38.020403 28.498120 l 38.063720 28.221988 l ef
n 38.325771 28.715779 m 37.773507 28.629145 l 38.020403 28.498120 l 38.063720 28.221988 l cp s
0.150000 slw
[] 0 sd
[] 0 sd
0 slc
n 32.749653 25.376368 m 38.431131 33.436873 l s
[] 0 sd
0 slj
0 slc
n 38.647176 33.743385 m 38.154774 33.478733 l 38.431131 33.436873 l 38.563456 33.190672 l ef
n 38.647176 33.743385 m 38.154774 33.478733 l 38.431131 33.436873 l 38.563456 33.190672 l cp s
0.150000 slw
[] 0 sd
[] 0 sd
0 slc
n 40.106476 33.869305 m 45.642081 25.849906 l s
[] 0 sd
0 slj
0 slc
n 45.855110 25.541291 m 45.776814 26.094798 l 45.642081 25.849906 l 45.365327 25.810758 l ef
n 45.855110 25.541291 m 45.776814 26.094798 l 45.642081 25.849906 l 45.365327 25.810758 l cp s
0.150000 slw
[] 0 sd
[] 0 sd
0 slc
n 40.387324 28.803723 m 45.511591 25.074133 l s
[] 0 sd
0 slj
0 slc
n 45.814787 24.853458 m 45.557642 25.349821 l 45.511591 25.074133 l 45.263410 24.945560 l ef
n 45.814787 24.853458 m 45.557642 25.349821 l 45.511591 25.074133 l 45.263410 24.945560 l cp s
0.150000 slw
[] 0 sd
[] 0 sd
0 slc
n 40.606567 24.101415 m 45.407675 24.100327 l s
[] 0 sd
0 slj
0 slc
n 45.782675 24.100242 m 45.282732 24.350355 l 45.407675 24.100327 l 45.282619 23.850355 l ef
n 45.782675 24.100242 m 45.282732 24.350355 l 45.407675 24.100327 l 45.282619 23.850355 l cp s
0.150000 slw
[] 0 sd
[] 0 sd
0 slc
n 40.363769 19.032488 m 45.522720 23.063033 l s
[] 0 sd
0 slj
0 slc
n 45.818226 23.293904 m 45.270304 23.183080 l 45.522720 23.063033 l 45.578132 22.789072 l ef
n 45.818226 23.293904 m 45.270304 23.183080 l 45.522720 23.063033 l 45.578132 22.789072 l cp s
0.150000 slw
[] 0 sd
[] 0 sd
0 slc
n 40.088130 13.897187 m 45.650571 22.290212 l s
[] 0 sd
0 slj
0 slc
n 45.857734 22.602795 m 45.373127 22.324126 l 45.650571 22.290212 l 45.789905 22.047908 l ef
n 45.857734 22.602795 m 45.373127 22.324126 l 45.650571 22.290212 l 45.789905 22.047908 l cp s
0.150000 slw
[] 0 sd
[] 0 sd
0 slc
n 47.746318 22.820284 m 53.732041 14.274179 l s
[] 0 sd
0 slj
0 slc
n 53.947173 13.967026 m 53.865100 14.519985 l 53.732041 14.274179 l 53.455562 14.233143 l ef
n 53.947173 13.967026 m 53.865100 14.519985 l 53.732041 14.274179 l 53.455562 14.233143 l cp s
0.150000 slw
[] 0 sd
[] 0 sd
0 slc
n 47.746318 23.434640 m 53.340022 19.282285 l s
[] 0 sd
0 slj
0 slc
n 53.641127 19.058766 m 53.388666 19.557528 l 53.340022 19.282285 l 53.090641 19.156054 l ef
n 53.641127 19.058766 m 53.388666 19.557528 l 53.340022 19.282285 l 53.090641 19.156054 l cp s
0.150000 slw
[] 0 sd
[] 0 sd
0 slc
n 47.746318 24.100191 m 53.007559 24.101315 l s
[] 0 sd
0 slj
0 slc
n 53.382559 24.101395 m 52.882505 24.351288 l 53.007559 24.101315 l 52.882612 23.851288 l ef
n 53.382559 24.101395 m 52.882505 24.351288 l 53.007559 24.101315 l 52.882612 23.851288 l cp s
0.150000 slw
[] 0 sd
[] 0 sd
0 slc
n 47.746318 24.708858 m 53.300413 28.481691 l s
[] 0 sd
0 slj
0 slc
n 53.610613 28.692407 m 53.056536 28.618253 l 53.300413 28.481691 l 53.337490 28.204653 l ef
n 53.610613 28.692407 m 53.056536 28.618253 l 53.300413 28.481691 l 53.337490 28.204653 l cp s
0.150000 slw
[] 0 sd
[] 0 sd
0 slc
n 47.746318 25.317525 m 53.714185 33.424058 l s
[] 0 sd
0 slj
0 slc
n 53.936505 33.726050 m 53.438751 33.471608 l 53.714185 33.424058 l 53.841406 33.175181 l ef
n 53.936505 33.726050 m 53.438751 33.471608 l 53.714185 33.424058 l 53.841406 33.175181 l cp s
0.150000 slw
[] 0 sd
[] 0 sd
0 slc
n 55.446145 33.855879 m 61.623698 25.715868 l s
[] 0 sd
0 slj
0 slc
n 61.850399 25.417150 m 61.747277 25.966574 l 61.623698 25.715868 l 61.348987 25.664307 l ef
n 61.850399 25.417150 m 61.747277 25.966574 l 61.623698 25.715868 l 61.348987 25.664307 l cp s
0.150000 slw
[] 0 sd
[] 0 sd
0 slc
n 55.718287 28.799380 m 61.498615 24.990484 l s
[] 0 sd
0 slj
0 slc
n 61.811746 24.784149 m 61.531794 25.268016 l 61.498615 24.990484 l 61.256681 24.850508 l ef
n 61.811746 24.784149 m 61.531794 25.268016 l 61.498615 24.990484 l 61.256681 24.850508 l cp s
0.150000 slw
[] 0 sd
[] 0 sd
0 slc
n 55.906655 24.101438 m 61.409077 24.100298 l s
[] 0 sd
0 slj
0 slc
n 61.784077 24.100221 m 61.284129 24.350324 l 61.409077 24.100298 l 61.284025 23.850324 l ef
n 61.784077 24.100221 m 61.284129 24.350324 l 61.409077 24.100298 l 61.284025 23.850324 l cp s
0.150000 slw
[] 0 sd
[] 0 sd
0 slc
n 55.690528 18.944528 m 61.511377 23.136070 l s
[] 0 sd
0 slj
0 slc
n 61.815689 23.355202 m 61.263851 23.265900 l 61.511377 23.136070 l 61.556028 22.860151 l ef
n 61.815689 23.355202 m 61.263851 23.265900 l 61.511377 23.136070 l 61.556028 22.860151 l cp s
0.150000 slw
[] 0 sd
[] 0 sd
0 slc
n 55.426813 13.819021 m 61.634088 22.415985 l s
[] 0 sd
0 slj
0 slc
n 61.853609 22.720017 m 61.358227 22.460988 l 61.634088 22.415985 l 61.763603 22.168293 l ef
n 61.853609 22.720017 m 61.358227 22.460988 l 61.634088 22.415985 l 61.763603 22.168293 l cp s
/Helvetica-latin1 ff 1.234722 scf sf
(Day 1) 22.000000 9.559028 m
 gs 1 -1 sc sh gr
(Day 2) 37.300000 9.559028 m
 gs 1 -1 sc sh gr
(Day 3) 52.750000 9.559028 m
 gs 1 -1 sc sh gr
(. . . ) 11.550000 23.709028 m
 gs 1 -1 sc sh gr
(. . . ) 65.215000 23.674028 m
 gs 1 -1 sc sh gr
showpage
